transmissionlines/BB5data/stripcsv/SaveOnEvent_ALL_20250709075430297.csv

Model,MSO64
Channel,CH1,,Channel,CH2,,Channel,CH3
Label,,,Label,,,Label,
Waveform Type,ANALOG,,Waveform Type,ANALOG,,Waveform Type,ANALOG
Digital Type,None,,Digital Type,None,,Digital Type,None
Horizontal Units,s,,Horizontal Units,s,,Horizontal Units,s
Sample Interval,4.00000000e-11,,Sample Interval,4.00000000e-11,,Sample Interval,4.00000000e-11
Record Length,5000,,Record Length,5000,,Record Length,5000
Zero Index,2449.53125000,,Zero Index,2449.53125000,,Zero Index,2449.53125000
Vertical Units,V,,Vertical Units,V,,Vertical Units,V
,,,,,,,
ANALOG_Thumbnail,,,ANALOG_Thumbnail,,,ANALOG_Thumbnail,
yOffset,0.000000,,yOffset,0.000000,,yOffset,0.000000
yPosition,-2.780000,,yPosition,-2.140000,,yPosition,0.000000

Labels,,,
TIME,CH1,CH2,CH3
-9.79812500e-08,-1.18750000e-05,3.03125000e-03,3.87500000e-03
-9.79412500e-08,-1.00000000e-05,3.05781250e-03,3.91562500e-03
-9.79012500e-08,-9.68750000e-06,3.07968750e-03,3.96250000e-03
-9.78612500e-08,-1.03125000e-05,3.09218750e-03,4.01562500e-03
-9.78212500e-08,-1.28125000e-05,3.09687500e-03,4.07500000e-03
-9.77812500e-08,-1.65625000e-05,3.09375000e-03,4.13437500e-03
-9.77412500e-08,-2.15625000e-05,3.08437500e-03,4.19375000e-03
-9.77012500e-08,-2.81250000e-05,3.06718750e-03,4.25000000e-03
-9.76612500e-08,-3.62500000e-05,3.04531250e-03,4.30000000e-03
-9.76212500e-08,-4.53125000e-05,3.02187500e-03,4.34375000e-03
-9.75812500e-08,-5.56250000e-05,2.99531250e-03,4.37812500e-03
-9.75412500e-08,-6.68750000e-05,2.96875000e-03,4.40000000e-03
-9.75012500e-08,-7.90625000e-05,2.94531250e-03,4.40937500e-03
-9.74612500e-08,-9.15625000e-05,2.92656250e-03,4.40625000e-03
-9.74212500e-08,-1.04687500e-04,2.91250000e-03,4.39062500e-03
-9.73812500e-08,-1.17500000e-04,2.90625000e-03,4.36250000e-03
-9.73412500e-08,-1.30000000e-04,2.90781250e-03,4.32500000e-03
-9.73012500e-08,-1.42187500e-04,2.91718750e-03,4.27812500e-03
-9.72612500e-08,-1.53125000e-04,2.93437500e-03,4.21875000e-03
-9.72212500e-08,-1.63125000e-04,2.95937500e-03,4.15625000e-03
-9.71812500e-08,-1.71562500e-04,2.99218750e-03,4.09062500e-03
-9.71412500e-08,-1.78125000e-04,3.02968750e-03,4.02187500e-03
-9.71012500e-08,-1.83125000e-04,3.07187500e-03,3.95625000e-03
-9.70612500e-08,-1.85937500e-04,3.11562500e-03,3.89062500e-03
-9.70212500e-08,-1.86562500e-04,3.15937500e-03,3.83125000e-03
-9.69812500e-08,-1.85312500e-04,3.20000000e-03,3.77812500e-03
-9.69412500e-08,-1.81875000e-04,3.23750000e-03,3.73437500e-03
-9.69012500e-08,-1.76250000e-04,3.26875000e-03,3.70000000e-03
-9.68612500e-08,-1.69062500e-04,3.29062500e-03,3.67500000e-03
-9.68212500e-08,-1.60000000e-04,3.30468750e-03,3.65625000e-03
-9.67812500e-08,-1.49687500e-04,3.30781250e-03,3.65000000e-03
-9.67412500e-08,-1.38437500e-04,3.30000000e-03,3.65312500e-03
-9.67012500e-08,-1.26250000e-04,3.28125000e-03,3.66250000e-03
-9.66612500e-08,-1.13437500e-04,3.25312500e-03,3.67812500e-03
-9.66212500e-08,-1.00312500e-04,3.21562500e-03,3.69687500e-03
-9.65812500e-08,-8.71875000e-05,3.17031250e-03,3.72187500e-03
-9.65412500e-08,-7.43750000e-05,3.11875000e-03,3.74687500e-03
-9.65012500e-08,-6.18750000e-05,3.06406250e-03,3.77187500e-03
-9.64612500e-08,-5.00000000e-05,3.00625000e-03,3.79375000e-03
-9.64212500e-08,-3.87500000e-05,2.94843750e-03,3.81250000e-03
-9.63812500e-08,-2.84375000e-05,2.89375000e-03,3.82812500e-03
-9.63412500e-08,-1.84375000e-05,2.84375000e-03,3.84062500e-03
-9.63012500e-08,-9.37500000e-06,2.80000000e-03,3.84375000e-03
-9.62612500e-08,-6.25000000e-07,2.76406250e-03,3.84687500e-03
-9.62212500e-08,7.50000000e-06,2.73750000e-03,3.84062500e-03
-9.61812500e-08,1.53125000e-05,2.72031250e-03,3.83437500e-03
-9.61412500e-08,2.28125000e-05,2.71406250e-03,3.82187500e-03
-9.61012500e-08,3.03125000e-05,2.71875000e-03,3.80937500e-03
-9.60612500e-08,3.75000000e-05,2.73281250e-03,3.79687500e-03
-9.60212500e-08,4.50000000e-05,2.75625000e-03,3.78125000e-03
-9.59812500e-08,5.21875000e-05,2.78750000e-03,3.76875000e-03
-9.59412500e-08,5.90625000e-05,2.82500000e-03,3.75937500e-03
-9.59012500e-08,6.62500000e-05,2.86718750e-03,3.75625000e-03
-9.58612500e-08,7.28125000e-05,2.91250000e-03,3.75312500e-03
-9.58212500e-08,7.87500000e-05,2.95781250e-03,3.75937500e-03
-9.57812500e-08,8.40625000e-05,3.00468750e-03,3.76875000e-03
-9.57412500e-08,8.87500000e-05,3.04843750e-03,3.78750000e-03
-9.57012500e-08,9.21875000e-05,3.08906250e-03,3.80937500e-03
-9.56612500e-08,9.40625000e-05,3.12656250e-03,3.83750000e-03
-9.56212500e-08,9.46875000e-05,3.15625000e-03,3.86875000e-03
-9.55812500e-08,9.34375000e-05,3.18125000e-03,3.90312500e-03
-9.55412500e-08,9.06250000e-05,3.20000000e-03,3.94062500e-03
-9.55012500e-08,8.59375000e-05,3.21250000e-03,3.98125000e-03
-9.54612500e-08,7.93750000e-05,3.21718750e-03,4.01875000e-03
-9.54212500e-08,7.12500000e-05,3.21875000e-03,4.05625000e-03
-9.53812500e-08,6.18750000e-05,3.21250000e-03,4.09062500e-03
-9.53412500e-08,5.09375000e-05,3.20312500e-03,4.12500000e-03
-9.53012500e-08,3.90625000e-05,3.19062500e-03,4.15000000e-03
-9.52612500e-08,2.65625000e-05,3.17343750e-03,4.17187500e-03
-9.52212500e-08,1.37500000e-05,3.15468750e-03,4.19062500e-03
-9.51812500e-08,1.25000000e-06,3.13437500e-03,4.20000000e-03
-9.51412500e-08,-1.09375000e-05,3.11250000e-03,4.20312500e-03
-9.51012500e-08,-2.21875000e-05,3.08906250e-03,4.20312500e-03
-9.50612500e-08,-3.21875000e-05,3.06562500e-03,4.19687500e-03
-9.50212500e-08,-4.06250000e-05,3.04218750e-03,4.18437500e-03
-9.49812500e-08,-4.75000000e-05,3.01875000e-03,4.16875000e-03
-9.49412500e-08,-5.21875000e-05,2.99531250e-03,4.14687500e-03
-9.49012500e-08,-5.53125000e-05,2.97031250e-03,4.12500000e-03
-9.48612500e-08,-5.62500000e-05,2.94687500e-03,4.10000000e-03
-9.48212500e-08,-5.53125000e-05,2.92187500e-03,4.07500000e-03
-9.47812500e-08,-5.28125000e-05,2.89687500e-03,4.05000000e-03
-9.47412500e-08,-4.87500000e-05,2.87187500e-03,4.02500000e-03
-9.47012500e-08,-4.34375000e-05,2.84687500e-03,4.00312500e-03
-9.46612500e-08,-3.75000000e-05,2.82187500e-03,3.98437500e-03
-9.46212500e-08,-3.06250000e-05,2.79843750e-03,3.96875000e-03
-9.45812500e-08,-2.40625000e-05,2.77656250e-03,3.95312500e-03
-9.45412500e-08,-1.75000000e-05,2.75625000e-03,3.94375000e-03
-9.45012500e-08,-1.12500000e-05,2.73750000e-03,3.94062500e-03
-9.44612500e-08,-5.93750000e-06,2.72343750e-03,3.93750000e-03
-9.44212500e-08,-1.25000000e-06,2.71250000e-03,3.93750000e-03
-9.43812500e-08,2.18750000e-06,2.70625000e-03,3.94375000e-03
-9.43412500e-08,4.37500000e-06,2.70468750e-03,3.95312500e-03
-9.43012500e-08,5.31250000e-06,2.70937500e-03,3.96250000e-03
-9.42612500e-08,5.31250000e-06,2.71718750e-03,3.97500000e-03
-9.42212500e-08,4.06250000e-06,2.73125000e-03,3.98750000e-03
-9.41812500e-08,2.18750000e-06,2.75156250e-03,4.00000000e-03
-9.41412500e-08,-9.37500000e-07,2.77343750e-03,4.01562500e-03
-9.41012500e-08,-4.37500000e-06,2.80156250e-03,4.02812500e-03
-9.40612500e-08,-8.12500000e-06,2.82968750e-03,4.03750000e-03
-9.40212500e-08,-1.21875000e-05,2.86093750e-03,4.04687500e-03
-9.39812500e-08,-1.65625000e-05,2.89375000e-03,4.05312500e-03
-9.39412500e-08,-2.06250000e-05,2.92500000e-03,4.05625000e-03
-9.39012500e-08,-2.50000000e-05,2.95468750e-03,4.05625000e-03
-9.38612500e-08,-2.90625000e-05,2.98125000e-03,4.05625000e-03
-9.38212500e-08,-3.28125000e-05,3.00468750e-03,4.05000000e-03
-9.37812500e-08,-3.68750000e-05,3.02343750e-03,4.04062500e-03
-9.37412500e-08,-4.06250000e-05,3.03906250e-03,4.02812500e-03
-9.37012500e-08,-4.43750000e-05,3.04843750e-03,4.01562500e-03
-9.36612500e-08,-4.87500000e-05,3.05156250e-03,4.00312500e-03
-9.36212500e-08,-5.31250000e-05,3.05156250e-03,3.98750000e-03
-9.35812500e-08,-5.78125000e-05,3.04687500e-03,3.97187500e-03
-9.35412500e-08,-6.28125000e-05,3.03906250e-03,3.95937500e-03
-9.35012500e-08,-6.84375000e-05,3.02656250e-03,3.94687500e-03
-9.34612500e-08,-7.43750000e-05,3.01406250e-03,3.93750000e-03
-9.34212500e-08,-8.06250000e-05,3.00000000e-03,3.93125000e-03
-9.33812500e-08,-8.71875000e-05,2.98593750e-03,3.92812500e-03
-9.33412500e-08,-9.34375000e-05,2.97187500e-03,3.93125000e-03
-9.33012500e-08,-9.93750000e-05,2.96093750e-03,3.93750000e-03
-9.32612500e-08,-1.04687500e-04,2.95312500e-03,3.95000000e-03
-9.32212500e-08,-1.09375000e-04,2.94843750e-03,3.96250000e-03
-9.31812500e-08,-1.12812500e-04,2.94687500e-03,3.98125000e-03
-9.31412500e-08,-1.15000000e-04,2.94843750e-03,4.00312500e-03
-9.31012500e-08,-1.15312500e-04,2.95468750e-03,4.02500000e-03
-9.30612500e-08,-1.14062500e-04,2.96406250e-03,4.04687500e-03
-9.30212500e-08,-1.10937500e-04,2.97656250e-03,4.06875000e-03
-9.29812500e-08,-1.05937500e-04,2.99062500e-03,4.08750000e-03
-9.29412500e-08,-9.87500000e-05,3.00468750e-03,4.10312500e-03
-9.29012500e-08,-9.03125000e-05,3.02031250e-03,4.11562500e-03
-9.28612500e-08,-8.03125000e-05,3.03593750e-03,4.11875000e-03
-9.28212500e-08,-6.93750000e-05,3.05000000e-03,4.11562500e-03
-9.27812500e-08,-5.81250000e-05,3.06250000e-03,4.10625000e-03
-9.27412500e-08,-4.62500000e-05,3.07343750e-03,4.08750000e-03
-9.27012500e-08,-3.53125000e-05,3.08125000e-03,4.06250000e-03
-9.26612500e-08,-2.50000000e-05,3.08593750e-03,4.02812500e-03
-9.26212500e-08,-1.65625000e-05,3.08750000e-03,3.98750000e-03
-9.25812500e-08,-1.00000000e-05,3.08750000e-03,3.94062500e-03
-9.25412500e-08,-5.62500000e-06,3.08593750e-03,3.88750000e-03
-9.25012500e-08,-4.06250000e-06,3.08125000e-03,3.83125000e-03
-9.24612500e-08,-5.00000000e-06,3.07656250e-03,3.77500000e-03
-9.24212500e-08,-9.37500000e-06,3.07031250e-03,3.72187500e-03
-9.23812500e-08,-1.62500000e-05,3.06562500e-03,3.66875000e-03
-9.23412500e-08,-2.56250000e-05,3.06093750e-03,3.61875000e-03
-9.23012500e-08,-3.71875000e-05,3.05781250e-03,3.57812500e-03
-9.22612500e-08,-5.06250000e-05,3.05625000e-03,3.54687500e-03
-9.22212500e-08,-6.50000000e-05,3.05781250e-03,3.52187500e-03
-9.21812500e-08,-7.96875000e-05,3.06093750e-03,3.50937500e-03
-9.21412500e-08,-9.43750000e-05,3.06718750e-03,3.50625000e-03
-9.21012500e-08,-1.07812500e-04,3.07500000e-03,3.51562500e-03
-9.20612500e-08,-1.19687500e-04,3.08437500e-03,3.53750000e-03
-9.20212500e-08,-1.29062500e-04,3.09375000e-03,3.56562500e-03
-9.19812500e-08,-1.35937500e-04,3.10468750e-03,3.60312500e-03
-9.19412500e-08,-1.39375000e-04,3.11562500e-03,3.65000000e-03
-9.19012500e-08,-1.39375000e-04,3.12656250e-03,3.70312500e-03
-9.18612500e-08,-1.35937500e-04,3.13437500e-03,3.75625000e-03
-9.18212500e-08,-1.28750000e-04,3.14062500e-03,3.81250000e-03
-9.17812500e-08,-1.18437500e-04,3.14531250e-03,3.86875000e-03
-9.17412500e-08,-1.05312500e-04,3.14687500e-03,3.92187500e-03
-9.17012500e-08,-9.00000000e-05,3.14531250e-03,3.97187500e-03
-9.16612500e-08,-7.31250000e-05,3.14218750e-03,4.01562500e-03
-9.16212500e-08,-5.53125000e-05,3.13593750e-03,4.05000000e-03
-9.15812500e-08,-3.75000000e-05,3.12656250e-03,4.08125000e-03
-9.15412500e-08,-2.03125000e-05,3.11718750e-03,4.10000000e-03
-9.15012500e-08,-4.68750000e-06,3.10625000e-03,4.11250000e-03
-9.14612500e-08,8.43750000e-06,3.09531250e-03,4.11562500e-03
-9.14212500e-08,1.90625000e-05,3.08593750e-03,4.11250000e-03
-9.13812500e-08,2.62500000e-05,3.07656250e-03,4.10312500e-03
-9.13412500e-08,2.96875000e-05,3.07031250e-03,4.09062500e-03
-9.13012500e-08,2.96875000e-05,3.06562500e-03,4.07187500e-03
-9.12612500e-08,2.59375000e-05,3.06250000e-03,4.05000000e-03
-9.12212500e-08,1.84375000e-05,3.06406250e-03,4.02812500e-03
-9.11812500e-08,8.12500000e-06,3.06718750e-03,4.00625000e-03
-9.11412500e-08,-4.68750000e-06,3.07343750e-03,3.98750000e-03
-9.11012500e-08,-1.93750000e-05,3.08125000e-03,3.96875000e-03
-9.10612500e-08,-3.53125000e-05,3.09062500e-03,3.95625000e-03
-9.10212500e-08,-5.15625000e-05,3.10156250e-03,3.94687500e-03
-9.09812500e-08,-6.75000000e-05,3.11093750e-03,3.94062500e-03
-9.09412500e-08,-8.25000000e-05,3.12031250e-03,3.94062500e-03
-9.09012500e-08,-9.56250000e-05,3.12812500e-03,3.94375000e-03
-9.08612500e-08,-1.06875000e-04,3.13281250e-03,3.95000000e-03
-9.08212500e-08,-1.15312500e-04,3.13593750e-03,3.95937500e-03
-9.07812500e-08,-1.20937500e-04,3.13437500e-03,3.97187500e-03
-9.07412500e-08,-1.23750000e-04,3.12968750e-03,3.98437500e-03
-9.07012500e-08,-1.24062500e-04,3.12031250e-03,3.99687500e-03
-9.06612500e-08,-1.21562500e-04,3.10781250e-03,4.00937500e-03
-9.06212500e-08,-1.16875000e-04,3.09218750e-03,4.01875000e-03
-9.05812500e-08,-1.10625000e-04,3.07500000e-03,4.02812500e-03
-9.05412500e-08,-1.03437500e-04,3.05468750e-03,4.03437500e-03
-9.05012500e-08,-9.59375000e-05,3.03437500e-03,4.03750000e-03
-9.04612500e-08,-8.87500000e-05,3.01406250e-03,4.03750000e-03
-9.04212500e-08,-8.21875000e-05,2.99375000e-03,4.03750000e-03
-9.03812500e-08,-7.71875000e-05,2.97656250e-03,4.03437500e-03
-9.03412500e-08,-7.43750000e-05,2.96250000e-03,4.02812500e-03
-9.03012500e-08,-7.34375000e-05,2.95156250e-03,4.01875000e-03
-9.02612500e-08,-7.50000000e-05,2.94375000e-03,4.01250000e-03
-9.02212500e-08,-7.90625000e-05,2.94218750e-03,4.00312500e-03
-9.01812500e-08,-8.53125000e-05,2.94531250e-03,3.99687500e-03
-9.01412500e-08,-9.37500000e-05,2.95156250e-03,3.99062500e-03
-9.01012500e-08,-1.03750000e-04,2.96406250e-03,3.98437500e-03
-9.00612500e-08,-1.15000000e-04,2.97812500e-03,3.98125000e-03
-9.00212500e-08,-1.26562500e-04,2.99687500e-03,3.97812500e-03
-8.99812500e-08,-1.37812500e-04,3.01718750e-03,3.97812500e-03
-8.99412500e-08,-1.48125000e-04,3.03750000e-03,3.98125000e-03
-8.99012500e-08,-1.56875000e-04,3.05781250e-03,3.98125000e-03
-8.98612500e-08,-1.63437500e-04,3.07656250e-03,3.98750000e-03
-8.98212500e-08,-1.67500000e-04,3.09218750e-03,3.99062500e-03
-8.97812500e-08,-1.68125000e-04,3.10468750e-03,3.99687500e-03
-8.97412500e-08,-1.65625000e-04,3.11406250e-03,4.00312500e-03
-8.97012500e-08,-1.59687500e-04,3.11718750e-03,4.00625000e-03
-8.96612500e-08,-1.50625000e-04,3.11562500e-03,4.00937500e-03
-8.96212500e-08,-1.38437500e-04,3.10937500e-03,4.01250000e-03
-8.95812500e-08,-1.23437500e-04,3.09687500e-03,4.01250000e-03
-8.95412500e-08,-1.06562500e-04,3.07968750e-03,4.01250000e-03
-8.95012500e-08,-8.84375000e-05,3.05937500e-03,4.00937500e-03
-8.94612500e-08,-6.93750000e-05,3.03593750e-03,4.00937500e-03
-8.94212500e-08,-5.03125000e-05,3.00937500e-03,4.00312500e-03
-8.93812500e-08,-3.25000000e-05,2.98125000e-03,4.00000000e-03
-8.93412500e-08,-1.59375000e-05,2.95312500e-03,3.99687500e-03
-8.93012500e-08,-1.87500000e-06,2.92500000e-03,3.99375000e-03
-8.92612500e-08,9.68750000e-06,2.89843750e-03,3.99062500e-03
-8.92212500e-08,1.75000000e-05,2.87500000e-03,3.98750000e-03
-8.91812500e-08,2.21875000e-05,2.85468750e-03,3.98750000e-03
-8.91412500e-08,2.31250000e-05,2.83750000e-03,3.99062500e-03
-8.91012500e-08,2.03125000e-05,2.82500000e-03,3.99375000e-03
-8.90612500e-08,1.40625000e-05,2.81718750e-03,4.00000000e-03
-8.90212500e-08,5.00000000e-06,2.81250000e-03,4.00625000e-03
-8.89812500e-08,-6.87500000e-06,2.81250000e-03,4.01562500e-03
-8.89412500e-08,-2.03125000e-05,2.81562500e-03,4.02500000e-03
-8.89012500e-08,-3.53125000e-05,2.82187500e-03,4.03437500e-03
-8.88612500e-08,-5.09375000e-05,2.82968750e-03,4.04687500e-03
-8.88212500e-08,-6.65625000e-05,2.84062500e-03,4.05625000e-03
-8.87812500e-08,-8.15625000e-05,2.85156250e-03,4.06562500e-03
-8.87412500e-08,-9.50000000e-05,2.86250000e-03,4.07187500e-03
-8.87012500e-08,-1.06562500e-04,2.87343750e-03,4.07812500e-03
-8.86612500e-08,-1.15937500e-04,2.88281250e-03,4.08125000e-03
-8.86212500e-08,-1.22812500e-04,2.89062500e-03,4.08125000e-03
-8.85812500e-08,-1.26875000e-04,2.89687500e-03,4.08125000e-03
-8.85412500e-08,-1.28437500e-04,2.90156250e-03,4.07500000e-03
-8.85012500e-08,-1.27500000e-04,2.90312500e-03,4.07187500e-03
-8.84612500e-08,-1.24375000e-04,2.90312500e-03,4.06250000e-03
-8.84212500e-08,-1.19062500e-04,2.90156250e-03,4.05312500e-03
-8.83812500e-08,-1.12500000e-04,2.89843750e-03,4.04375000e-03
-8.83412500e-08,-1.04687500e-04,2.89375000e-03,4.03125000e-03
-8.83012500e-08,-9.62500000e-05,2.88750000e-03,4.01875000e-03
-8.82612500e-08,-8.78125000e-05,2.88125000e-03,4.00937500e-03
-8.82212500e-08,-7.96875000e-05,2.87500000e-03,4.00000000e-03
-8.81812500e-08,-7.25000000e-05,2.86875000e-03,3.99062500e-03
-8.81412500e-08,-6.65625000e-05,2.86250000e-03,3.98437500e-03
-8.81012500e-08,-6.18750000e-05,2.85781250e-03,3.97812500e-03
-8.80612500e-08,-5.87500000e-05,2.85312500e-03,3.97812500e-03
-8.80212500e-08,-5.75000000e-05,2.85000000e-03,3.97500000e-03
-8.79812500e-08,-5.75000000e-05,2.84843750e-03,3.97500000e-03
-8.79412500e-08,-5.90625000e-05,2.84687500e-03,3.97812500e-03
-8.79012500e-08,-6.21875000e-05,2.84687500e-03,3.98125000e-03
-8.78612500e-08,-6.62500000e-05,2.84843750e-03,3.98750000e-03
-8.78212500e-08,-7.12500000e-05,2.85000000e-03,3.99062500e-03
-8.77812500e-08,-7.65625000e-05,2.85156250e-03,3.99687500e-03
-8.77412500e-08,-8.21875000e-05,2.85468750e-03,4.00000000e-03
-8.77012500e-08,-8.75000000e-05,2.85781250e-03,4.00312500e-03
-8.76612500e-08,-9.28125000e-05,2.86093750e-03,4.00625000e-03
-8.76212500e-08,-9.71875000e-05,2.86562500e-03,4.00937500e-03
-8.75812500e-08,-1.00937500e-04,2.87187500e-03,4.01250000e-03
-8.75412500e-08,-1.03750000e-04,2.87656250e-03,4.01250000e-03
-8.75012500e-08,-1.05937500e-04,2.88437500e-03,4.01250000e-03
-8.74612500e-08,-1.06875000e-04,2.89218750e-03,4.00937500e-03
-8.74212500e-08,-1.07187500e-04,2.90000000e-03,4.00937500e-03
-8.73812500e-08,-1.06562500e-04,2.90937500e-03,4.00625000e-03
-8.73412500e-08,-1.05312500e-04,2.92031250e-03,4.00312500e-03
-8.73012500e-08,-1.03750000e-04,2.93281250e-03,4.00312500e-03
-8.72612500e-08,-1.01562500e-04,2.94687500e-03,4.00312500e-03
-8.72212500e-08,-9.93750000e-05,2.96093750e-03,4.00000000e-03
-8.71812500e-08,-9.71875000e-05,2.97500000e-03,4.00000000e-03
-8.71412500e-08,-9.53125000e-05,2.99062500e-03,4.00000000e-03
-8.71012500e-08,-9.31250000e-05,3.00625000e-03,4.00312500e-03
-8.70612500e-08,-9.12500000e-05,3.02187500e-03,4.00312500e-03
-8.70212500e-08,-8.96875000e-05,3.03750000e-03,4.00312500e-03
-8.69812500e-08,-8.81250000e-05,3.05000000e-03,4.00625000e-03
-8.69412500e-08,-8.68750000e-05,3.06406250e-03,4.00625000e-03
-8.69012500e-08,-8.53125000e-05,3.07343750e-03,4.00625000e-03
-8.68612500e-08,-8.40625000e-05,3.08281250e-03,4.00312500e-03
-8.68212500e-08,-8.25000000e-05,3.08906250e-03,4.00000000e-03
-8.67812500e-08,-8.06250000e-05,3.09375000e-03,3.99375000e-03
-8.67412500e-08,-7.84375000e-05,3.09531250e-03,3.98750000e-03
-8.67012500e-08,-7.59375000e-05,3.09375000e-03,3.98125000e-03
-8.66612500e-08,-7.31250000e-05,3.08906250e-03,3.97187500e-03
-8.66212500e-08,-7.00000000e-05,3.08281250e-03,3.96250000e-03
-8.65812500e-08,-6.65625000e-05,3.07500000e-03,3.95312500e-03
-8.65412500e-08,-6.28125000e-05,3.06406250e-03,3.94062500e-03
-8.65012500e-08,-5.87500000e-05,3.05312500e-03,3.93125000e-03
-8.64612500e-08,-5.46875000e-05,3.03906250e-03,3.92187500e-03
-8.64212500e-08,-5.06250000e-05,3.02500000e-03,3.91562500e-03
-8.63812500e-08,-4.68750000e-05,3.01093750e-03,3.90937500e-03
-8.63412500e-08,-4.37500000e-05,2.99687500e-03,3.90937500e-03
-8.63012500e-08,-4.06250000e-05,2.98281250e-03,3.90937500e-03
-8.62612500e-08,-3.81250000e-05,2.96875000e-03,3.91250000e-03
-8.62212500e-08,-3.62500000e-05,2.95468750e-03,3.92187500e-03
-8.61812500e-08,-3.50000000e-05,2.94218750e-03,3.93125000e-03
-8.61412500e-08,-3.43750000e-05,2.92968750e-03,3.94375000e-03
-8.61012500e-08,-3.40625000e-05,2.91875000e-03,3.95937500e-03
-8.60612500e-08,-3.43750000e-05,2.90781250e-03,3.97500000e-03
-8.60212500e-08,-3.50000000e-05,2.89843750e-03,3.99062500e-03
-8.59812500e-08,-3.56250000e-05,2.88906250e-03,4.00937500e-03
-8.59412500e-08,-3.62500000e-05,2.88125000e-03,4.02500000e-03
-8.59012500e-08,-3.68750000e-05,2.87343750e-03,4.03750000e-03
-8.58612500e-08,-3.71875000e-05,2.86562500e-03,4.04687500e-03
-8.58212500e-08,-3.68750000e-05,2.85937500e-03,4.05625000e-03
-8.57812500e-08,-3.62500000e-05,2.85468750e-03,4.05937500e-03
-8.57412500e-08,-3.50000000e-05,2.85000000e-03,4.05937500e-03
-8.57012500e-08,-3.28125000e-05,2.84531250e-03,4.05312500e-03
-8.56612500e-08,-3.03125000e-05,2.84375000e-03,4.04375000e-03
-8.56212500e-08,-2.71875000e-05,2.84375000e-03,4.03125000e-03
-8.55812500e-08,-2.37500000e-05,2.84375000e-03,4.01562500e-03
