transmissionlines/BB5data/stripcsv/SaveOnEvent_ALL_20250709075311001.csv

Model,MSO64
Channel,CH1,,Channel,CH2,,Channel,CH3
Label,,,Label,,,Label,
Waveform Type,ANALOG,,Waveform Type,ANALOG,,Waveform Type,ANALOG
Digital Type,None,,Digital Type,None,,Digital Type,None
Horizontal Units,s,,Horizontal Units,s,,Horizontal Units,s
Sample Interval,4.00000000e-11,,Sample Interval,4.00000000e-11,,Sample Interval,4.00000000e-11
Record Length,5000,,Record Length,5000,,Record Length,5000
Zero Index,2449.53125000,,Zero Index,2449.53125000,,Zero Index,2449.53125000
Vertical Units,V,,Vertical Units,V,,Vertical Units,V
,,,,,,,
ANALOG_Thumbnail,,,ANALOG_Thumbnail,,,ANALOG_Thumbnail,
yOffset,0.000000,,yOffset,0.000000,,yOffset,0.000000
yPosition,-2.780000,,yPosition,-2.140000,,yPosition,0.000000

Labels,,,
TIME,CH1,CH2,CH3
-9.79812500e-08,2.68125000e-04,3.29375000e-03,3.53125000e-03
-9.79412500e-08,2.58437500e-04,3.27343750e-03,3.57500000e-03
-9.79012500e-08,2.49375000e-04,3.25468750e-03,3.62500000e-03
-9.78612500e-08,2.40937500e-04,3.23906250e-03,3.68437500e-03
-9.78212500e-08,2.34375000e-04,3.22812500e-03,3.74375000e-03
-9.77812500e-08,2.29375000e-04,3.22031250e-03,3.80312500e-03
-9.77412500e-08,2.26562500e-04,3.22031250e-03,3.86562500e-03
-9.77012500e-08,2.26250000e-04,3.22500000e-03,3.92187500e-03
-9.76612500e-08,2.28125000e-04,3.23750000e-03,3.97500000e-03
-9.76212500e-08,2.32500000e-04,3.25625000e-03,4.02187500e-03
-9.75812500e-08,2.38750000e-04,3.28125000e-03,4.06250000e-03
-9.75412500e-08,2.46562500e-04,3.31093750e-03,4.09375000e-03
-9.75012500e-08,2.55312500e-04,3.34375000e-03,4.11875000e-03
-9.74612500e-08,2.65000000e-04,3.37968750e-03,4.13125000e-03
-9.74212500e-08,2.74375000e-04,3.41718750e-03,4.13750000e-03
-9.73812500e-08,2.83437500e-04,3.45312500e-03,4.13437500e-03
-9.73412500e-08,2.91562500e-04,3.48750000e-03,4.12187500e-03
-9.73012500e-08,2.97812500e-04,3.51718750e-03,4.10625000e-03
-9.72612500e-08,3.02500000e-04,3.54062500e-03,4.08437500e-03
-9.72212500e-08,3.05000000e-04,3.55937500e-03,4.05937500e-03
-9.71812500e-08,3.05000000e-04,3.57031250e-03,4.03125000e-03
-9.71412500e-08,3.03125000e-04,3.57187500e-03,4.00312500e-03
-9.71012500e-08,2.99062500e-04,3.56718750e-03,3.97812500e-03
-9.70612500e-08,2.93437500e-04,3.55468750e-03,3.95625000e-03
-9.70212500e-08,2.86875000e-04,3.53437500e-03,3.93750000e-03
-9.69812500e-08,2.79687500e-04,3.50937500e-03,3.92187500e-03
-9.69412500e-08,2.72500000e-04,3.47812500e-03,3.91250000e-03
-9.69012500e-08,2.66250000e-04,3.44375000e-03,3.90937500e-03
-9.68612500e-08,2.61562500e-04,3.40781250e-03,3.91250000e-03
-9.68212500e-08,2.58750000e-04,3.37187500e-03,3.91875000e-03
-9.67812500e-08,2.58750000e-04,3.33750000e-03,3.93125000e-03
-9.67412500e-08,2.61875000e-04,3.30625000e-03,3.94687500e-03
-9.67012500e-08,2.68125000e-04,3.27968750e-03,3.96562500e-03
-9.66612500e-08,2.77500000e-04,3.25781250e-03,3.98750000e-03
-9.66212500e-08,2.90312500e-04,3.24375000e-03,4.00937500e-03
-9.65812500e-08,3.05625000e-04,3.23593750e-03,4.02812500e-03
-9.65412500e-08,3.23437500e-04,3.23437500e-03,4.04687500e-03
-9.65012500e-08,3.42812500e-04,3.24062500e-03,4.06250000e-03
-9.64612500e-08,3.63125000e-04,3.25156250e-03,4.07187500e-03
-9.64212500e-08,3.83437500e-04,3.26875000e-03,4.08125000e-03
-9.63812500e-08,4.02812500e-04,3.29062500e-03,4.08125000e-03
-9.63412500e-08,4.20000000e-04,3.31562500e-03,4.07812500e-03
-9.63012500e-08,4.34375000e-04,3.34375000e-03,4.06875000e-03
-9.62612500e-08,4.45312500e-04,3.37031250e-03,4.05625000e-03
-9.62212500e-08,4.51875000e-04,3.39687500e-03,4.03750000e-03
-9.61812500e-08,4.53750000e-04,3.42187500e-03,4.01875000e-03
-9.61412500e-08,4.50625000e-04,3.44375000e-03,3.99375000e-03
-9.61012500e-08,4.42187500e-04,3.46250000e-03,3.97187500e-03
-9.60612500e-08,4.29375000e-04,3.47656250e-03,3.95000000e-03
-9.60212500e-08,4.11875000e-04,3.48593750e-03,3.92812500e-03
-9.59812500e-08,3.90625000e-04,3.49062500e-03,3.91250000e-03
-9.59412500e-08,3.66875000e-04,3.49062500e-03,3.90000000e-03
-9.59012500e-08,3.40625000e-04,3.48750000e-03,3.89375000e-03
-9.58612500e-08,3.13750000e-04,3.48125000e-03,3.89062500e-03
-9.58212500e-08,2.87187500e-04,3.47187500e-03,3.90000000e-03
-9.57812500e-08,2.61875000e-04,3.46093750e-03,3.91250000e-03
-9.57412500e-08,2.39062500e-04,3.45000000e-03,3.93437500e-03
-9.57012500e-08,2.19062500e-04,3.43750000e-03,3.96250000e-03
-9.56612500e-08,2.03437500e-04,3.42500000e-03,4.00000000e-03
-9.56212500e-08,1.92187500e-04,3.41406250e-03,4.04062500e-03
-9.55812500e-08,1.85937500e-04,3.40468750e-03,4.08750000e-03
-9.55412500e-08,1.84375000e-04,3.39687500e-03,4.13437500e-03
-9.55012500e-08,1.87812500e-04,3.39062500e-03,4.18750000e-03
-9.54612500e-08,1.95312500e-04,3.38437500e-03,4.23750000e-03
-9.54212500e-08,2.06875000e-04,3.38125000e-03,4.28750000e-03
-9.53812500e-08,2.21250000e-04,3.37812500e-03,4.33437500e-03
-9.53412500e-08,2.37500000e-04,3.37500000e-03,4.37500000e-03
-9.53012500e-08,2.55000000e-04,3.37187500e-03,4.40937500e-03
-9.52612500e-08,2.72187500e-04,3.36718750e-03,4.43750000e-03
-9.52212500e-08,2.88750000e-04,3.36406250e-03,4.45625000e-03
-9.51812500e-08,3.03125000e-04,3.35781250e-03,4.46250000e-03
-9.51412500e-08,3.15000000e-04,3.35156250e-03,4.46250000e-03
-9.51012500e-08,3.23750000e-04,3.34375000e-03,4.45000000e-03
-9.50612500e-08,3.28750000e-04,3.33437500e-03,4.42812500e-03
-9.50212500e-08,3.30000000e-04,3.32343750e-03,4.39375000e-03
-9.49812500e-08,3.27500000e-04,3.31406250e-03,4.35312500e-03
-9.49412500e-08,3.21250000e-04,3.30312500e-03,4.30000000e-03
-9.49012500e-08,3.12500000e-04,3.29375000e-03,4.24375000e-03
-9.48612500e-08,3.01250000e-04,3.28593750e-03,4.18125000e-03
-9.48212500e-08,2.88437500e-04,3.28125000e-03,4.11250000e-03
-9.47812500e-08,2.75000000e-04,3.27812500e-03,4.04375000e-03
-9.47412500e-08,2.61875000e-04,3.27812500e-03,3.97500000e-03
-9.47012500e-08,2.49687500e-04,3.28125000e-03,3.90625000e-03
-9.46612500e-08,2.39375000e-04,3.28750000e-03,3.84062500e-03
-9.46212500e-08,2.31875000e-04,3.29687500e-03,3.78125000e-03
-9.45812500e-08,2.27500000e-04,3.31093750e-03,3.72500000e-03
-9.45412500e-08,2.26562500e-04,3.32656250e-03,3.67812500e-03
-9.45012500e-08,2.28750000e-04,3.34531250e-03,3.64062500e-03
-9.44612500e-08,2.34687500e-04,3.36562500e-03,3.60937500e-03
-9.44212500e-08,2.43750000e-04,3.38593750e-03,3.59062500e-03
-9.43812500e-08,2.55000000e-04,3.40781250e-03,3.58125000e-03
-9.43412500e-08,2.68437500e-04,3.42656250e-03,3.57812500e-03
-9.43012500e-08,2.83125000e-04,3.44375000e-03,3.58750000e-03
-9.42612500e-08,2.97812500e-04,3.45937500e-03,3.60625000e-03
-9.42212500e-08,3.12187500e-04,3.47187500e-03,3.63125000e-03
-9.41812500e-08,3.25312500e-04,3.47968750e-03,3.66562500e-03
-9.41412500e-08,3.35937500e-04,3.48437500e-03,3.70312500e-03
-9.41012500e-08,3.44375000e-04,3.48593750e-03,3.74687500e-03
-9.40612500e-08,3.49687500e-04,3.48281250e-03,3.79375000e-03
-9.40212500e-08,3.51562500e-04,3.47656250e-03,3.84375000e-03
-9.39812500e-08,3.50312500e-04,3.46875000e-03,3.89375000e-03
-9.39412500e-08,3.45937500e-04,3.45781250e-03,3.94375000e-03
-9.39012500e-08,3.39375000e-04,3.44531250e-03,3.99375000e-03
-9.38612500e-08,3.30625000e-04,3.43281250e-03,4.04062500e-03
-9.38212500e-08,3.20937500e-04,3.42187500e-03,4.08437500e-03
-9.37812500e-08,3.10625000e-04,3.41093750e-03,4.12500000e-03
-9.37412500e-08,3.00937500e-04,3.40156250e-03,4.15937500e-03
-9.37012500e-08,2.93125000e-04,3.39531250e-03,4.18750000e-03
-9.36612500e-08,2.87187500e-04,3.39218750e-03,4.21250000e-03
-9.36212500e-08,2.84375000e-04,3.39218750e-03,4.23125000e-03
-9.35812500e-08,2.85000000e-04,3.39375000e-03,4.24375000e-03
-9.35412500e-08,2.89375000e-04,3.40000000e-03,4.25000000e-03
-9.35012500e-08,2.97812500e-04,3.40781250e-03,4.25000000e-03
-9.34612500e-08,3.09687500e-04,3.41718750e-03,4.24375000e-03
-9.34212500e-08,3.25000000e-04,3.42812500e-03,4.23437500e-03
-9.33812500e-08,3.43437500e-04,3.43906250e-03,4.21875000e-03
-9.33412500e-08,3.63437500e-04,3.45000000e-03,4.20000000e-03
-9.33012500e-08,3.84375000e-04,3.46093750e-03,4.17812500e-03
-9.32612500e-08,4.05625000e-04,3.46875000e-03,4.15625000e-03
-9.32212500e-08,4.25312500e-04,3.47656250e-03,4.12812500e-03
-9.31812500e-08,4.43125000e-04,3.47968750e-03,4.10312500e-03
-9.31412500e-08,4.57812500e-04,3.48125000e-03,4.07500000e-03
-9.31012500e-08,4.68437500e-04,3.47968750e-03,4.05000000e-03
-9.30612500e-08,4.74687500e-04,3.47656250e-03,4.02187500e-03
-9.30212500e-08,4.75937500e-04,3.46875000e-03,4.00000000e-03
-9.29812500e-08,4.72187500e-04,3.45937500e-03,3.97812500e-03
-9.29412500e-08,4.63750000e-04,3.44843750e-03,3.96250000e-03
-9.29012500e-08,4.50625000e-04,3.43750000e-03,3.94687500e-03
-9.28612500e-08,4.33437500e-04,3.42343750e-03,3.93750000e-03
-9.28212500e-08,4.13437500e-04,3.41093750e-03,3.93125000e-03
-9.27812500e-08,3.91875000e-04,3.40000000e-03,3.92812500e-03
-9.27412500e-08,3.69062500e-04,3.38906250e-03,3.93125000e-03
-9.27012500e-08,3.46875000e-04,3.38125000e-03,3.93437500e-03
-9.26612500e-08,3.26250000e-04,3.37343750e-03,3.94375000e-03
-9.26212500e-08,3.08125000e-04,3.36875000e-03,3.95625000e-03
-9.25812500e-08,2.93750000e-04,3.36718750e-03,3.96875000e-03
-9.25412500e-08,2.83437500e-04,3.36718750e-03,3.98437500e-03
-9.25012500e-08,2.77812500e-04,3.36875000e-03,4.00000000e-03
-9.24612500e-08,2.77500000e-04,3.37343750e-03,4.01562500e-03
-9.24212500e-08,2.81875000e-04,3.37812500e-03,4.02812500e-03
-9.23812500e-08,2.90937500e-04,3.38437500e-03,4.04062500e-03
-9.23412500e-08,3.03750000e-04,3.39062500e-03,4.05000000e-03
-9.23012500e-08,3.20000000e-04,3.39687500e-03,4.05937500e-03
-9.22612500e-08,3.38125000e-04,3.40312500e-03,4.06250000e-03
-9.22212500e-08,3.57500000e-04,3.40781250e-03,4.06250000e-03
-9.21812500e-08,3.76875000e-04,3.41250000e-03,4.05625000e-03
-9.21412500e-08,3.95312500e-04,3.41562500e-03,4.05000000e-03
-9.21012500e-08,4.11250000e-04,3.41718750e-03,4.04062500e-03
-9.20612500e-08,4.24062500e-04,3.41718750e-03,4.02500000e-03
-9.20212500e-08,4.33125000e-04,3.41562500e-03,4.01250000e-03
-9.19812500e-08,4.38125000e-04,3.41406250e-03,3.99375000e-03
-9.19412500e-08,4.38750000e-04,3.41093750e-03,3.97812500e-03
-9.19012500e-08,4.35312500e-04,3.40937500e-03,3.96250000e-03
-9.18612500e-08,4.27500000e-04,3.40625000e-03,3.95000000e-03
-9.18212500e-08,4.16875000e-04,3.40312500e-03,3.93750000e-03
-9.17812500e-08,4.03437500e-04,3.40000000e-03,3.93125000e-03
-9.17412500e-08,3.88750000e-04,3.39843750e-03,3.92812500e-03
-9.17012500e-08,3.73437500e-04,3.39687500e-03,3.92812500e-03
-9.16612500e-08,3.59062500e-04,3.39687500e-03,3.93437500e-03
-9.16212500e-08,3.46250000e-04,3.39687500e-03,3.94375000e-03
-9.15812500e-08,3.36250000e-04,3.39687500e-03,3.95625000e-03
-9.15412500e-08,3.29687500e-04,3.39843750e-03,3.97500000e-03
-9.15012500e-08,3.27500000e-04,3.40000000e-03,3.99375000e-03
-9.14612500e-08,3.29375000e-04,3.40156250e-03,4.01562500e-03
-9.14212500e-08,3.35937500e-04,3.40156250e-03,4.04062500e-03
-9.13812500e-08,3.46562500e-04,3.40312500e-03,4.05937500e-03
-9.13412500e-08,3.60937500e-04,3.40156250e-03,4.08125000e-03
-9.13012500e-08,3.78437500e-04,3.40156250e-03,4.09375000e-03
-9.12612500e-08,3.97500000e-04,3.40000000e-03,4.10625000e-03
-9.12212500e-08,4.17500000e-04,3.39687500e-03,4.10937500e-03
-9.11812500e-08,4.36875000e-04,3.39375000e-03,4.10937500e-03
-9.11412500e-08,4.55000000e-04,3.38906250e-03,4.10000000e-03
-9.11012500e-08,4.70000000e-04,3.38593750e-03,4.08437500e-03
-9.10612500e-08,4.80937500e-04,3.38281250e-03,4.05937500e-03
-9.10212500e-08,4.87500000e-04,3.37968750e-03,4.03125000e-03
-9.09812500e-08,4.88437500e-04,3.37812500e-03,3.99375000e-03
-9.09412500e-08,4.83437500e-04,3.37656250e-03,3.95312500e-03
-9.09012500e-08,4.72812500e-04,3.37812500e-03,3.90937500e-03
-9.08612500e-08,4.56875000e-04,3.38125000e-03,3.86250000e-03
-9.08212500e-08,4.35625000e-04,3.38750000e-03,3.81875000e-03
-9.07812500e-08,4.10312500e-04,3.39687500e-03,3.77500000e-03
-9.07412500e-08,3.81875000e-04,3.40625000e-03,3.73437500e-03
-9.07012500e-08,3.51875000e-04,3.42031250e-03,3.70000000e-03
-9.06612500e-08,3.20937500e-04,3.43593750e-03,3.66875000e-03
-9.06212500e-08,2.90937500e-04,3.45156250e-03,3.65000000e-03
-9.05812500e-08,2.63437500e-04,3.47031250e-03,3.63437500e-03
-9.05412500e-08,2.39062500e-04,3.48906250e-03,3.63125000e-03
-9.05012500e-08,2.19062500e-04,3.50625000e-03,3.63750000e-03
-9.04612500e-08,2.04375000e-04,3.52500000e-03,3.65000000e-03
-9.04212500e-08,1.95312500e-04,3.54062500e-03,3.67187500e-03
-9.03812500e-08,1.92187500e-04,3.55468750e-03,3.70000000e-03
-9.03412500e-08,1.95000000e-04,3.56718750e-03,3.73437500e-03
-9.03012500e-08,2.03750000e-04,3.57500000e-03,3.77187500e-03
-9.02612500e-08,2.16875000e-04,3.58125000e-03,3.81250000e-03
-9.02212500e-08,2.34375000e-04,3.58437500e-03,3.85312500e-03
-9.01812500e-08,2.54687500e-04,3.58281250e-03,3.89375000e-03
-9.01412500e-08,2.76875000e-04,3.57968750e-03,3.93125000e-03
-9.01012500e-08,2.99687500e-04,3.57343750e-03,3.96875000e-03
-9.00612500e-08,3.21562500e-04,3.56406250e-03,3.99687500e-03
-9.00212500e-08,3.41875000e-04,3.55312500e-03,4.02187500e-03
-8.99812500e-08,3.59375000e-04,3.54218750e-03,4.04062500e-03
-8.99412500e-08,3.73437500e-04,3.52968750e-03,4.05000000e-03
-8.99012500e-08,3.83125000e-04,3.51875000e-03,4.05625000e-03
-8.98612500e-08,3.88437500e-04,3.50781250e-03,4.05625000e-03
-8.98212500e-08,3.89375000e-04,3.49843750e-03,4.05312500e-03
-8.97812500e-08,3.85937500e-04,3.49218750e-03,4.04375000e-03
-8.97412500e-08,3.78750000e-04,3.48750000e-03,4.03437500e-03
-8.97012500e-08,3.68437500e-04,3.48593750e-03,4.02187500e-03
-8.96612500e-08,3.55937500e-04,3.48906250e-03,4.00625000e-03
-8.96212500e-08,3.41875000e-04,3.49375000e-03,3.99375000e-03
-8.95812500e-08,3.27500000e-04,3.50156250e-03,3.98437500e-03
-8.95412500e-08,3.13437500e-04,3.51406250e-03,3.97500000e-03
-8.95012500e-08,3.00937500e-04,3.52812500e-03,3.96875000e-03
-8.94612500e-08,2.90312500e-04,3.54375000e-03,3.96875000e-03
-8.94212500e-08,2.82500000e-04,3.56093750e-03,3.97187500e-03
-8.93812500e-08,2.77500000e-04,3.57968750e-03,3.97812500e-03
-8.93412500e-08,2.75937500e-04,3.59843750e-03,3.99062500e-03
-8.93012500e-08,2.77187500e-04,3.61718750e-03,4.00312500e-03
-8.92612500e-08,2.81250000e-04,3.63437500e-03,4.02187500e-03
-8.92212500e-08,2.87500000e-04,3.65000000e-03,4.04062500e-03
-8.91812500e-08,2.95625000e-04,3.66406250e-03,4.06250000e-03
-8.91412500e-08,3.04375000e-04,3.67656250e-03,4.08750000e-03
-8.91012500e-08,3.13437500e-04,3.68437500e-03,4.10937500e-03
-8.90612500e-08,3.21562500e-04,3.69062500e-03,4.13437500e-03
-8.90212500e-08,3.28437500e-04,3.69375000e-03,4.15625000e-03
-8.89812500e-08,3.33125000e-04,3.69218750e-03,4.18125000e-03
-8.89412500e-08,3.35312500e-04,3.68906250e-03,4.20000000e-03
-8.89012500e-08,3.34375000e-04,3.68125000e-03,4.22187500e-03
-8.88612500e-08,3.30625000e-04,3.67187500e-03,4.23750000e-03
-8.88212500e-08,3.23750000e-04,3.66093750e-03,4.25312500e-03
-8.87812500e-08,3.14687500e-04,3.64531250e-03,4.26875000e-03
-8.87412500e-08,3.03125000e-04,3.62968750e-03,4.28125000e-03
-8.87012500e-08,2.90000000e-04,3.61250000e-03,4.29062500e-03
-8.86612500e-08,2.76250000e-04,3.59375000e-03,4.30000000e-03
-8.86212500e-08,2.62812500e-04,3.57500000e-03,4.30625000e-03
-8.85812500e-08,2.50000000e-04,3.55625000e-03,4.31250000e-03
-8.85412500e-08,2.39062500e-04,3.53593750e-03,4.31250000e-03
-8.85012500e-08,2.30312500e-04,3.51718750e-03,4.31250000e-03
-8.84612500e-08,2.24687500e-04,3.50000000e-03,4.30937500e-03
-8.84212500e-08,2.22500000e-04,3.48125000e-03,4.30625000e-03
-8.83812500e-08,2.24062500e-04,3.46562500e-03,4.29687500e-03
-8.83412500e-08,2.28750000e-04,3.45000000e-03,4.28437500e-03
-8.83012500e-08,2.36875000e-04,3.43593750e-03,4.26875000e-03
-8.82612500e-08,2.47812500e-04,3.42343750e-03,4.25000000e-03
-8.82212500e-08,2.61250000e-04,3.41250000e-03,4.22500000e-03
-8.81812500e-08,2.75625000e-04,3.40312500e-03,4.20000000e-03
-8.81412500e-08,2.90937500e-04,3.39531250e-03,4.17500000e-03
-8.81012500e-08,3.05312500e-04,3.38906250e-03,4.14375000e-03
-8.80612500e-08,3.18750000e-04,3.38281250e-03,4.11562500e-03
-8.80212500e-08,3.29687500e-04,3.37968750e-03,4.08437500e-03
-8.79812500e-08,3.37500000e-04,3.37656250e-03,4.05625000e-03
-8.79412500e-08,3.41875000e-04,3.37500000e-03,4.02812500e-03
-8.79012500e-08,3.42187500e-04,3.37500000e-03,4.00625000e-03
-8.78612500e-08,3.38125000e-04,3.37500000e-03,3.98437500e-03
-8.78212500e-08,3.29687500e-04,3.37656250e-03,3.96875000e-03
-8.77812500e-08,3.17500000e-04,3.37812500e-03,3.95937500e-03
-8.77412500e-08,3.01562500e-04,3.37968750e-03,3.95625000e-03
-8.77012500e-08,2.83125000e-04,3.38281250e-03,3.95625000e-03
-8.76612500e-08,2.62812500e-04,3.38593750e-03,3.96250000e-03
-8.76212500e-08,2.41562500e-04,3.38906250e-03,3.97187500e-03
-8.75812500e-08,2.20000000e-04,3.39218750e-03,3.98750000e-03
-8.75412500e-08,2.00000000e-04,3.39531250e-03,4.00312500e-03
-8.75012500e-08,1.81875000e-04,3.39843750e-03,4.02187500e-03
-8.74612500e-08,1.67187500e-04,3.40156250e-03,4.03750000e-03
-8.74212500e-08,1.55937500e-04,3.40468750e-03,4.05312500e-03
-8.73812500e-08,1.48750000e-04,3.40625000e-03,4.06562500e-03
-8.73412500e-08,1.46562500e-04,3.40937500e-03,4.07500000e-03
-8.73012500e-08,1.48750000e-04,3.41093750e-03,4.07812500e-03
-8.72612500e-08,1.55625000e-04,3.41093750e-03,4.07187500e-03
-8.72212500e-08,1.66875000e-04,3.41250000e-03,4.06250000e-03
-8.71812500e-08,1.81562500e-04,3.41250000e-03,4.04375000e-03
-8.71412500e-08,1.99062500e-04,3.41250000e-03,4.01562500e-03
-8.71012500e-08,2.18437500e-04,3.41093750e-03,3.98437500e-03
-8.70612500e-08,2.39062500e-04,3.41093750e-03,3.94687500e-03
-8.70212500e-08,2.59375000e-04,3.40781250e-03,3.90312500e-03
-8.69812500e-08,2.79062500e-04,3.40625000e-03,3.85625000e-03
-8.69412500e-08,2.96875000e-04,3.40468750e-03,3.81250000e-03
-8.69012500e-08,3.12187500e-04,3.40156250e-03,3.76562500e-03
-8.68612500e-08,3.24062500e-04,3.39843750e-03,3.72500000e-03
-8.68212500e-08,3.32500000e-04,3.39531250e-03,3.68750000e-03
-8.67812500e-08,3.37187500e-04,3.39218750e-03,3.65625000e-03
-8.67412500e-08,3.38125000e-04,3.38906250e-03,3.63437500e-03
-8.67012500e-08,3.35625000e-04,3.38593750e-03,3.62187500e-03
-8.66612500e-08,3.30000000e-04,3.38437500e-03,3.61875000e-03
-8.66212500e-08,3.21562500e-04,3.38125000e-03,3.62500000e-03
-8.65812500e-08,3.11562500e-04,3.37968750e-03,3.64062500e-03
-8.65412500e-08,3.00000000e-04,3.37812500e-03,3.66875000e-03
-8.65012500e-08,2.88437500e-04,3.37812500e-03,3.70000000e-03
-8.64612500e-08,2.77187500e-04,3.37968750e-03,3.74062500e-03
-8.64212500e-08,2.66875000e-04,3.38125000e-03,3.78437500e-03
-8.63812500e-08,2.58437500e-04,3.38281250e-03,3.83125000e-03
-8.63412500e-08,2.52187500e-04,3.38593750e-03,3.88125000e-03
-8.63012500e-08,2.48437500e-04,3.39062500e-03,3.92500000e-03
-8.62612500e-08,2.47500000e-04,3.39687500e-03,3.96875000e-03
-8.62212500e-08,2.49062500e-04,3.40312500e-03,4.00625000e-03
-8.61812500e-08,2.53125000e-04,3.40937500e-03,4.03750000e-03
-8.61412500e-08,2.59375000e-04,3.41718750e-03,4.06250000e-03
-8.61012500e-08,2.67187500e-04,3.42500000e-03,4.07812500e-03
-8.60612500e-08,2.76250000e-04,3.43281250e-03,4.08750000e-03
-8.60212500e-08,2.85625000e-04,3.44218750e-03,4.08750000e-03
-8.59812500e-08,2.95000000e-04,3.45156250e-03,4.08125000e-03
-8.59412500e-08,3.03437500e-04,3.45937500e-03,4.06875000e-03
-8.59012500e-08,3.10312500e-04,3.46718750e-03,4.05312500e-03
-8.58612500e-08,3.15625000e-04,3.47500000e-03,4.03437500e-03
-8.58212500e-08,3.18437500e-04,3.48281250e-03,4.01250000e-03
-8.57812500e-08,3.19062500e-04,3.48906250e-03,3.99062500e-03
-8.57412500e-08,3.17187500e-04,3.49375000e-03,3.97187500e-03
-8.57012500e-08,3.13125000e-04,3.50000000e-03,3.95937500e-03
-8.56612500e-08,3.06875000e-04,3.50312500e-03,3.94687500e-03
-8.56212500e-08,2.98750000e-04,3.50625000e-03,3.94375000e-03
-8.55812500e-08,2.89375000e-04,3.50937500e-03,3.94375000e-03
-8.55412500e-08,2.79375000e-04,3.51093750e-03,3.95000000e-03
-8.55012500e-08,2.69375000e-04,3.51250000e-03,3.96250000e-03
-8.54612500e-08,2.59687500e-04,3.51406250e-03,3.98125000e-03
-8.54212500e-08,2.50937500e-04,3.51406250e-03,4.00312500e-03
