transmissionlines/BB5data/amplicsv/ampli_ALL_20250709080350678.csv

Model,MSO64
Channel,CH1,,Channel,CH2,,Channel,CH3
Label,,,Label,,,Label,
Waveform Type,ANALOG,,Waveform Type,ANALOG,,Waveform Type,ANALOG
Digital Type,None,,Digital Type,None,,Digital Type,None
Horizontal Units,s,,Horizontal Units,s,,Horizontal Units,s
Sample Interval,4.00000000e-11,,Sample Interval,4.00000000e-11,,Sample Interval,4.00000000e-11
Record Length,25000,,Record Length,25000,,Record Length,25000
Zero Index,12249.53125000,,Zero Index,12249.53125000,,Zero Index,12249.53125000
Vertical Units,V,,Vertical Units,V,,Vertical Units,V
,,,,,,,
ANALOG_Thumbnail,,,ANALOG_Thumbnail,,,ANALOG_Thumbnail,
yOffset,0.000000,,yOffset,0.000000,,yOffset,0.000000
yPosition,-0.680000,,yPosition,-2.140000,,yPosition,0.000000

Labels,,,
TIME,CH1,CH2,CH3
-4.89981250e-07,5.54687500e-03,3.14687500e-03,3.92500000e-03
-4.89941250e-07,5.49062500e-03,3.17500000e-03,3.89375000e-03
-4.89901250e-07,5.43125000e-03,3.20000000e-03,3.85937500e-03
-4.89861250e-07,5.36562500e-03,3.21875000e-03,3.81562500e-03
-4.89821250e-07,5.29687500e-03,3.23281250e-03,3.76875000e-03
-4.89781250e-07,5.22187500e-03,3.23906250e-03,3.71875000e-03
-4.89741250e-07,5.14687500e-03,3.24062500e-03,3.66250000e-03
-4.89701250e-07,5.07187500e-03,3.23437500e-03,3.60625000e-03
-4.89661250e-07,4.99687500e-03,3.22343750e-03,3.55312500e-03
-4.89621250e-07,4.92500000e-03,3.20781250e-03,3.50000000e-03
-4.89581250e-07,4.85625000e-03,3.18906250e-03,3.45000000e-03
-4.89541250e-07,4.79375000e-03,3.16875000e-03,3.40625000e-03
-4.89501250e-07,4.73750000e-03,3.15000000e-03,3.37187500e-03
-4.89461250e-07,4.68750000e-03,3.13125000e-03,3.34687500e-03
-4.89421250e-07,4.64687500e-03,3.11718750e-03,3.32812500e-03
-4.89381250e-07,4.61875000e-03,3.10625000e-03,3.32187500e-03
-4.89341250e-07,4.59687500e-03,3.10156250e-03,3.32812500e-03
-4.89301250e-07,4.58437500e-03,3.10156250e-03,3.34375000e-03
-4.89261250e-07,4.58437500e-03,3.10781250e-03,3.36562500e-03
-4.89221250e-07,4.59375000e-03,3.12187500e-03,3.40000000e-03
-4.89181250e-07,4.60937500e-03,3.13906250e-03,3.44062500e-03
-4.89141250e-07,4.63125000e-03,3.16093750e-03,3.48750000e-03
-4.89101250e-07,4.65625000e-03,3.18750000e-03,3.54062500e-03
-4.89061250e-07,4.68750000e-03,3.21406250e-03,3.59375000e-03
-4.89021250e-07,4.72187500e-03,3.23906250e-03,3.64687500e-03
-4.88981250e-07,4.75625000e-03,3.26406250e-03,3.70000000e-03
-4.88941250e-07,4.78750000e-03,3.28281250e-03,3.74687500e-03
-4.88901250e-07,4.81562500e-03,3.29843750e-03,3.79375000e-03
-4.88861250e-07,4.84062500e-03,3.30468750e-03,3.83125000e-03
-4.88821250e-07,4.85937500e-03,3.30468750e-03,3.86562500e-03
-4.88781250e-07,4.87187500e-03,3.29531250e-03,3.89062500e-03
-4.88741250e-07,4.87812500e-03,3.27656250e-03,3.90937500e-03
-4.88701250e-07,4.87812500e-03,3.25000000e-03,3.92187500e-03
-4.88661250e-07,4.87187500e-03,3.21406250e-03,3.92812500e-03
-4.88621250e-07,4.85937500e-03,3.17187500e-03,3.93125000e-03
-4.88581250e-07,4.84062500e-03,3.12500000e-03,3.93125000e-03
-4.88541250e-07,4.81875000e-03,3.07500000e-03,3.92500000e-03
-4.88501250e-07,4.79062500e-03,3.02500000e-03,3.92187500e-03
-4.88461250e-07,4.76562500e-03,2.97500000e-03,3.91562500e-03
-4.88421250e-07,4.73750000e-03,2.93125000e-03,3.91250000e-03
-4.88381250e-07,4.70937500e-03,2.89218750e-03,3.90937500e-03
-4.88341250e-07,4.68437500e-03,2.86093750e-03,3.91250000e-03
-4.88301250e-07,4.66250000e-03,2.84062500e-03,3.91562500e-03
-4.88261250e-07,4.64687500e-03,2.83125000e-03,3.92500000e-03
-4.88221250e-07,4.63750000e-03,2.83437500e-03,3.93750000e-03
-4.88181250e-07,4.63437500e-03,2.85000000e-03,3.95312500e-03
-4.88141250e-07,4.63750000e-03,2.87656250e-03,3.96875000e-03
-4.88101250e-07,4.64687500e-03,2.91718750e-03,3.98750000e-03
-4.88061250e-07,4.66562500e-03,2.96562500e-03,4.00625000e-03
-4.88021250e-07,4.69062500e-03,3.02343750e-03,4.02500000e-03
-4.87981250e-07,4.71875000e-03,3.08593750e-03,4.04062500e-03
-4.87941250e-07,4.75312500e-03,3.15156250e-03,4.05312500e-03
-4.87901250e-07,4.79062500e-03,3.21875000e-03,4.06250000e-03
-4.87861250e-07,4.83125000e-03,3.28281250e-03,4.06875000e-03
-4.87821250e-07,4.87500000e-03,3.34218750e-03,4.06875000e-03
-4.87781250e-07,4.91562500e-03,3.39531250e-03,4.06250000e-03
-4.87741250e-07,4.95625000e-03,3.43750000e-03,4.05000000e-03
-4.87701250e-07,4.99375000e-03,3.47031250e-03,4.03437500e-03
-4.87661250e-07,5.02812500e-03,3.49062500e-03,4.01562500e-03
-4.87621250e-07,5.05625000e-03,3.49687500e-03,3.99062500e-03
-4.87581250e-07,5.07812500e-03,3.49218750e-03,3.96562500e-03
-4.87541250e-07,5.09062500e-03,3.47656250e-03,3.93750000e-03
-4.87501250e-07,5.10000000e-03,3.44843750e-03,3.90937500e-03
-4.87461250e-07,5.10000000e-03,3.41250000e-03,3.88437500e-03
-4.87421250e-07,5.09062500e-03,3.37031250e-03,3.86250000e-03
-4.87381250e-07,5.07500000e-03,3.32343750e-03,3.84062500e-03
-4.87341250e-07,5.05312500e-03,3.27500000e-03,3.82500000e-03
-4.87301250e-07,5.02187500e-03,3.22812500e-03,3.81562500e-03
-4.87261250e-07,4.98437500e-03,3.18437500e-03,3.80937500e-03
-4.87221250e-07,4.94375000e-03,3.14687500e-03,3.80625000e-03
-4.87181250e-07,4.89687500e-03,3.11718750e-03,3.80937500e-03
-4.87141250e-07,4.84375000e-03,3.09687500e-03,3.81875000e-03
-4.87101250e-07,4.79062500e-03,3.08750000e-03,3.82812500e-03
-4.87061250e-07,4.73125000e-03,3.08750000e-03,3.84062500e-03
-4.87021250e-07,4.66875000e-03,3.09687500e-03,3.85625000e-03
-4.86981250e-07,4.60625000e-03,3.11562500e-03,3.86875000e-03
-4.86941250e-07,4.54375000e-03,3.14375000e-03,3.88125000e-03
-4.86901250e-07,4.47812500e-03,3.17656250e-03,3.89375000e-03
-4.86861250e-07,4.40937500e-03,3.21250000e-03,3.90000000e-03
-4.86821250e-07,4.34375000e-03,3.25000000e-03,3.90312500e-03
-4.86781250e-07,4.27500000e-03,3.28593750e-03,3.90000000e-03
-4.86741250e-07,4.20625000e-03,3.31875000e-03,3.89375000e-03
-4.86701250e-07,4.14062500e-03,3.34375000e-03,3.88125000e-03
-4.86661250e-07,4.07187500e-03,3.36093750e-03,3.86562500e-03
-4.86621250e-07,4.00625000e-03,3.36718750e-03,3.84687500e-03
-4.86581250e-07,3.94375000e-03,3.36406250e-03,3.82812500e-03
-4.86541250e-07,3.88125000e-03,3.34843750e-03,3.80312500e-03
-4.86501250e-07,3.82187500e-03,3.32031250e-03,3.78437500e-03
-4.86461250e-07,3.76875000e-03,3.28281250e-03,3.76250000e-03
-4.86421250e-07,3.71875000e-03,3.23593750e-03,3.74687500e-03
-4.86381250e-07,3.67187500e-03,3.17968750e-03,3.73437500e-03
-4.86341250e-07,3.63437500e-03,3.12031250e-03,3.72812500e-03
-4.86301250e-07,3.60312500e-03,3.05781250e-03,3.72812500e-03
-4.86261250e-07,3.57812500e-03,2.99531250e-03,3.73750000e-03
-4.86221250e-07,3.56250000e-03,2.93750000e-03,3.75312500e-03
-4.86181250e-07,3.55625000e-03,2.88437500e-03,3.77812500e-03
-4.86141250e-07,3.55625000e-03,2.84218750e-03,3.81250000e-03
-4.86101250e-07,3.56562500e-03,2.80937500e-03,3.85000000e-03
-4.86061250e-07,3.58125000e-03,2.79062500e-03,3.89687500e-03
-4.86021250e-07,3.60625000e-03,2.78750000e-03,3.94687500e-03
-4.85981250e-07,3.63437500e-03,2.79687500e-03,4.00000000e-03
-4.85941250e-07,3.66562500e-03,2.82187500e-03,4.05625000e-03
-4.85901250e-07,3.70000000e-03,2.85937500e-03,4.10937500e-03
-4.85861250e-07,3.73437500e-03,2.91093750e-03,4.16250000e-03
-4.85821250e-07,3.76875000e-03,2.97187500e-03,4.20937500e-03
-4.85781250e-07,3.80312500e-03,3.03906250e-03,4.25312500e-03
-4.85741250e-07,3.82812500e-03,3.11250000e-03,4.28437500e-03
-4.85701250e-07,3.85000000e-03,3.18593750e-03,4.31250000e-03
-4.85661250e-07,3.86562500e-03,3.25781250e-03,4.32812500e-03
-4.85621250e-07,3.86875000e-03,3.32500000e-03,4.33125000e-03
-4.85581250e-07,3.86562500e-03,3.38281250e-03,4.32500000e-03
-4.85541250e-07,3.85312500e-03,3.43125000e-03,4.30937500e-03
-4.85501250e-07,3.83125000e-03,3.46562500e-03,4.28125000e-03
-4.85461250e-07,3.80312500e-03,3.48593750e-03,4.24687500e-03
-4.85421250e-07,3.76250000e-03,3.49062500e-03,4.20000000e-03
-4.85381250e-07,3.71875000e-03,3.48125000e-03,4.14687500e-03
-4.85341250e-07,3.66875000e-03,3.45625000e-03,4.09062500e-03
-4.85301250e-07,3.61562500e-03,3.41875000e-03,4.02812500e-03
-4.85261250e-07,3.56250000e-03,3.36875000e-03,3.96250000e-03
-4.85221250e-07,3.50937500e-03,3.31093750e-03,3.90000000e-03
-4.85181250e-07,3.45625000e-03,3.24531250e-03,3.83750000e-03
-4.85141250e-07,3.40937500e-03,3.17812500e-03,3.77500000e-03
-4.85101250e-07,3.36875000e-03,3.11093750e-03,3.71875000e-03
-4.85061250e-07,3.33125000e-03,3.04687500e-03,3.66875000e-03
-4.85021250e-07,3.30312500e-03,2.98906250e-03,3.62500000e-03
-4.84981250e-07,3.28437500e-03,2.94062500e-03,3.58437500e-03
-4.84941250e-07,3.27187500e-03,2.90312500e-03,3.55625000e-03
-4.84901250e-07,3.26562500e-03,2.87968750e-03,3.53125000e-03
-4.84861250e-07,3.26562500e-03,2.86875000e-03,3.51875000e-03
-4.84821250e-07,3.27187500e-03,2.87187500e-03,3.50937500e-03
-4.84781250e-07,3.27812500e-03,2.88906250e-03,3.50625000e-03
-4.84741250e-07,3.28750000e-03,2.91875000e-03,3.51250000e-03
-4.84701250e-07,3.29375000e-03,2.95937500e-03,3.51875000e-03
-4.84661250e-07,3.29687500e-03,3.00781250e-03,3.53437500e-03
-4.84621250e-07,3.29687500e-03,3.06406250e-03,3.55000000e-03
-4.84581250e-07,3.28750000e-03,3.12187500e-03,3.56562500e-03
-4.84541250e-07,3.27187500e-03,3.17968750e-03,3.58437500e-03
-4.84501250e-07,3.24687500e-03,3.23437500e-03,3.60312500e-03
-4.84461250e-07,3.20937500e-03,3.28281250e-03,3.62187500e-03
-4.84421250e-07,3.16562500e-03,3.32187500e-03,3.64062500e-03
-4.84381250e-07,3.10937500e-03,3.35156250e-03,3.65312500e-03
-4.84341250e-07,3.04375000e-03,3.36875000e-03,3.66562500e-03
-4.84301250e-07,2.97187500e-03,3.37343750e-03,3.67500000e-03
-4.84261250e-07,2.89375000e-03,3.36406250e-03,3.68125000e-03
-4.84221250e-07,2.81250000e-03,3.34062500e-03,3.68437500e-03
-4.84181250e-07,2.73125000e-03,3.30781250e-03,3.68437500e-03
-4.84141250e-07,2.64687500e-03,3.26250000e-03,3.68125000e-03
-4.84101250e-07,2.56875000e-03,3.21093750e-03,3.67500000e-03
-4.84061250e-07,2.49375000e-03,3.15312500e-03,3.66875000e-03
-4.84021250e-07,2.42500000e-03,3.09375000e-03,3.66250000e-03
-4.83981250e-07,2.36562500e-03,3.03437500e-03,3.65625000e-03
-4.83941250e-07,2.31875000e-03,2.97812500e-03,3.64687500e-03
-4.83901250e-07,2.27812500e-03,2.92968750e-03,3.64062500e-03
-4.83861250e-07,2.25312500e-03,2.89062500e-03,3.63750000e-03
-4.83821250e-07,2.23437500e-03,2.86250000e-03,3.63750000e-03
-4.83781250e-07,2.22812500e-03,2.84687500e-03,3.64062500e-03
-4.83741250e-07,2.23125000e-03,2.84531250e-03,3.64687500e-03
-4.83701250e-07,2.24375000e-03,2.85781250e-03,3.65937500e-03
-4.83661250e-07,2.25937500e-03,2.88437500e-03,3.67500000e-03
-4.83621250e-07,2.28125000e-03,2.92343750e-03,3.70000000e-03
-4.83581250e-07,2.30625000e-03,2.97343750e-03,3.72812500e-03
-4.83541250e-07,2.32812500e-03,3.03125000e-03,3.75937500e-03
-4.83501250e-07,2.35312500e-03,3.09687500e-03,3.79687500e-03
-4.83461250e-07,2.37187500e-03,3.16406250e-03,3.84062500e-03
-4.83421250e-07,2.38750000e-03,3.23125000e-03,3.88750000e-03
-4.83381250e-07,2.40000000e-03,3.29531250e-03,3.93750000e-03
-4.83341250e-07,2.40312500e-03,3.35312500e-03,3.98750000e-03
-4.83301250e-07,2.40625000e-03,3.40312500e-03,4.04062500e-03
-4.83261250e-07,2.40000000e-03,3.43906250e-03,4.09062500e-03
-4.83221250e-07,2.39062500e-03,3.46406250e-03,4.14062500e-03
-4.83181250e-07,2.37812500e-03,3.47343750e-03,4.18750000e-03
-4.83141250e-07,2.36250000e-03,3.46718750e-03,4.22812500e-03
-4.83101250e-07,2.34375000e-03,3.44843750e-03,4.26250000e-03
-4.83061250e-07,2.32812500e-03,3.41406250e-03,4.29062500e-03
-4.83021250e-07,2.31562500e-03,3.36875000e-03,4.31250000e-03
-4.82981250e-07,2.30625000e-03,3.31250000e-03,4.32500000e-03
-4.82941250e-07,2.30000000e-03,3.24843750e-03,4.32812500e-03
-4.82901250e-07,2.29687500e-03,3.17968750e-03,4.32187500e-03
-4.82861250e-07,2.30312500e-03,3.11093750e-03,4.30937500e-03
-4.82821250e-07,2.30937500e-03,3.04218750e-03,4.28750000e-03
-4.82781250e-07,2.32500000e-03,2.97968750e-03,4.25937500e-03
-4.82741250e-07,2.34062500e-03,2.92343750e-03,4.22500000e-03
-4.82701250e-07,2.36250000e-03,2.87812500e-03,4.18750000e-03
-4.82661250e-07,2.38125000e-03,2.84531250e-03,4.14687500e-03
-4.82621250e-07,2.40000000e-03,2.82343750e-03,4.10625000e-03
-4.82581250e-07,2.41562500e-03,2.81718750e-03,4.06562500e-03
-4.82541250e-07,2.42812500e-03,2.82343750e-03,4.02812500e-03
-4.82501250e-07,2.43125000e-03,2.84218750e-03,3.99375000e-03
-4.82461250e-07,2.42812500e-03,2.87343750e-03,3.96562500e-03
-4.82421250e-07,2.41250000e-03,2.91406250e-03,3.94687500e-03
-4.82381250e-07,2.38437500e-03,2.96093750e-03,3.93437500e-03
-4.82341250e-07,2.34375000e-03,3.01093750e-03,3.92812500e-03
-4.82301250e-07,2.29375000e-03,3.06406250e-03,3.93125000e-03
-4.82261250e-07,2.22812500e-03,3.11406250e-03,3.94375000e-03
-4.82221250e-07,2.15312500e-03,3.16093750e-03,3.96250000e-03
-4.82181250e-07,2.06562500e-03,3.20000000e-03,3.98750000e-03
-4.82141250e-07,1.96875000e-03,3.22812500e-03,4.01875000e-03
-4.82101250e-07,1.86562500e-03,3.24687500e-03,4.05312500e-03
-4.82061250e-07,1.75937500e-03,3.25312500e-03,4.08750000e-03
-4.82021250e-07,1.64687500e-03,3.24687500e-03,4.12187500e-03
-4.81981250e-07,1.53750000e-03,3.22968750e-03,4.15312500e-03
-4.81941250e-07,1.43125000e-03,3.20156250e-03,4.18125000e-03
-4.81901250e-07,1.32812500e-03,3.16250000e-03,4.20312500e-03
-4.81861250e-07,1.23125000e-03,3.11718750e-03,4.21562500e-03
-4.81821250e-07,1.14062500e-03,3.06875000e-03,4.22187500e-03
-4.81781250e-07,1.06250000e-03,3.01718750e-03,4.21875000e-03
-4.81741250e-07,9.93750000e-04,2.96718750e-03,4.20625000e-03
-4.81701250e-07,9.34375000e-04,2.92187500e-03,4.18437500e-03
-4.81661250e-07,8.84375000e-04,2.88281250e-03,4.15625000e-03
-4.81621250e-07,8.46875000e-04,2.85468750e-03,4.11875000e-03
-4.81581250e-07,8.15625000e-04,2.83750000e-03,4.07500000e-03
-4.81541250e-07,7.93750000e-04,2.83281250e-03,4.02500000e-03
-4.81501250e-07,7.78125000e-04,2.84062500e-03,3.97500000e-03
-4.81461250e-07,7.65625000e-04,2.86406250e-03,3.92187500e-03
-4.81421250e-07,7.59375000e-04,2.89843750e-03,3.87187500e-03
-4.81381250e-07,7.50000000e-04,2.94375000e-03,3.82500000e-03
-4.81341250e-07,7.43750000e-04,2.99687500e-03,3.78437500e-03
-4.81301250e-07,7.34375000e-04,3.05781250e-03,3.74687500e-03
-4.81261250e-07,7.25000000e-04,3.12187500e-03,3.71875000e-03
-4.81221250e-07,7.12500000e-04,3.18593750e-03,3.70000000e-03
-4.81181250e-07,6.93750000e-04,3.24687500e-03,3.68750000e-03
-4.81141250e-07,6.75000000e-04,3.30156250e-03,3.68437500e-03
-4.81101250e-07,6.53125000e-04,3.34687500e-03,3.69375000e-03
-4.81061250e-07,6.28125000e-04,3.38125000e-03,3.70625000e-03
-4.81021250e-07,6.00000000e-04,3.40156250e-03,3.72812500e-03
-4.80981250e-07,5.75000000e-04,3.40937500e-03,3.75312500e-03
-4.80941250e-07,5.46875000e-04,3.40000000e-03,3.78437500e-03
-4.80901250e-07,5.21875000e-04,3.37812500e-03,3.81562500e-03
-4.80861250e-07,5.00000000e-04,3.34375000e-03,3.85000000e-03
-4.80821250e-07,4.81250000e-04,3.29843750e-03,3.88125000e-03
-4.80781250e-07,4.65625000e-04,3.24375000e-03,3.90937500e-03
-4.80741250e-07,4.53125000e-04,3.18437500e-03,3.93437500e-03
-4.80701250e-07,4.46875000e-04,3.12343750e-03,3.95312500e-03
-4.80661250e-07,4.43750000e-04,3.06406250e-03,3.96250000e-03
-4.80621250e-07,4.43750000e-04,3.00937500e-03,3.96875000e-03
-4.80581250e-07,4.46875000e-04,2.96406250e-03,3.96562500e-03
-4.80541250e-07,4.53125000e-04,2.92968750e-03,3.95625000e-03
-4.80501250e-07,4.56250000e-04,2.90781250e-03,3.94062500e-03
-4.80461250e-07,4.62500000e-04,2.90312500e-03,3.91875000e-03
-4.80421250e-07,4.65625000e-04,2.91406250e-03,3.89062500e-03
-4.80381250e-07,4.65625000e-04,2.94062500e-03,3.85937500e-03
-4.80341250e-07,4.62500000e-04,2.98281250e-03,3.82500000e-03
-4.80301250e-07,4.56250000e-04,3.03906250e-03,3.78750000e-03
-4.80261250e-07,4.43750000e-04,3.10625000e-03,3.75312500e-03
-4.80221250e-07,4.25000000e-04,3.18125000e-03,3.71562500e-03
-4.80181250e-07,4.03125000e-04,3.26093750e-03,3.68125000e-03
-4.80141250e-07,3.75000000e-04,3.34218750e-03,3.65000000e-03
-4.80101250e-07,3.40625000e-04,3.42031250e-03,3.62500000e-03
-4.80061250e-07,3.06250000e-04,3.48906250e-03,3.60000000e-03
-4.80021250e-07,2.68750000e-04,3.55000000e-03,3.58437500e-03
-4.79981250e-07,2.31250000e-04,3.59531250e-03,3.57187500e-03
-4.79941250e-07,1.93750000e-04,3.62500000e-03,3.56562500e-03
-4.79901250e-07,1.56250000e-04,3.63593750e-03,3.56250000e-03
-4.79861250e-07,1.21875000e-04,3.62812500e-03,3.56875000e-03
-4.79821250e-07,9.06250000e-05,3.60156250e-03,3.57812500e-03
-4.79781250e-07,6.56250000e-05,3.55781250e-03,3.59062500e-03
-4.79741250e-07,4.37500000e-05,3.49843750e-03,3.61250000e-03
-4.79701250e-07,2.81250000e-05,3.42500000e-03,3.63437500e-03
-4.79661250e-07,1.87500000e-05,3.34062500e-03,3.66250000e-03
-4.79621250e-07,1.25000000e-05,3.25000000e-03,3.69375000e-03
-4.79581250e-07,9.37500000e-06,3.15625000e-03,3.72812500e-03
-4.79541250e-07,9.37500000e-06,3.06406250e-03,3.76250000e-03
-4.79501250e-07,9.37500000e-06,2.97812500e-03,3.80000000e-03
-4.79461250e-07,1.25000000e-05,2.90000000e-03,3.83750000e-03
-4.79421250e-07,1.25000000e-05,2.83281250e-03,3.87500000e-03
-4.79381250e-07,9.37500000e-06,2.78125000e-03,3.90937500e-03
-4.79341250e-07,0.00000000e+00,2.74531250e-03,3.94375000e-03
-4.79301250e-07,-1.56250000e-05,2.72656250e-03,3.97500000e-03
-4.79261250e-07,-3.75000000e-05,2.72500000e-03,4.00312500e-03
-4.79221250e-07,-6.87500000e-05,2.73906250e-03,4.02500000e-03
-4.79181250e-07,-1.09375000e-04,2.76718750e-03,4.04375000e-03
-4.79141250e-07,-1.56250000e-04,2.80625000e-03,4.05312500e-03
-4.79101250e-07,-2.12500000e-04,2.85625000e-03,4.05625000e-03
-4.79061250e-07,-2.78125000e-04,2.91250000e-03,4.05000000e-03
-4.79021250e-07,-3.50000000e-04,2.97031250e-03,4.03750000e-03
-4.78981250e-07,-4.28125000e-04,3.02812500e-03,4.01875000e-03
-4.78941250e-07,-5.06250000e-04,3.08125000e-03,3.98750000e-03
-4.78901250e-07,-5.90625000e-04,3.12812500e-03,3.95312500e-03
-4.78861250e-07,-6.71875000e-04,3.16562500e-03,3.90937500e-03
-4.78821250e-07,-7.53125000e-04,3.19218750e-03,3.85937500e-03
-4.78781250e-07,-8.25000000e-04,3.20625000e-03,3.80625000e-03
-4.78741250e-07,-8.93750000e-04,3.20937500e-03,3.75000000e-03
-4.78701250e-07,-9.53125000e-04,3.19843750e-03,3.69375000e-03
-4.78661250e-07,-1.00312500e-03,3.17812500e-03,3.64062500e-03
-4.78621250e-07,-1.03750000e-03,3.14843750e-03,3.58750000e-03
-4.78581250e-07,-1.06250000e-03,3.11250000e-03,3.54062500e-03
-4.78541250e-07,-1.07500000e-03,3.07343750e-03,3.50000000e-03
-4.78501250e-07,-1.07187500e-03,3.03125000e-03,3.46875000e-03
-4.78461250e-07,-1.05625000e-03,2.99375000e-03,3.45000000e-03
-4.78421250e-07,-1.03125000e-03,2.95937500e-03,3.44062500e-03
-4.78381250e-07,-9.93750000e-04,2.93281250e-03,3.44375000e-03
-4.78341250e-07,-9.46875000e-04,2.91562500e-03,3.46250000e-03
-4.78301250e-07,-8.90625000e-04,2.91093750e-03,3.49062500e-03
-4.78261250e-07,-8.34375000e-04,2.91562500e-03,3.53125000e-03
-4.78221250e-07,-7.71875000e-04,2.93437500e-03,3.58437500e-03
-4.78181250e-07,-7.09375000e-04,2.96250000e-03,3.64687500e-03
-4.78141250e-07,-6.50000000e-04,3.00156250e-03,3.71562500e-03
-4.78101250e-07,-5.93750000e-04,3.04687500e-03,3.79062500e-03
-4.78061250e-07,-5.43750000e-04,3.10000000e-03,3.86875000e-03
-4.78021250e-07,-5.03125000e-04,3.15468750e-03,3.94687500e-03
-4.77981250e-07,-4.71875000e-04,3.20781250e-03,4.02187500e-03
-4.77941250e-07,-4.50000000e-04,3.25937500e-03,4.09375000e-03
-4.77901250e-07,-4.40625000e-04,3.30312500e-03,4.15937500e-03
-4.77861250e-07,-4.43750000e-04,3.33750000e-03,4.21562500e-03
-4.77821250e-07,-4.59375000e-04,3.36250000e-03,4.26250000e-03
-4.77781250e-07,-4.81250000e-04,3.37187500e-03,4.29687500e-03
-4.77741250e-07,-5.15625000e-04,3.36875000e-03,4.31875000e-03
-4.77701250e-07,-5.59375000e-04,3.35156250e-03,4.32812500e-03
-4.77661250e-07,-6.09375000e-04,3.32031250e-03,4.32500000e-03
-4.77621250e-07,-6.62500000e-04,3.27656250e-03,4.31250000e-03
-4.77581250e-07,-7.18750000e-04,3.22343750e-03,4.29062500e-03
-4.77541250e-07,-7.75000000e-04,3.16093750e-03,4.25937500e-03
-4.77501250e-07,-8.28125000e-04,3.09375000e-03,4.22187500e-03
-4.77461250e-07,-8.78125000e-04,3.02500000e-03,4.17812500e-03
