transmissionlines/BB5data/amplicsv/ampli_ALL_20250709080354102.csv

Model,MSO64
Channel,CH1,,Channel,CH2,,Channel,CH3
Label,,,Label,,,Label,
Waveform Type,ANALOG,,Waveform Type,ANALOG,,Waveform Type,ANALOG
Digital Type,None,,Digital Type,None,,Digital Type,None
Horizontal Units,s,,Horizontal Units,s,,Horizontal Units,s
Sample Interval,4.00000000e-11,,Sample Interval,4.00000000e-11,,Sample Interval,4.00000000e-11
Record Length,25000,,Record Length,25000,,Record Length,25000
Zero Index,12249.53125000,,Zero Index,12249.53125000,,Zero Index,12249.53125000
Vertical Units,V,,Vertical Units,V,,Vertical Units,V
,,,,,,,
ANALOG_Thumbnail,,,ANALOG_Thumbnail,,,ANALOG_Thumbnail,
yOffset,0.000000,,yOffset,0.000000,,yOffset,0.000000
yPosition,-0.680000,,yPosition,-2.140000,,yPosition,0.000000

Labels,,,
TIME,CH1,CH2,CH3
-4.89981250e-07,6.12187500e-03,3.08437500e-03,4.19375000e-03
-4.89941250e-07,6.08125000e-03,3.10937500e-03,4.19687500e-03
-4.89901250e-07,6.03437500e-03,3.12656250e-03,4.18125000e-03
-4.89861250e-07,5.97812500e-03,3.13437500e-03,4.14687500e-03
-4.89821250e-07,5.91875000e-03,3.13281250e-03,4.10000000e-03
-4.89781250e-07,5.85312500e-03,3.12187500e-03,4.03750000e-03
-4.89741250e-07,5.78437500e-03,3.10312500e-03,3.96250000e-03
-4.89701250e-07,5.71250000e-03,3.07656250e-03,3.88437500e-03
-4.89661250e-07,5.64375000e-03,3.04218750e-03,3.80000000e-03
-4.89621250e-07,5.57500000e-03,3.00468750e-03,3.71875000e-03
-4.89581250e-07,5.51250000e-03,2.96406250e-03,3.64062500e-03
-4.89541250e-07,5.45937500e-03,2.92187500e-03,3.57187500e-03
-4.89501250e-07,5.40937500e-03,2.88125000e-03,3.51250000e-03
-4.89461250e-07,5.37500000e-03,2.84218750e-03,3.46875000e-03
-4.89421250e-07,5.34687500e-03,2.80625000e-03,3.43750000e-03
-4.89381250e-07,5.33437500e-03,2.77656250e-03,3.42187500e-03
-4.89341250e-07,5.33125000e-03,2.75312500e-03,3.41875000e-03
-4.89301250e-07,5.34062500e-03,2.73750000e-03,3.43125000e-03
-4.89261250e-07,5.35937500e-03,2.72812500e-03,3.45625000e-03
-4.89221250e-07,5.38750000e-03,2.72500000e-03,3.48750000e-03
-4.89181250e-07,5.42187500e-03,2.72968750e-03,3.52812500e-03
-4.89141250e-07,5.45937500e-03,2.74062500e-03,3.57500000e-03
-4.89101250e-07,5.49687500e-03,2.75781250e-03,3.61875000e-03
-4.89061250e-07,5.53750000e-03,2.77656250e-03,3.66250000e-03
-4.89021250e-07,5.56875000e-03,2.80000000e-03,3.70000000e-03
-4.88981250e-07,5.59687500e-03,2.82343750e-03,3.72812500e-03
-4.88941250e-07,5.61562500e-03,2.84687500e-03,3.75000000e-03
-4.88901250e-07,5.62187500e-03,2.86875000e-03,3.75937500e-03
-4.88861250e-07,5.61562500e-03,2.88593750e-03,3.75625000e-03
-4.88821250e-07,5.59375000e-03,2.90156250e-03,3.74375000e-03
-4.88781250e-07,5.55937500e-03,2.91093750e-03,3.72187500e-03
-4.88741250e-07,5.51250000e-03,2.91718750e-03,3.69375000e-03
-4.88701250e-07,5.45000000e-03,2.91718750e-03,3.65937500e-03
-4.88661250e-07,5.37812500e-03,2.91250000e-03,3.62187500e-03
-4.88621250e-07,5.29687500e-03,2.90468750e-03,3.58437500e-03
-4.88581250e-07,5.20937500e-03,2.89375000e-03,3.55000000e-03
-4.88541250e-07,5.11562500e-03,2.87968750e-03,3.52500000e-03
-4.88501250e-07,5.02187500e-03,2.86562500e-03,3.50625000e-03
-4.88461250e-07,4.92812500e-03,2.85156250e-03,3.50000000e-03
-4.88421250e-07,4.84062500e-03,2.84062500e-03,3.50625000e-03
-4.88381250e-07,4.75937500e-03,2.83125000e-03,3.52812500e-03
-4.88341250e-07,4.69062500e-03,2.82656250e-03,3.56250000e-03
-4.88301250e-07,4.62812500e-03,2.82656250e-03,3.60937500e-03
-4.88261250e-07,4.58437500e-03,2.83281250e-03,3.66875000e-03
-4.88221250e-07,4.55000000e-03,2.84375000e-03,3.73750000e-03
-4.88181250e-07,4.53125000e-03,2.85937500e-03,3.81250000e-03
-4.88141250e-07,4.52500000e-03,2.88125000e-03,3.89062500e-03
-4.88101250e-07,4.53125000e-03,2.90625000e-03,3.96875000e-03
-4.88061250e-07,4.54687500e-03,2.93281250e-03,4.04375000e-03
-4.88021250e-07,4.57187500e-03,2.96250000e-03,4.10937500e-03
-4.87981250e-07,4.60625000e-03,2.99218750e-03,4.16562500e-03
-4.87941250e-07,4.64062500e-03,3.01875000e-03,4.20625000e-03
-4.87901250e-07,4.67812500e-03,3.04375000e-03,4.23437500e-03
-4.87861250e-07,4.71562500e-03,3.06250000e-03,4.24062500e-03
-4.87821250e-07,4.74687500e-03,3.07656250e-03,4.23125000e-03
-4.87781250e-07,4.77500000e-03,3.08437500e-03,4.20312500e-03
-4.87741250e-07,4.79375000e-03,3.08281250e-03,4.15937500e-03
-4.87701250e-07,4.80625000e-03,3.07500000e-03,4.10000000e-03
-4.87661250e-07,4.80937500e-03,3.05937500e-03,4.02812500e-03
-4.87621250e-07,4.80312500e-03,3.03593750e-03,3.94687500e-03
-4.87581250e-07,4.79062500e-03,3.00625000e-03,3.86250000e-03
-4.87541250e-07,4.76875000e-03,2.97031250e-03,3.77500000e-03
-4.87501250e-07,4.74062500e-03,2.93281250e-03,3.69062500e-03
-4.87461250e-07,4.70937500e-03,2.89218750e-03,3.61250000e-03
-4.87421250e-07,4.67812500e-03,2.85156250e-03,3.54375000e-03
-4.87381250e-07,4.64687500e-03,2.81250000e-03,3.48750000e-03
-4.87341250e-07,4.61875000e-03,2.77656250e-03,3.44687500e-03
-4.87301250e-07,4.59687500e-03,2.74687500e-03,3.42187500e-03
-4.87261250e-07,4.58125000e-03,2.72343750e-03,3.41250000e-03
-4.87221250e-07,4.57500000e-03,2.70781250e-03,3.42187500e-03
-4.87181250e-07,4.58125000e-03,2.70156250e-03,3.44375000e-03
-4.87141250e-07,4.59687500e-03,2.70468750e-03,3.48125000e-03
-4.87101250e-07,4.62500000e-03,2.71562500e-03,3.52812500e-03
-4.87061250e-07,4.66562500e-03,2.73437500e-03,3.58437500e-03
-4.87021250e-07,4.71562500e-03,2.76250000e-03,3.64375000e-03
-4.86981250e-07,4.77500000e-03,2.79531250e-03,3.70625000e-03
-4.86941250e-07,4.83750000e-03,2.83281250e-03,3.76562500e-03
-4.86901250e-07,4.90625000e-03,2.87343750e-03,3.81875000e-03
-4.86861250e-07,4.97812500e-03,2.91562500e-03,3.86562500e-03
-4.86821250e-07,5.04687500e-03,2.95781250e-03,3.90000000e-03
-4.86781250e-07,5.10937500e-03,2.99531250e-03,3.92187500e-03
-4.86741250e-07,5.16875000e-03,3.02968750e-03,3.93125000e-03
-4.86701250e-07,5.21562500e-03,3.05781250e-03,3.92500000e-03
-4.86661250e-07,5.25000000e-03,3.07812500e-03,3.90625000e-03
-4.86621250e-07,5.26875000e-03,3.09218750e-03,3.87812500e-03
-4.86581250e-07,5.27500000e-03,3.09687500e-03,3.83750000e-03
-4.86541250e-07,5.26250000e-03,3.09375000e-03,3.79062500e-03
-4.86501250e-07,5.23750000e-03,3.08281250e-03,3.73750000e-03
-4.86461250e-07,5.19375000e-03,3.06562500e-03,3.68125000e-03
-4.86421250e-07,5.13750000e-03,3.04218750e-03,3.62812500e-03
-4.86381250e-07,5.06562500e-03,3.01562500e-03,3.58125000e-03
-4.86341250e-07,4.98750000e-03,2.98593750e-03,3.53750000e-03
-4.86301250e-07,4.89687500e-03,2.95468750e-03,3.50625000e-03
-4.86261250e-07,4.80625000e-03,2.92500000e-03,3.48437500e-03
-4.86221250e-07,4.70937500e-03,2.89843750e-03,3.47500000e-03
-4.86181250e-07,4.61562500e-03,2.87656250e-03,3.47500000e-03
-4.86141250e-07,4.52500000e-03,2.85937500e-03,3.49062500e-03
-4.86101250e-07,4.44062500e-03,2.84843750e-03,3.51562500e-03
-4.86061250e-07,4.36250000e-03,2.84531250e-03,3.55000000e-03
-4.86021250e-07,4.29687500e-03,2.85000000e-03,3.59375000e-03
-4.85981250e-07,4.24062500e-03,2.86093750e-03,3.64062500e-03
-4.85941250e-07,4.19687500e-03,2.87968750e-03,3.69062500e-03
-4.85901250e-07,4.16250000e-03,2.90468750e-03,3.74375000e-03
-4.85861250e-07,4.14062500e-03,2.93593750e-03,3.79062500e-03
-4.85821250e-07,4.12812500e-03,2.97031250e-03,3.83437500e-03
-4.85781250e-07,4.12500000e-03,3.00625000e-03,3.86875000e-03
-4.85741250e-07,4.12812500e-03,3.04218750e-03,3.89687500e-03
-4.85701250e-07,4.13750000e-03,3.07812500e-03,3.91250000e-03
-4.85661250e-07,4.14687500e-03,3.11250000e-03,3.91875000e-03
-4.85621250e-07,4.15937500e-03,3.14062500e-03,3.91562500e-03
-4.85581250e-07,4.17187500e-03,3.16562500e-03,3.90625000e-03
-4.85541250e-07,4.18437500e-03,3.18281250e-03,3.88437500e-03
-4.85501250e-07,4.19062500e-03,3.19218750e-03,3.85937500e-03
-4.85461250e-07,4.19375000e-03,3.19531250e-03,3.82812500e-03
-4.85421250e-07,4.19375000e-03,3.19062500e-03,3.79687500e-03
-4.85381250e-07,4.18750000e-03,3.17968750e-03,3.76562500e-03
-4.85341250e-07,4.17812500e-03,3.16093750e-03,3.74062500e-03
-4.85301250e-07,4.16562500e-03,3.13750000e-03,3.71875000e-03
-4.85261250e-07,4.15000000e-03,3.10781250e-03,3.70312500e-03
-4.85221250e-07,4.13125000e-03,3.07656250e-03,3.70000000e-03
-4.85181250e-07,4.11250000e-03,3.04218750e-03,3.70312500e-03
-4.85141250e-07,4.09687500e-03,3.00781250e-03,3.71875000e-03
-4.85101250e-07,4.08125000e-03,2.97343750e-03,3.74375000e-03
-4.85061250e-07,4.06562500e-03,2.94218750e-03,3.77812500e-03
-4.85021250e-07,4.05312500e-03,2.91406250e-03,3.81875000e-03
-4.84981250e-07,4.04687500e-03,2.89062500e-03,3.86562500e-03
-4.84941250e-07,4.04062500e-03,2.87187500e-03,3.91562500e-03
-4.84901250e-07,4.03750000e-03,2.85781250e-03,3.96562500e-03
-4.84861250e-07,4.03437500e-03,2.85000000e-03,4.01562500e-03
-4.84821250e-07,4.03437500e-03,2.84687500e-03,4.05937500e-03
-4.84781250e-07,4.03125000e-03,2.85000000e-03,4.09687500e-03
-4.84741250e-07,4.02500000e-03,2.85781250e-03,4.12187500e-03
-4.84701250e-07,4.01562500e-03,2.87031250e-03,4.13750000e-03
-4.84661250e-07,4.00312500e-03,2.88437500e-03,4.14062500e-03
-4.84621250e-07,3.98125000e-03,2.90156250e-03,4.13125000e-03
-4.84581250e-07,3.95312500e-03,2.92031250e-03,4.10625000e-03
-4.84541250e-07,3.91562500e-03,2.93906250e-03,4.06562500e-03
-4.84501250e-07,3.87187500e-03,2.95625000e-03,4.01562500e-03
-4.84461250e-07,3.81875000e-03,2.97343750e-03,3.95625000e-03
-4.84421250e-07,3.75625000e-03,2.98750000e-03,3.88437500e-03
-4.84381250e-07,3.69062500e-03,3.00000000e-03,3.80937500e-03
-4.84341250e-07,3.61875000e-03,3.00937500e-03,3.73125000e-03
-4.84301250e-07,3.54687500e-03,3.01562500e-03,3.65312500e-03
-4.84261250e-07,3.47187500e-03,3.01875000e-03,3.57812500e-03
-4.84221250e-07,3.40000000e-03,3.01875000e-03,3.50937500e-03
-4.84181250e-07,3.33125000e-03,3.01718750e-03,3.45000000e-03
-4.84141250e-07,3.27187500e-03,3.01250000e-03,3.39687500e-03
-4.84101250e-07,3.21562500e-03,3.00781250e-03,3.35937500e-03
-4.84061250e-07,3.17187500e-03,3.00312500e-03,3.33750000e-03
-4.84021250e-07,3.13437500e-03,2.99687500e-03,3.32500000e-03
-4.83981250e-07,3.10937500e-03,2.99218750e-03,3.33125000e-03
-4.83941250e-07,3.09687500e-03,2.98750000e-03,3.34687500e-03
-4.83901250e-07,3.09062500e-03,2.98437500e-03,3.37812500e-03
-4.83861250e-07,3.09375000e-03,2.98281250e-03,3.41875000e-03
-4.83821250e-07,3.10312500e-03,2.98437500e-03,3.46562500e-03
-4.83781250e-07,3.11875000e-03,2.98593750e-03,3.52187500e-03
-4.83741250e-07,3.13437500e-03,2.99062500e-03,3.58125000e-03
-4.83701250e-07,3.14687500e-03,2.99531250e-03,3.63750000e-03
-4.83661250e-07,3.15937500e-03,3.00000000e-03,3.69687500e-03
-4.83621250e-07,3.16250000e-03,3.00625000e-03,3.75000000e-03
-4.83581250e-07,3.15937500e-03,3.01250000e-03,3.79687500e-03
-4.83541250e-07,3.14687500e-03,3.01718750e-03,3.83437500e-03
-4.83501250e-07,3.12187500e-03,3.02187500e-03,3.86250000e-03
-4.83461250e-07,3.08437500e-03,3.02500000e-03,3.88125000e-03
-4.83421250e-07,3.03437500e-03,3.02500000e-03,3.89062500e-03
-4.83381250e-07,2.97500000e-03,3.02343750e-03,3.88750000e-03
-4.83341250e-07,2.90625000e-03,3.02031250e-03,3.87187500e-03
-4.83301250e-07,2.82812500e-03,3.01406250e-03,3.85000000e-03
-4.83261250e-07,2.74375000e-03,3.00625000e-03,3.81875000e-03
-4.83221250e-07,2.65937500e-03,2.99843750e-03,3.78437500e-03
-4.83181250e-07,2.57187500e-03,2.98750000e-03,3.74375000e-03
-4.83141250e-07,2.49062500e-03,2.97812500e-03,3.70312500e-03
-4.83101250e-07,2.41562500e-03,2.96718750e-03,3.66250000e-03
-4.83061250e-07,2.34687500e-03,2.95937500e-03,3.62500000e-03
-4.83021250e-07,2.29062500e-03,2.95156250e-03,3.59375000e-03
-4.82981250e-07,2.24375000e-03,2.94687500e-03,3.56875000e-03
-4.82941250e-07,2.21250000e-03,2.94687500e-03,3.55312500e-03
-4.82901250e-07,2.19687500e-03,2.95000000e-03,3.54687500e-03
-4.82861250e-07,2.19062500e-03,2.95625000e-03,3.55000000e-03
-4.82821250e-07,2.20000000e-03,2.96875000e-03,3.56250000e-03
-4.82781250e-07,2.21875000e-03,2.98437500e-03,3.58750000e-03
-4.82741250e-07,2.24687500e-03,3.00625000e-03,3.62500000e-03
-4.82701250e-07,2.27812500e-03,3.03125000e-03,3.66875000e-03
-4.82661250e-07,2.31250000e-03,3.05937500e-03,3.71875000e-03
-4.82621250e-07,2.34687500e-03,3.09218750e-03,3.77500000e-03
-4.82581250e-07,2.37812500e-03,3.12656250e-03,3.83750000e-03
-4.82541250e-07,2.40312500e-03,3.16250000e-03,3.89687500e-03
-4.82501250e-07,2.41562500e-03,3.20000000e-03,3.95937500e-03
-4.82461250e-07,2.42187500e-03,3.23750000e-03,4.01562500e-03
-4.82421250e-07,2.41250000e-03,3.27343750e-03,4.06875000e-03
-4.82381250e-07,2.39062500e-03,3.30781250e-03,4.11250000e-03
-4.82341250e-07,2.35625000e-03,3.33906250e-03,4.15000000e-03
-4.82301250e-07,2.30937500e-03,3.36875000e-03,4.17500000e-03
-4.82261250e-07,2.24687500e-03,3.39375000e-03,4.18750000e-03
-4.82221250e-07,2.17812500e-03,3.41562500e-03,4.18750000e-03
-4.82181250e-07,2.10000000e-03,3.43281250e-03,4.17812500e-03
-4.82141250e-07,2.01562500e-03,3.44687500e-03,4.15312500e-03
-4.82101250e-07,1.92812500e-03,3.45781250e-03,4.11875000e-03
-4.82061250e-07,1.84062500e-03,3.46406250e-03,4.07187500e-03
-4.82021250e-07,1.75937500e-03,3.46718750e-03,4.01875000e-03
-4.81981250e-07,1.67812500e-03,3.46875000e-03,3.95937500e-03
-4.81941250e-07,1.60937500e-03,3.46718750e-03,3.89687500e-03
-4.81901250e-07,1.54687500e-03,3.46406250e-03,3.82812500e-03
-4.81861250e-07,1.49375000e-03,3.45937500e-03,3.76250000e-03
-4.81821250e-07,1.45312500e-03,3.45312500e-03,3.70000000e-03
-4.81781250e-07,1.42500000e-03,3.44687500e-03,3.64062500e-03
-4.81741250e-07,1.40625000e-03,3.44062500e-03,3.59062500e-03
-4.81701250e-07,1.40000000e-03,3.43281250e-03,3.54687500e-03
-4.81661250e-07,1.40312500e-03,3.42343750e-03,3.51250000e-03
-4.81621250e-07,1.41250000e-03,3.41406250e-03,3.49062500e-03
-4.81581250e-07,1.42812500e-03,3.40312500e-03,3.47812500e-03
-4.81541250e-07,1.45000000e-03,3.38906250e-03,3.47812500e-03
-4.81501250e-07,1.47187500e-03,3.37343750e-03,3.48750000e-03
-4.81461250e-07,1.49375000e-03,3.35625000e-03,3.50937500e-03
-4.81421250e-07,1.51562500e-03,3.33437500e-03,3.53750000e-03
-4.81381250e-07,1.53437500e-03,3.30937500e-03,3.57187500e-03
-4.81341250e-07,1.54687500e-03,3.28125000e-03,3.61250000e-03
-4.81301250e-07,1.55625000e-03,3.24843750e-03,3.65312500e-03
-4.81261250e-07,1.55937500e-03,3.21093750e-03,3.69687500e-03
-4.81221250e-07,1.55625000e-03,3.17031250e-03,3.74062500e-03
-4.81181250e-07,1.55000000e-03,3.12656250e-03,3.77812500e-03
-4.81141250e-07,1.53437500e-03,3.07968750e-03,3.81250000e-03
-4.81101250e-07,1.51562500e-03,3.03125000e-03,3.84062500e-03
-4.81061250e-07,1.49375000e-03,2.98281250e-03,3.86250000e-03
-4.81021250e-07,1.46562500e-03,2.93437500e-03,3.87500000e-03
-4.80981250e-07,1.43437500e-03,2.88750000e-03,3.88125000e-03
-4.80941250e-07,1.40312500e-03,2.84375000e-03,3.87812500e-03
-4.80901250e-07,1.36875000e-03,2.80468750e-03,3.86875000e-03
-4.80861250e-07,1.33750000e-03,2.77031250e-03,3.85000000e-03
-4.80821250e-07,1.30312500e-03,2.74375000e-03,3.82812500e-03
-4.80781250e-07,1.26875000e-03,2.72500000e-03,3.80000000e-03
-4.80741250e-07,1.23750000e-03,2.71406250e-03,3.77187500e-03
-4.80701250e-07,1.20625000e-03,2.71250000e-03,3.74375000e-03
-4.80661250e-07,1.17500000e-03,2.72031250e-03,3.71250000e-03
-4.80621250e-07,1.14687500e-03,2.73750000e-03,3.68437500e-03
-4.80581250e-07,1.11875000e-03,2.76406250e-03,3.66250000e-03
-4.80541250e-07,1.09375000e-03,2.79843750e-03,3.64375000e-03
-4.80501250e-07,1.07187500e-03,2.84062500e-03,3.63125000e-03
-4.80461250e-07,1.04687500e-03,2.88906250e-03,3.62187500e-03
-4.80421250e-07,1.02812500e-03,2.94218750e-03,3.62187500e-03
-4.80381250e-07,1.00937500e-03,2.99843750e-03,3.62812500e-03
-4.80341250e-07,9.90625000e-04,3.05625000e-03,3.63750000e-03
-4.80301250e-07,9.75000000e-04,3.11406250e-03,3.65312500e-03
-4.80261250e-07,9.56250000e-04,3.17187500e-03,3.67500000e-03
-4.80221250e-07,9.43750000e-04,3.22500000e-03,3.69687500e-03
-4.80181250e-07,9.28125000e-04,3.27343750e-03,3.72500000e-03
-4.80141250e-07,9.15625000e-04,3.31562500e-03,3.75312500e-03
-4.80101250e-07,9.00000000e-04,3.35312500e-03,3.77812500e-03
-4.80061250e-07,8.84375000e-04,3.38125000e-03,3.80625000e-03
-4.80021250e-07,8.68750000e-04,3.40312500e-03,3.83125000e-03
-4.79981250e-07,8.50000000e-04,3.41562500e-03,3.85625000e-03
-4.79941250e-07,8.31250000e-04,3.42187500e-03,3.87500000e-03
-4.79901250e-07,8.06250000e-04,3.42031250e-03,3.89375000e-03
-4.79861250e-07,7.81250000e-04,3.41250000e-03,3.90937500e-03
-4.79821250e-07,7.50000000e-04,3.39843750e-03,3.92500000e-03
-4.79781250e-07,7.15625000e-04,3.38125000e-03,3.93750000e-03
-4.79741250e-07,6.81250000e-04,3.36093750e-03,3.94687500e-03
-4.79701250e-07,6.40625000e-04,3.33750000e-03,3.95625000e-03
-4.79661250e-07,5.96875000e-04,3.31406250e-03,3.96562500e-03
-4.79621250e-07,5.50000000e-04,3.29062500e-03,3.97500000e-03
-4.79581250e-07,5.06250000e-04,3.26875000e-03,3.98750000e-03
-4.79541250e-07,4.59375000e-04,3.24843750e-03,3.99687500e-03
-4.79501250e-07,4.12500000e-04,3.22968750e-03,4.00937500e-03
-4.79461250e-07,3.71875000e-04,3.21562500e-03,4.02187500e-03
-4.79421250e-07,3.31250000e-04,3.20468750e-03,4.03437500e-03
-4.79381250e-07,3.00000000e-04,3.19687500e-03,4.04687500e-03
-4.79341250e-07,2.71875000e-04,3.19218750e-03,4.05937500e-03
-4.79301250e-07,2.50000000e-04,3.18906250e-03,4.06875000e-03
-4.79261250e-07,2.37500000e-04,3.18906250e-03,4.07812500e-03
-4.79221250e-07,2.31250000e-04,3.19062500e-03,4.08437500e-03
-4.79181250e-07,2.31250000e-04,3.19218750e-03,4.08437500e-03
-4.79141250e-07,2.37500000e-04,3.19375000e-03,4.08437500e-03
-4.79101250e-07,2.50000000e-04,3.19687500e-03,4.07812500e-03
-4.79061250e-07,2.62500000e-04,3.19843750e-03,4.06875000e-03
-4.79021250e-07,2.78125000e-04,3.19843750e-03,4.05312500e-03
-4.78981250e-07,2.93750000e-04,3.19843750e-03,4.03750000e-03
-4.78941250e-07,3.06250000e-04,3.19687500e-03,4.01562500e-03
-4.78901250e-07,3.09375000e-04,3.19375000e-03,3.99375000e-03
-4.78861250e-07,3.09375000e-04,3.19062500e-03,3.96875000e-03
-4.78821250e-07,2.96875000e-04,3.18593750e-03,3.94375000e-03
-4.78781250e-07,2.71875000e-04,3.18281250e-03,3.92187500e-03
-4.78741250e-07,2.31250000e-04,3.17968750e-03,3.90000000e-03
-4.78701250e-07,1.81250000e-04,3.17812500e-03,3.88437500e-03
-4.78661250e-07,1.12500000e-04,3.17812500e-03,3.86875000e-03
-4.78621250e-07,3.43750000e-05,3.17968750e-03,3.86250000e-03
-4.78581250e-07,-5.93750000e-05,3.18437500e-03,3.85625000e-03
-4.78541250e-07,-1.65625000e-04,3.19218750e-03,3.85625000e-03
-4.78501250e-07,-2.78125000e-04,3.20312500e-03,3.86250000e-03
-4.78461250e-07,-3.96875000e-04,3.21562500e-03,3.87187500e-03
-4.78421250e-07,-5.18750000e-04,3.22968750e-03,3.88437500e-03
-4.78381250e-07,-6.40625000e-04,3.24687500e-03,3.89687500e-03
-4.78341250e-07,-7.59375000e-04,3.26406250e-03,3.91250000e-03
-4.78301250e-07,-8.68750000e-04,3.28125000e-03,3.92500000e-03
-4.78261250e-07,-9.71875000e-04,3.29687500e-03,3.93437500e-03
-4.78221250e-07,-1.06250000e-03,3.31093750e-03,3.93750000e-03
-4.78181250e-07,-1.13750000e-03,3.32031250e-03,3.93750000e-03
-4.78141250e-07,-1.19687500e-03,3.32812500e-03,3.93125000e-03
-4.78101250e-07,-1.24062500e-03,3.32968750e-03,3.91875000e-03
-4.78061250e-07,-1.26875000e-03,3.32500000e-03,3.89687500e-03
-4.78021250e-07,-1.28125000e-03,3.31562500e-03,3.86875000e-03
-4.77981250e-07,-1.28125000e-03,3.30000000e-03,3.83125000e-03
-4.77941250e-07,-1.26875000e-03,3.27812500e-03,3.79375000e-03
-4.77901250e-07,-1.25000000e-03,3.25156250e-03,3.75000000e-03
-4.77861250e-07,-1.22187500e-03,3.22031250e-03,3.70312500e-03
-4.77821250e-07,-1.19375000e-03,3.18437500e-03,3.65625000e-03
-4.77781250e-07,-1.16562500e-03,3.14687500e-03,3.61562500e-03
-4.77741250e-07,-1.13750000e-03,3.10781250e-03,3.57812500e-03
-4.77701250e-07,-1.11875000e-03,3.07031250e-03,3.54687500e-03
-4.77661250e-07,-1.10625000e-03,3.03281250e-03,3.52500000e-03
-4.77621250e-07,-1.10625000e-03,3.00000000e-03,3.51250000e-03
-4.77581250e-07,-1.11562500e-03,2.97187500e-03,3.51250000e-03
-4.77541250e-07,-1.13437500e-03,2.95000000e-03,3.52500000e-03
-4.77501250e-07,-1.16562500e-03,2.93593750e-03,3.54687500e-03
-4.77461250e-07,-1.20937500e-03,2.92968750e-03,3.58437500e-03
-4.77421250e-07,-1.26250000e-03,2.93125000e-03,3.62812500e-03
