transmissionlines/BB5data/amplicsv/ampli_ALL_20250709080140846.csv

Model,MSO64
Channel,CH1,,Channel,CH2,,Channel,CH3
Label,,,Label,,,Label,
Waveform Type,ANALOG,,Waveform Type,ANALOG,,Waveform Type,ANALOG
Digital Type,None,,Digital Type,None,,Digital Type,None
Horizontal Units,s,,Horizontal Units,s,,Horizontal Units,s
Sample Interval,4.00000000e-11,,Sample Interval,4.00000000e-11,,Sample Interval,4.00000000e-11
Record Length,25000,,Record Length,25000,,Record Length,25000
Zero Index,12249.53125000,,Zero Index,12249.53125000,,Zero Index,12249.53125000
Vertical Units,V,,Vertical Units,V,,Vertical Units,V
,,,,,,,
ANALOG_Thumbnail,,,ANALOG_Thumbnail,,,ANALOG_Thumbnail,
yOffset,0.000000,,yOffset,0.000000,,yOffset,0.000000
yPosition,-0.680000,,yPosition,-2.140000,,yPosition,0.000000

Labels,,,
TIME,CH1,CH2,CH3
-4.89981250e-07,-5.62500000e-04,3.32187500e-03,2.96562500e-03
-4.89941250e-07,-4.92187500e-04,3.32812500e-03,2.90625000e-03
-4.89901250e-07,-4.21875000e-04,3.33750000e-03,2.84687500e-03
-4.89861250e-07,-3.59375000e-04,3.35000000e-03,2.79375000e-03
-4.89821250e-07,-3.12500000e-04,3.36406250e-03,2.74687500e-03
-4.89781250e-07,-2.65625000e-04,3.37968750e-03,2.70937500e-03
-4.89741250e-07,-2.42187500e-04,3.39531250e-03,2.68125000e-03
-4.89701250e-07,-2.26562500e-04,3.41093750e-03,2.66562500e-03
-4.89661250e-07,-2.26562500e-04,3.42500000e-03,2.66562500e-03
-4.89621250e-07,-2.42187500e-04,3.43593750e-03,2.67812500e-03
-4.89581250e-07,-2.73437500e-04,3.44531250e-03,2.70312500e-03
-4.89541250e-07,-3.12500000e-04,3.45000000e-03,2.74375000e-03
-4.89501250e-07,-3.67187500e-04,3.45312500e-03,2.79687500e-03
-4.89461250e-07,-4.29687500e-04,3.45156250e-03,2.85625000e-03
-4.89421250e-07,-4.92187500e-04,3.44843750e-03,2.92500000e-03
-4.89381250e-07,-5.62500000e-04,3.44062500e-03,3.00000000e-03
-4.89341250e-07,-6.40625000e-04,3.43281250e-03,3.07500000e-03
-4.89301250e-07,-7.10937500e-04,3.42187500e-03,3.14687500e-03
-4.89261250e-07,-7.89062500e-04,3.40937500e-03,3.21562500e-03
-4.89221250e-07,-8.59375000e-04,3.39687500e-03,3.27812500e-03
-4.89181250e-07,-9.29687500e-04,3.38437500e-03,3.33125000e-03
-4.89141250e-07,-9.92187500e-04,3.37343750e-03,3.36875000e-03
-4.89101250e-07,-1.06250000e-03,3.36406250e-03,3.39687500e-03
-4.89061250e-07,-1.12500000e-03,3.35625000e-03,3.40625000e-03
-4.89021250e-07,-1.17968750e-03,3.35000000e-03,3.40312500e-03
-4.88981250e-07,-1.24218750e-03,3.34687500e-03,3.38750000e-03
-4.88941250e-07,-1.30468750e-03,3.34687500e-03,3.35312500e-03
-4.88901250e-07,-1.36718750e-03,3.35000000e-03,3.31250000e-03
-4.88861250e-07,-1.43750000e-03,3.35468750e-03,3.25937500e-03
-4.88821250e-07,-1.50781250e-03,3.36250000e-03,3.20000000e-03
-4.88781250e-07,-1.58593750e-03,3.37187500e-03,3.13750000e-03
-4.88741250e-07,-1.66406250e-03,3.38437500e-03,3.07500000e-03
-4.88701250e-07,-1.74218750e-03,3.39843750e-03,3.01562500e-03
-4.88661250e-07,-1.82812500e-03,3.41250000e-03,2.95937500e-03
-4.88621250e-07,-1.91406250e-03,3.42656250e-03,2.91250000e-03
-4.88581250e-07,-1.99218750e-03,3.44218750e-03,2.87812500e-03
-4.88541250e-07,-2.07031250e-03,3.45625000e-03,2.85312500e-03
-4.88501250e-07,-2.14062500e-03,3.47187500e-03,2.84375000e-03
-4.88461250e-07,-2.20312500e-03,3.48437500e-03,2.84687500e-03
-4.88421250e-07,-2.25781250e-03,3.49843750e-03,2.86250000e-03
-4.88381250e-07,-2.29687500e-03,3.50937500e-03,2.89062500e-03
-4.88341250e-07,-2.32031250e-03,3.52031250e-03,2.93125000e-03
-4.88301250e-07,-2.33593750e-03,3.52968750e-03,2.98125000e-03
-4.88261250e-07,-2.32812500e-03,3.53750000e-03,3.03437500e-03
-4.88221250e-07,-2.31250000e-03,3.54375000e-03,3.09375000e-03
-4.88181250e-07,-2.27343750e-03,3.55000000e-03,3.15625000e-03
-4.88141250e-07,-2.23437500e-03,3.55468750e-03,3.21562500e-03
-4.88101250e-07,-2.17187500e-03,3.55781250e-03,3.26875000e-03
-4.88061250e-07,-2.10937500e-03,3.55937500e-03,3.31875000e-03
-4.88021250e-07,-2.04687500e-03,3.56093750e-03,3.35625000e-03
-4.87981250e-07,-1.97656250e-03,3.56093750e-03,3.38750000e-03
-4.87941250e-07,-1.91406250e-03,3.56093750e-03,3.40625000e-03
-4.87901250e-07,-1.85156250e-03,3.55781250e-03,3.41250000e-03
-4.87861250e-07,-1.80468750e-03,3.55468750e-03,3.41250000e-03
-4.87821250e-07,-1.76562500e-03,3.55000000e-03,3.39687500e-03
-4.87781250e-07,-1.74218750e-03,3.54218750e-03,3.37500000e-03
-4.87741250e-07,-1.73437500e-03,3.53281250e-03,3.34687500e-03
-4.87701250e-07,-1.74218750e-03,3.52187500e-03,3.31250000e-03
-4.87661250e-07,-1.76562500e-03,3.50937500e-03,3.27812500e-03
-4.87621250e-07,-1.80468750e-03,3.49531250e-03,3.23750000e-03
-4.87581250e-07,-1.86718750e-03,3.47812500e-03,3.20312500e-03
-4.87541250e-07,-1.92968750e-03,3.45937500e-03,3.16875000e-03
-4.87501250e-07,-2.01562500e-03,3.43906250e-03,3.14062500e-03
-4.87461250e-07,-2.10156250e-03,3.41718750e-03,3.11875000e-03
-4.87421250e-07,-2.18750000e-03,3.39375000e-03,3.10312500e-03
-4.87381250e-07,-2.28125000e-03,3.37031250e-03,3.09687500e-03
-4.87341250e-07,-2.37500000e-03,3.34687500e-03,3.09687500e-03
-4.87301250e-07,-2.46875000e-03,3.32500000e-03,3.10312500e-03
-4.87261250e-07,-2.54687500e-03,3.30312500e-03,3.11562500e-03
-4.87221250e-07,-2.61718750e-03,3.28281250e-03,3.13437500e-03
-4.87181250e-07,-2.68750000e-03,3.26406250e-03,3.15625000e-03
-4.87141250e-07,-2.74218750e-03,3.24843750e-03,3.18125000e-03
-4.87101250e-07,-2.78906250e-03,3.23437500e-03,3.20625000e-03
-4.87061250e-07,-2.82812500e-03,3.22500000e-03,3.22812500e-03
-4.87021250e-07,-2.85156250e-03,3.21718750e-03,3.24687500e-03
-4.86981250e-07,-2.88281250e-03,3.21406250e-03,3.26562500e-03
-4.86941250e-07,-2.89843750e-03,3.21250000e-03,3.27500000e-03
-4.86901250e-07,-2.91406250e-03,3.21406250e-03,3.28125000e-03
-4.86861250e-07,-2.93750000e-03,3.21875000e-03,3.28125000e-03
-4.86821250e-07,-2.95312500e-03,3.22656250e-03,3.27812500e-03
-4.86781250e-07,-2.97656250e-03,3.23437500e-03,3.26562500e-03
-4.86741250e-07,-3.00000000e-03,3.24531250e-03,3.25000000e-03
-4.86701250e-07,-3.03125000e-03,3.25468750e-03,3.23125000e-03
-4.86661250e-07,-3.07031250e-03,3.26562500e-03,3.21250000e-03
-4.86621250e-07,-3.11718750e-03,3.27656250e-03,3.19062500e-03
-4.86581250e-07,-3.15625000e-03,3.28593750e-03,3.17187500e-03
-4.86541250e-07,-3.21093750e-03,3.29375000e-03,3.15312500e-03
-4.86501250e-07,-3.25781250e-03,3.29843750e-03,3.14062500e-03
-4.86461250e-07,-3.30468750e-03,3.30312500e-03,3.12812500e-03
-4.86421250e-07,-3.35156250e-03,3.30468750e-03,3.12500000e-03
-4.86381250e-07,-3.39062500e-03,3.30468750e-03,3.12500000e-03
-4.86341250e-07,-3.42968750e-03,3.30156250e-03,3.12812500e-03
-4.86301250e-07,-3.45312500e-03,3.29843750e-03,3.14062500e-03
-4.86261250e-07,-3.46093750e-03,3.29218750e-03,3.15625000e-03
-4.86221250e-07,-3.46875000e-03,3.28593750e-03,3.17187500e-03
-4.86181250e-07,-3.46093750e-03,3.27812500e-03,3.19375000e-03
-4.86141250e-07,-3.44531250e-03,3.27187500e-03,3.21562500e-03
-4.86101250e-07,-3.42187500e-03,3.26406250e-03,3.23750000e-03
-4.86061250e-07,-3.39062500e-03,3.25937500e-03,3.25625000e-03
-4.86021250e-07,-3.35156250e-03,3.25468750e-03,3.27187500e-03
-4.85981250e-07,-3.31250000e-03,3.25312500e-03,3.28437500e-03
-4.85941250e-07,-3.28125000e-03,3.25312500e-03,3.29375000e-03
-4.85901250e-07,-3.25000000e-03,3.25625000e-03,3.29375000e-03
-4.85861250e-07,-3.22656250e-03,3.26093750e-03,3.28750000e-03
-4.85821250e-07,-3.21875000e-03,3.26875000e-03,3.27500000e-03
-4.85781250e-07,-3.21875000e-03,3.27812500e-03,3.25937500e-03
-4.85741250e-07,-3.23437500e-03,3.29062500e-03,3.23437500e-03
-4.85701250e-07,-3.27343750e-03,3.30312500e-03,3.20937500e-03
-4.85661250e-07,-3.32031250e-03,3.31875000e-03,3.17812500e-03
-4.85621250e-07,-3.39062500e-03,3.33437500e-03,3.14687500e-03
-4.85581250e-07,-3.46875000e-03,3.35000000e-03,3.11250000e-03
-4.85541250e-07,-3.56250000e-03,3.36562500e-03,3.08125000e-03
-4.85501250e-07,-3.66406250e-03,3.38125000e-03,3.05312500e-03
-4.85461250e-07,-3.77343750e-03,3.39375000e-03,3.02500000e-03
-4.85421250e-07,-3.88281250e-03,3.40625000e-03,3.00625000e-03
-4.85381250e-07,-3.99218750e-03,3.41562500e-03,2.98750000e-03
-4.85341250e-07,-4.09375000e-03,3.42343750e-03,2.97812500e-03
-4.85301250e-07,-4.18750000e-03,3.42968750e-03,2.97500000e-03
-4.85261250e-07,-4.26562500e-03,3.43125000e-03,2.97812500e-03
-4.85221250e-07,-4.32031250e-03,3.43281250e-03,2.98437500e-03
-4.85181250e-07,-4.35937500e-03,3.43125000e-03,2.99687500e-03
-4.85141250e-07,-4.36718750e-03,3.42812500e-03,3.01250000e-03
-4.85101250e-07,-4.35937500e-03,3.42343750e-03,3.03125000e-03
-4.85061250e-07,-4.32031250e-03,3.41718750e-03,3.05312500e-03
-4.85021250e-07,-4.25781250e-03,3.41093750e-03,3.07187500e-03
-4.84981250e-07,-4.17968750e-03,3.40468750e-03,3.09375000e-03
-4.84941250e-07,-4.07812500e-03,3.39843750e-03,3.11250000e-03
-4.84901250e-07,-3.96093750e-03,3.39218750e-03,3.12812500e-03
-4.84861250e-07,-3.82812500e-03,3.38750000e-03,3.14062500e-03
-4.84821250e-07,-3.68750000e-03,3.38437500e-03,3.15000000e-03
-4.84781250e-07,-3.54687500e-03,3.38125000e-03,3.15937500e-03
-4.84741250e-07,-3.39843750e-03,3.38125000e-03,3.16250000e-03
-4.84701250e-07,-3.26562500e-03,3.38125000e-03,3.16250000e-03
-4.84661250e-07,-3.14062500e-03,3.38281250e-03,3.15937500e-03
-4.84621250e-07,-3.02343750e-03,3.38593750e-03,3.15625000e-03
-4.84581250e-07,-2.92187500e-03,3.38906250e-03,3.15312500e-03
-4.84541250e-07,-2.84375000e-03,3.39375000e-03,3.14687500e-03
-4.84501250e-07,-2.78125000e-03,3.39843750e-03,3.14375000e-03
-4.84461250e-07,-2.73437500e-03,3.40312500e-03,3.14062500e-03
-4.84421250e-07,-2.71093750e-03,3.40781250e-03,3.14062500e-03
-4.84381250e-07,-2.71093750e-03,3.41250000e-03,3.14375000e-03
-4.84341250e-07,-2.71875000e-03,3.41562500e-03,3.15000000e-03
-4.84301250e-07,-2.74218750e-03,3.41718750e-03,3.15625000e-03
-4.84261250e-07,-2.78125000e-03,3.41875000e-03,3.16875000e-03
-4.84221250e-07,-2.82031250e-03,3.41875000e-03,3.17812500e-03
-4.84181250e-07,-2.86718750e-03,3.41718750e-03,3.19062500e-03
-4.84141250e-07,-2.91406250e-03,3.41406250e-03,3.20625000e-03
-4.84101250e-07,-2.95312500e-03,3.41093750e-03,3.21562500e-03
-4.84061250e-07,-2.99218750e-03,3.40625000e-03,3.22812500e-03
-4.84021250e-07,-3.02343750e-03,3.40156250e-03,3.23750000e-03
-4.83981250e-07,-3.03906250e-03,3.39687500e-03,3.24062500e-03
-4.83941250e-07,-3.04687500e-03,3.39062500e-03,3.24375000e-03
-4.83901250e-07,-3.03906250e-03,3.38593750e-03,3.24062500e-03
-4.83861250e-07,-3.02343750e-03,3.38125000e-03,3.23437500e-03
-4.83821250e-07,-2.99218750e-03,3.37812500e-03,3.22500000e-03
-4.83781250e-07,-2.95312500e-03,3.37500000e-03,3.21250000e-03
-4.83741250e-07,-2.90625000e-03,3.37343750e-03,3.19687500e-03
-4.83701250e-07,-2.85156250e-03,3.37343750e-03,3.18125000e-03
-4.83661250e-07,-2.78906250e-03,3.37500000e-03,3.16562500e-03
-4.83621250e-07,-2.73437500e-03,3.37812500e-03,3.15000000e-03
-4.83581250e-07,-2.67968750e-03,3.38281250e-03,3.13750000e-03
-4.83541250e-07,-2.63281250e-03,3.38906250e-03,3.12812500e-03
-4.83501250e-07,-2.58593750e-03,3.39687500e-03,3.12500000e-03
-4.83461250e-07,-2.55468750e-03,3.40625000e-03,3.12812500e-03
-4.83421250e-07,-2.53906250e-03,3.41718750e-03,3.13750000e-03
-4.83381250e-07,-2.53125000e-03,3.42812500e-03,3.15625000e-03
-4.83341250e-07,-2.53906250e-03,3.44218750e-03,3.18125000e-03
-4.83301250e-07,-2.56250000e-03,3.45625000e-03,3.21250000e-03
-4.83261250e-07,-2.60156250e-03,3.47031250e-03,3.25000000e-03
-4.83221250e-07,-2.64843750e-03,3.48593750e-03,3.29375000e-03
-4.83181250e-07,-2.71093750e-03,3.50156250e-03,3.34062500e-03
-4.83141250e-07,-2.78125000e-03,3.51718750e-03,3.39062500e-03
-4.83101250e-07,-2.85937500e-03,3.53281250e-03,3.44062500e-03
-4.83061250e-07,-2.94531250e-03,3.54687500e-03,3.48750000e-03
-4.83021250e-07,-3.03125000e-03,3.56250000e-03,3.53125000e-03
-4.82981250e-07,-3.11718750e-03,3.57500000e-03,3.56875000e-03
-4.82941250e-07,-3.19531250e-03,3.58750000e-03,3.59687500e-03
-4.82901250e-07,-3.27343750e-03,3.59843750e-03,3.61562500e-03
-4.82861250e-07,-3.33593750e-03,3.60625000e-03,3.62812500e-03
-4.82821250e-07,-3.39843750e-03,3.61250000e-03,3.62500000e-03
-4.82781250e-07,-3.44531250e-03,3.61562500e-03,3.61250000e-03
-4.82741250e-07,-3.48437500e-03,3.61718750e-03,3.59062500e-03
-4.82701250e-07,-3.50000000e-03,3.61562500e-03,3.55625000e-03
-4.82661250e-07,-3.50781250e-03,3.60937500e-03,3.51562500e-03
-4.82621250e-07,-3.50781250e-03,3.60156250e-03,3.46562500e-03
-4.82581250e-07,-3.48437500e-03,3.58906250e-03,3.40937500e-03
-4.82541250e-07,-3.45312500e-03,3.57343750e-03,3.35000000e-03
-4.82501250e-07,-3.40625000e-03,3.55468750e-03,3.29062500e-03
-4.82461250e-07,-3.35156250e-03,3.53281250e-03,3.23437500e-03
-4.82421250e-07,-3.28125000e-03,3.50781250e-03,3.17812500e-03
-4.82381250e-07,-3.20312500e-03,3.48125000e-03,3.13125000e-03
-4.82341250e-07,-3.10937500e-03,3.45312500e-03,3.08750000e-03
-4.82301250e-07,-3.00781250e-03,3.42343750e-03,3.05625000e-03
-4.82261250e-07,-2.90625000e-03,3.39375000e-03,3.03437500e-03
-4.82221250e-07,-2.78906250e-03,3.36250000e-03,3.02187500e-03
-4.82181250e-07,-2.66406250e-03,3.33281250e-03,3.02187500e-03
-4.82141250e-07,-2.53906250e-03,3.30625000e-03,3.03125000e-03
-4.82101250e-07,-2.41406250e-03,3.27968750e-03,3.05000000e-03
-4.82061250e-07,-2.28906250e-03,3.25781250e-03,3.07812500e-03
-4.82021250e-07,-2.15625000e-03,3.23750000e-03,3.10937500e-03
-4.81981250e-07,-2.03125000e-03,3.22187500e-03,3.15000000e-03
-4.81941250e-07,-1.91406250e-03,3.21093750e-03,3.19062500e-03
-4.81901250e-07,-1.80468750e-03,3.20468750e-03,3.23437500e-03
-4.81861250e-07,-1.70312500e-03,3.20156250e-03,3.27500000e-03
-4.81821250e-07,-1.62500000e-03,3.20312500e-03,3.31250000e-03
-4.81781250e-07,-1.55468750e-03,3.20937500e-03,3.34687500e-03
-4.81741250e-07,-1.50781250e-03,3.21875000e-03,3.37812500e-03
-4.81701250e-07,-1.48437500e-03,3.23125000e-03,3.40000000e-03
-4.81661250e-07,-1.48437500e-03,3.24687500e-03,3.41250000e-03
-4.81621250e-07,-1.51562500e-03,3.26562500e-03,3.41875000e-03
-4.81581250e-07,-1.57812500e-03,3.28593750e-03,3.41875000e-03
-4.81541250e-07,-1.65625000e-03,3.30625000e-03,3.40937500e-03
-4.81501250e-07,-1.77343750e-03,3.32656250e-03,3.39375000e-03
-4.81461250e-07,-1.91406250e-03,3.34687500e-03,3.37500000e-03
-4.81421250e-07,-2.07031250e-03,3.36562500e-03,3.35000000e-03
-4.81381250e-07,-2.25781250e-03,3.38437500e-03,3.31875000e-03
-4.81341250e-07,-2.45312500e-03,3.40000000e-03,3.29062500e-03
-4.81301250e-07,-2.66406250e-03,3.41406250e-03,3.25937500e-03
-4.81261250e-07,-2.88281250e-03,3.42500000e-03,3.23125000e-03
-4.81221250e-07,-3.09375000e-03,3.43281250e-03,3.20312500e-03
-4.81181250e-07,-3.30468750e-03,3.43906250e-03,3.17812500e-03
-4.81141250e-07,-3.50000000e-03,3.44218750e-03,3.15625000e-03
-4.81101250e-07,-3.67968750e-03,3.44375000e-03,3.14062500e-03
-4.81061250e-07,-3.82812500e-03,3.44218750e-03,3.12812500e-03
-4.81021250e-07,-3.95312500e-03,3.44062500e-03,3.12187500e-03
-4.80981250e-07,-4.04687500e-03,3.43593750e-03,3.11875000e-03
-4.80941250e-07,-4.10937500e-03,3.43125000e-03,3.12187500e-03
-4.80901250e-07,-4.14062500e-03,3.42500000e-03,3.12500000e-03
-4.80861250e-07,-4.12500000e-03,3.41875000e-03,3.13437500e-03
-4.80821250e-07,-4.08593750e-03,3.41406250e-03,3.14687500e-03
-4.80781250e-07,-4.01562500e-03,3.40781250e-03,3.15937500e-03
-4.80741250e-07,-3.92187500e-03,3.40156250e-03,3.17187500e-03
-4.80701250e-07,-3.79687500e-03,3.39687500e-03,3.18750000e-03
-4.80661250e-07,-3.66406250e-03,3.39375000e-03,3.20000000e-03
-4.80621250e-07,-3.52343750e-03,3.38906250e-03,3.21562500e-03
-4.80581250e-07,-3.37500000e-03,3.38593750e-03,3.22500000e-03
-4.80541250e-07,-3.23437500e-03,3.38437500e-03,3.23750000e-03
-4.80501250e-07,-3.10156250e-03,3.38125000e-03,3.24375000e-03
-4.80461250e-07,-2.98437500e-03,3.37968750e-03,3.25000000e-03
-4.80421250e-07,-2.89062500e-03,3.37656250e-03,3.25625000e-03
-4.80381250e-07,-2.82031250e-03,3.37343750e-03,3.25625000e-03
-4.80341250e-07,-2.77343750e-03,3.37031250e-03,3.25625000e-03
-4.80301250e-07,-2.75000000e-03,3.36562500e-03,3.25312500e-03
-4.80261250e-07,-2.75781250e-03,3.36093750e-03,3.25000000e-03
-4.80221250e-07,-2.79687500e-03,3.35468750e-03,3.24375000e-03
-4.80181250e-07,-2.85156250e-03,3.34687500e-03,3.23750000e-03
-4.80141250e-07,-2.92968750e-03,3.33906250e-03,3.22812500e-03
-4.80101250e-07,-3.03125000e-03,3.32968750e-03,3.21562500e-03
-4.80061250e-07,-3.13281250e-03,3.31875000e-03,3.20625000e-03
-4.80021250e-07,-3.25000000e-03,3.30781250e-03,3.19062500e-03
-4.79981250e-07,-3.35937500e-03,3.29687500e-03,3.17812500e-03
-4.79941250e-07,-3.46875000e-03,3.28437500e-03,3.16250000e-03
-4.79901250e-07,-3.57031250e-03,3.27343750e-03,3.14687500e-03
-4.79861250e-07,-3.65625000e-03,3.26093750e-03,3.12812500e-03
-4.79821250e-07,-3.72656250e-03,3.25000000e-03,3.11250000e-03
-4.79781250e-07,-3.77343750e-03,3.24062500e-03,3.09375000e-03
-4.79741250e-07,-3.80468750e-03,3.23281250e-03,3.07500000e-03
-4.79701250e-07,-3.81250000e-03,3.22656250e-03,3.05937500e-03
-4.79661250e-07,-3.79687500e-03,3.22187500e-03,3.04062500e-03
-4.79621250e-07,-3.76562500e-03,3.22031250e-03,3.02500000e-03
-4.79581250e-07,-3.71875000e-03,3.22031250e-03,3.01250000e-03
-4.79541250e-07,-3.65625000e-03,3.22343750e-03,2.99687500e-03
-4.79501250e-07,-3.58593750e-03,3.22812500e-03,2.98750000e-03
-4.79461250e-07,-3.51562500e-03,3.23593750e-03,2.97812500e-03
-4.79421250e-07,-3.43750000e-03,3.24531250e-03,2.96875000e-03
-4.79381250e-07,-3.36718750e-03,3.25781250e-03,2.96250000e-03
-4.79341250e-07,-3.30468750e-03,3.27187500e-03,2.95937500e-03
-4.79301250e-07,-3.25000000e-03,3.28593750e-03,2.95937500e-03
-4.79261250e-07,-3.21093750e-03,3.30156250e-03,2.95937500e-03
-4.79221250e-07,-3.18750000e-03,3.31718750e-03,2.96250000e-03
-4.79181250e-07,-3.17187500e-03,3.33437500e-03,2.96875000e-03
-4.79141250e-07,-3.17968750e-03,3.34843750e-03,2.97500000e-03
-4.79101250e-07,-3.19531250e-03,3.36250000e-03,2.98125000e-03
-4.79061250e-07,-3.22656250e-03,3.37500000e-03,2.99062500e-03
-4.79021250e-07,-3.27343750e-03,3.38437500e-03,3.00000000e-03
-4.78981250e-07,-3.32031250e-03,3.39062500e-03,3.00937500e-03
-4.78941250e-07,-3.37500000e-03,3.39531250e-03,3.01875000e-03
-4.78901250e-07,-3.43750000e-03,3.39687500e-03,3.02812500e-03
-4.78861250e-07,-3.49218750e-03,3.39531250e-03,3.03750000e-03
-4.78821250e-07,-3.53906250e-03,3.38906250e-03,3.04375000e-03
-4.78781250e-07,-3.57812500e-03,3.38125000e-03,3.05312500e-03
-4.78741250e-07,-3.60937500e-03,3.37187500e-03,3.05937500e-03
-4.78701250e-07,-3.62500000e-03,3.35937500e-03,3.06875000e-03
-4.78661250e-07,-3.63281250e-03,3.34531250e-03,3.07500000e-03
-4.78621250e-07,-3.62500000e-03,3.33125000e-03,3.08125000e-03
-4.78581250e-07,-3.60156250e-03,3.31718750e-03,3.09062500e-03
-4.78541250e-07,-3.56250000e-03,3.30312500e-03,3.10000000e-03
-4.78501250e-07,-3.52343750e-03,3.28906250e-03,3.10937500e-03
-4.78461250e-07,-3.46875000e-03,3.27812500e-03,3.11875000e-03
-4.78421250e-07,-3.42187500e-03,3.27031250e-03,3.13125000e-03
-4.78381250e-07,-3.36718750e-03,3.26406250e-03,3.14687500e-03
-4.78341250e-07,-3.32031250e-03,3.26250000e-03,3.16250000e-03
-4.78301250e-07,-3.28125000e-03,3.26250000e-03,3.18125000e-03
-4.78261250e-07,-3.25781250e-03,3.26718750e-03,3.20312500e-03
-4.78221250e-07,-3.24218750e-03,3.27500000e-03,3.22500000e-03
-4.78181250e-07,-3.25000000e-03,3.28593750e-03,3.25312500e-03
-4.78141250e-07,-3.28125000e-03,3.30000000e-03,3.27812500e-03
-4.78101250e-07,-3.32031250e-03,3.31562500e-03,3.30937500e-03
-4.78061250e-07,-3.39062500e-03,3.33281250e-03,3.34062500e-03
-4.78021250e-07,-3.47656250e-03,3.35000000e-03,3.37187500e-03
-4.77981250e-07,-3.57031250e-03,3.36718750e-03,3.40625000e-03
-4.77941250e-07,-3.67968750e-03,3.38437500e-03,3.43750000e-03
-4.77901250e-07,-3.80468750e-03,3.40000000e-03,3.47187500e-03
-4.77861250e-07,-3.92187500e-03,3.41250000e-03,3.50000000e-03
-4.77821250e-07,-4.03906250e-03,3.42187500e-03,3.52812500e-03
-4.77781250e-07,-4.14843750e-03,3.42812500e-03,3.55312500e-03
-4.77741250e-07,-4.24218750e-03,3.43125000e-03,3.57500000e-03
-4.77701250e-07,-4.32031250e-03,3.42968750e-03,3.59062500e-03
-4.77661250e-07,-4.36718750e-03,3.42343750e-03,3.60312500e-03
-4.77621250e-07,-4.38281250e-03,3.41406250e-03,3.60937500e-03
