transmissionlines/BB5data/amplicsv/ampli_ALL_20250709080200216.csv

Model,MSO64
Channel,CH1,,Channel,CH2,,Channel,CH3
Label,,,Label,,,Label,
Waveform Type,ANALOG,,Waveform Type,ANALOG,,Waveform Type,ANALOG
Digital Type,None,,Digital Type,None,,Digital Type,None
Horizontal Units,s,,Horizontal Units,s,,Horizontal Units,s
Sample Interval,4.00000000e-11,,Sample Interval,4.00000000e-11,,Sample Interval,4.00000000e-11
Record Length,25000,,Record Length,25000,,Record Length,25000
Zero Index,12249.53125000,,Zero Index,12249.53125000,,Zero Index,12249.53125000
Vertical Units,V,,Vertical Units,V,,Vertical Units,V
,,,,,,,
ANALOG_Thumbnail,,,ANALOG_Thumbnail,,,ANALOG_Thumbnail,
yOffset,0.000000,,yOffset,0.000000,,yOffset,0.000000
yPosition,-0.680000,,yPosition,-2.140000,,yPosition,0.000000

Labels,,,
TIME,CH1,CH2,CH3
-4.89981250e-07,-4.15625000e-03,2.25156250e-03,4.04687500e-03
-4.89941250e-07,-4.17187500e-03,2.27187500e-03,4.05625000e-03
-4.89901250e-07,-4.17187500e-03,2.28750000e-03,4.06250000e-03
-4.89861250e-07,-4.16250000e-03,2.29687500e-03,4.06562500e-03
-4.89821250e-07,-4.14062500e-03,2.30312500e-03,4.05937500e-03
-4.89781250e-07,-4.11562500e-03,2.30468750e-03,4.05312500e-03
-4.89741250e-07,-4.08125000e-03,2.30312500e-03,4.04062500e-03
-4.89701250e-07,-4.04375000e-03,2.29843750e-03,4.02187500e-03
-4.89661250e-07,-4.00625000e-03,2.29062500e-03,4.00625000e-03
-4.89621250e-07,-3.96875000e-03,2.28281250e-03,3.98437500e-03
-4.89581250e-07,-3.93125000e-03,2.27500000e-03,3.96875000e-03
-4.89541250e-07,-3.89687500e-03,2.26875000e-03,3.95000000e-03
-4.89501250e-07,-3.86875000e-03,2.26562500e-03,3.93750000e-03
-4.89461250e-07,-3.84687500e-03,2.26406250e-03,3.92812500e-03
-4.89421250e-07,-3.83125000e-03,2.26718750e-03,3.92500000e-03
-4.89381250e-07,-3.82187500e-03,2.27343750e-03,3.92812500e-03
-4.89341250e-07,-3.82187500e-03,2.28437500e-03,3.93750000e-03
-4.89301250e-07,-3.82500000e-03,2.29843750e-03,3.95000000e-03
-4.89261250e-07,-3.83125000e-03,2.31718750e-03,3.96875000e-03
-4.89221250e-07,-3.84375000e-03,2.33750000e-03,3.99062500e-03
-4.89181250e-07,-3.85937500e-03,2.36093750e-03,4.01562500e-03
-4.89141250e-07,-3.87812500e-03,2.38281250e-03,4.04062500e-03
-4.89101250e-07,-3.89687500e-03,2.40625000e-03,4.06562500e-03
-4.89061250e-07,-3.91250000e-03,2.42656250e-03,4.08437500e-03
-4.89021250e-07,-3.92812500e-03,2.44218750e-03,4.10000000e-03
-4.88981250e-07,-3.94375000e-03,2.45468750e-03,4.10937500e-03
-4.88941250e-07,-3.95000000e-03,2.45937500e-03,4.10937500e-03
-4.88901250e-07,-3.95625000e-03,2.45781250e-03,4.10000000e-03
-4.88861250e-07,-3.95625000e-03,2.44687500e-03,4.08437500e-03
-4.88821250e-07,-3.95312500e-03,2.42812500e-03,4.05625000e-03
-4.88781250e-07,-3.94375000e-03,2.40000000e-03,4.02187500e-03
-4.88741250e-07,-3.92812500e-03,2.36093750e-03,3.97812500e-03
-4.88701250e-07,-3.91250000e-03,2.31406250e-03,3.93125000e-03
-4.88661250e-07,-3.89062500e-03,2.25937500e-03,3.87812500e-03
-4.88621250e-07,-3.86562500e-03,2.19687500e-03,3.82500000e-03
-4.88581250e-07,-3.83750000e-03,2.12812500e-03,3.77500000e-03
-4.88541250e-07,-3.81250000e-03,2.05468750e-03,3.72500000e-03
-4.88501250e-07,-3.78437500e-03,1.97656250e-03,3.68437500e-03
-4.88461250e-07,-3.75625000e-03,1.89843750e-03,3.65000000e-03
-4.88421250e-07,-3.73125000e-03,1.82031250e-03,3.62812500e-03
-4.88381250e-07,-3.70625000e-03,1.74531250e-03,3.61875000e-03
-4.88341250e-07,-3.68437500e-03,1.67187500e-03,3.61875000e-03
-4.88301250e-07,-3.66875000e-03,1.60468750e-03,3.63437500e-03
-4.88261250e-07,-3.65625000e-03,1.54375000e-03,3.65937500e-03
-4.88221250e-07,-3.64687500e-03,1.49062500e-03,3.70000000e-03
-4.88181250e-07,-3.64375000e-03,1.44687500e-03,3.74687500e-03
-4.88141250e-07,-3.64375000e-03,1.41093750e-03,3.80312500e-03
-4.88101250e-07,-3.65000000e-03,1.38437500e-03,3.86562500e-03
-4.88061250e-07,-3.66250000e-03,1.36562500e-03,3.92812500e-03
-4.88021250e-07,-3.68125000e-03,1.35625000e-03,3.99062500e-03
-4.87981250e-07,-3.70312500e-03,1.35468750e-03,4.05000000e-03
-4.87941250e-07,-3.72812500e-03,1.35937500e-03,4.10000000e-03
-4.87901250e-07,-3.75937500e-03,1.37187500e-03,4.14375000e-03
-4.87861250e-07,-3.79375000e-03,1.38750000e-03,4.17812500e-03
-4.87821250e-07,-3.83125000e-03,1.40625000e-03,4.19687500e-03
-4.87781250e-07,-3.87187500e-03,1.42812500e-03,4.20625000e-03
-4.87741250e-07,-3.91250000e-03,1.45000000e-03,4.20000000e-03
-4.87701250e-07,-3.95312500e-03,1.47031250e-03,4.18125000e-03
-4.87661250e-07,-3.99062500e-03,1.49062500e-03,4.15312500e-03
-4.87621250e-07,-4.02812500e-03,1.50781250e-03,4.11250000e-03
-4.87581250e-07,-4.05937500e-03,1.52187500e-03,4.06875000e-03
-4.87541250e-07,-4.08750000e-03,1.53125000e-03,4.01875000e-03
-4.87501250e-07,-4.10937500e-03,1.53750000e-03,3.96562500e-03
-4.87461250e-07,-4.12812500e-03,1.54062500e-03,3.91562500e-03
-4.87421250e-07,-4.13437500e-03,1.53906250e-03,3.86875000e-03
-4.87381250e-07,-4.13437500e-03,1.53593750e-03,3.83125000e-03
-4.87341250e-07,-4.12812500e-03,1.52968750e-03,3.80000000e-03
-4.87301250e-07,-4.11250000e-03,1.52343750e-03,3.78125000e-03
-4.87261250e-07,-4.08750000e-03,1.51718750e-03,3.77812500e-03
-4.87221250e-07,-4.05625000e-03,1.51093750e-03,3.78437500e-03
-4.87181250e-07,-4.01562500e-03,1.50781250e-03,3.80625000e-03
-4.87141250e-07,-3.96875000e-03,1.50937500e-03,3.84062500e-03
-4.87101250e-07,-3.91875000e-03,1.51562500e-03,3.88437500e-03
-4.87061250e-07,-3.86250000e-03,1.52812500e-03,3.94062500e-03
-4.87021250e-07,-3.80312500e-03,1.54687500e-03,4.00625000e-03
-4.86981250e-07,-3.74062500e-03,1.57343750e-03,4.07500000e-03
-4.86941250e-07,-3.68125000e-03,1.60625000e-03,4.14375000e-03
-4.86901250e-07,-3.61875000e-03,1.64843750e-03,4.21562500e-03
-4.86861250e-07,-3.55937500e-03,1.69687500e-03,4.28437500e-03
-4.86821250e-07,-3.50312500e-03,1.75156250e-03,4.34687500e-03
-4.86781250e-07,-3.45000000e-03,1.81093750e-03,4.40312500e-03
-4.86741250e-07,-3.40000000e-03,1.87656250e-03,4.45000000e-03
-4.86701250e-07,-3.35312500e-03,1.94375000e-03,4.48437500e-03
-4.86661250e-07,-3.31250000e-03,2.01250000e-03,4.50937500e-03
-4.86621250e-07,-3.27500000e-03,2.07968750e-03,4.52187500e-03
-4.86581250e-07,-3.24062500e-03,2.14531250e-03,4.52500000e-03
-4.86541250e-07,-3.21250000e-03,2.20625000e-03,4.51875000e-03
-4.86501250e-07,-3.18125000e-03,2.26250000e-03,4.50000000e-03
-4.86461250e-07,-3.15625000e-03,2.31093750e-03,4.47500000e-03
-4.86421250e-07,-3.13125000e-03,2.35156250e-03,4.44375000e-03
-4.86381250e-07,-3.10625000e-03,2.38437500e-03,4.40625000e-03
-4.86341250e-07,-3.08125000e-03,2.40625000e-03,4.36875000e-03
-4.86301250e-07,-3.05312500e-03,2.41875000e-03,4.32812500e-03
-4.86261250e-07,-3.02812500e-03,2.42343750e-03,4.29062500e-03
-4.86221250e-07,-3.00000000e-03,2.41875000e-03,4.25312500e-03
-4.86181250e-07,-2.97500000e-03,2.40781250e-03,4.21875000e-03
-4.86141250e-07,-2.94687500e-03,2.39062500e-03,4.19062500e-03
-4.86101250e-07,-2.91875000e-03,2.37031250e-03,4.16562500e-03
-4.86061250e-07,-2.89375000e-03,2.34687500e-03,4.14375000e-03
-4.86021250e-07,-2.87187500e-03,2.32343750e-03,4.12812500e-03
-4.85981250e-07,-2.85312500e-03,2.30156250e-03,4.11562500e-03
-4.85941250e-07,-2.83750000e-03,2.28281250e-03,4.10312500e-03
-4.85901250e-07,-2.82812500e-03,2.26875000e-03,4.09687500e-03
-4.85861250e-07,-2.82500000e-03,2.26093750e-03,4.09062500e-03
-4.85821250e-07,-2.82812500e-03,2.26093750e-03,4.08437500e-03
-4.85781250e-07,-2.84062500e-03,2.26875000e-03,4.07812500e-03
-4.85741250e-07,-2.85937500e-03,2.28437500e-03,4.07187500e-03
-4.85701250e-07,-2.88437500e-03,2.30781250e-03,4.06562500e-03
-4.85661250e-07,-2.91562500e-03,2.33750000e-03,4.05625000e-03
-4.85621250e-07,-2.95625000e-03,2.37500000e-03,4.04375000e-03
-4.85581250e-07,-3.00000000e-03,2.41718750e-03,4.03125000e-03
-4.85541250e-07,-3.04687500e-03,2.46406250e-03,4.01875000e-03
-4.85501250e-07,-3.09687500e-03,2.51250000e-03,4.00312500e-03
-4.85461250e-07,-3.14687500e-03,2.56250000e-03,3.99062500e-03
-4.85421250e-07,-3.19687500e-03,2.61406250e-03,3.97500000e-03
-4.85381250e-07,-3.24375000e-03,2.66406250e-03,3.96250000e-03
-4.85341250e-07,-3.28125000e-03,2.71406250e-03,3.95312500e-03
-4.85301250e-07,-3.31562500e-03,2.76093750e-03,3.94375000e-03
-4.85261250e-07,-3.34062500e-03,2.80781250e-03,3.93750000e-03
-4.85221250e-07,-3.35312500e-03,2.85468750e-03,3.93750000e-03
-4.85181250e-07,-3.35625000e-03,2.90156250e-03,3.93750000e-03
-4.85141250e-07,-3.34687500e-03,2.94843750e-03,3.94375000e-03
-4.85101250e-07,-3.32500000e-03,3.00000000e-03,3.95000000e-03
-4.85061250e-07,-3.29062500e-03,3.05625000e-03,3.96250000e-03
-4.85021250e-07,-3.24687500e-03,3.11875000e-03,3.97500000e-03
-4.84981250e-07,-3.18750000e-03,3.18750000e-03,3.99062500e-03
-4.84941250e-07,-3.11875000e-03,3.26718750e-03,4.00625000e-03
-4.84901250e-07,-3.04062500e-03,3.35625000e-03,4.02187500e-03
-4.84861250e-07,-2.95625000e-03,3.45468750e-03,4.03437500e-03
-4.84821250e-07,-2.86562500e-03,3.56250000e-03,4.04687500e-03
-4.84781250e-07,-2.77187500e-03,3.67968750e-03,4.05625000e-03
-4.84741250e-07,-2.67812500e-03,3.80312500e-03,4.06562500e-03
-4.84701250e-07,-2.58437500e-03,3.92968750e-03,4.06875000e-03
-4.84661250e-07,-2.49375000e-03,4.05625000e-03,4.06875000e-03
-4.84621250e-07,-2.40625000e-03,4.17812500e-03,4.06250000e-03
-4.84581250e-07,-2.32812500e-03,4.29218750e-03,4.05625000e-03
-4.84541250e-07,-2.25937500e-03,4.39218750e-03,4.04375000e-03
-4.84501250e-07,-2.20000000e-03,4.47500000e-03,4.02812500e-03
-4.84461250e-07,-2.15000000e-03,4.53281250e-03,4.00937500e-03
-4.84421250e-07,-2.11250000e-03,4.56406250e-03,3.98750000e-03
-4.84381250e-07,-2.08750000e-03,4.56250000e-03,3.96250000e-03
-4.84341250e-07,-2.07187500e-03,4.52500000e-03,3.93750000e-03
-4.84301250e-07,-2.06875000e-03,4.45156250e-03,3.91250000e-03
-4.84261250e-07,-2.07812500e-03,4.34062500e-03,3.88437500e-03
-4.84221250e-07,-2.09375000e-03,4.19062500e-03,3.85937500e-03
-4.84181250e-07,-2.11562500e-03,4.00468750e-03,3.83437500e-03
-4.84141250e-07,-2.14687500e-03,3.78593750e-03,3.80937500e-03
-4.84101250e-07,-2.17812500e-03,3.53906250e-03,3.78437500e-03
-4.84061250e-07,-2.21250000e-03,3.26718750e-03,3.76250000e-03
-4.84021250e-07,-2.24375000e-03,2.97656250e-03,3.74375000e-03
-4.83981250e-07,-2.27500000e-03,2.67656250e-03,3.72500000e-03
-4.83941250e-07,-2.29687500e-03,2.37343750e-03,3.70937500e-03
-4.83901250e-07,-2.31562500e-03,2.07343750e-03,3.69375000e-03
-4.83861250e-07,-2.32500000e-03,1.78593750e-03,3.68437500e-03
-4.83821250e-07,-2.32187500e-03,1.51562500e-03,3.67500000e-03
-4.83781250e-07,-2.30937500e-03,1.26875000e-03,3.66562500e-03
-4.83741250e-07,-2.28750000e-03,1.05312500e-03,3.66250000e-03
-4.83701250e-07,-2.25312500e-03,8.68750000e-04,3.66250000e-03
-4.83661250e-07,-2.20937500e-03,7.21875000e-04,3.66250000e-03
-4.83621250e-07,-2.15312500e-03,6.10937500e-04,3.66875000e-03
-4.83581250e-07,-2.09062500e-03,5.37500000e-04,3.67500000e-03
-4.83541250e-07,-2.01875000e-03,5.01562500e-04,3.68750000e-03
-4.83501250e-07,-1.94375000e-03,4.98437500e-04,3.70000000e-03
-4.83461250e-07,-1.86562500e-03,5.25000000e-04,3.71875000e-03
-4.83421250e-07,-1.78750000e-03,5.78125000e-04,3.74062500e-03
-4.83381250e-07,-1.71250000e-03,6.53125000e-04,3.76562500e-03
-4.83341250e-07,-1.64062500e-03,7.46875000e-04,3.79062500e-03
-4.83301250e-07,-1.57812500e-03,8.51562500e-04,3.82187500e-03
-4.83261250e-07,-1.52187500e-03,9.64062500e-04,3.85000000e-03
-4.83221250e-07,-1.47812500e-03,1.08125000e-03,3.88125000e-03
-4.83181250e-07,-1.44687500e-03,1.19843750e-03,3.91250000e-03
-4.83141250e-07,-1.42500000e-03,1.31562500e-03,3.94375000e-03
-4.83101250e-07,-1.41875000e-03,1.43125000e-03,3.97187500e-03
-4.83061250e-07,-1.42500000e-03,1.54375000e-03,4.00000000e-03
-4.83021250e-07,-1.44375000e-03,1.65468750e-03,4.02187500e-03
-4.82981250e-07,-1.47187500e-03,1.76406250e-03,4.04375000e-03
-4.82941250e-07,-1.50937500e-03,1.87656250e-03,4.05625000e-03
-4.82901250e-07,-1.55312500e-03,1.99218750e-03,4.06875000e-03
-4.82861250e-07,-1.60312500e-03,2.11250000e-03,4.07187500e-03
-4.82821250e-07,-1.65312500e-03,2.24218750e-03,4.07187500e-03
-4.82781250e-07,-1.70312500e-03,2.38281250e-03,4.06875000e-03
-4.82741250e-07,-1.75312500e-03,2.53437500e-03,4.05937500e-03
-4.82701250e-07,-1.79687500e-03,2.70000000e-03,4.04687500e-03
-4.82661250e-07,-1.83125000e-03,2.87656250e-03,4.03437500e-03
-4.82621250e-07,-1.85937500e-03,3.06250000e-03,4.01562500e-03
-4.82581250e-07,-1.87500000e-03,3.25781250e-03,3.99687500e-03
-4.82541250e-07,-1.88125000e-03,3.45781250e-03,3.98125000e-03
-4.82501250e-07,-1.87500000e-03,3.65781250e-03,3.96250000e-03
-4.82461250e-07,-1.85937500e-03,3.85312500e-03,3.95000000e-03
-4.82421250e-07,-1.83437500e-03,4.03906250e-03,3.93750000e-03
-4.82381250e-07,-1.80000000e-03,4.20781250e-03,3.93125000e-03
-4.82341250e-07,-1.75937500e-03,4.35625000e-03,3.92812500e-03
-4.82301250e-07,-1.71562500e-03,4.47656250e-03,3.92812500e-03
-4.82261250e-07,-1.66875000e-03,4.56562500e-03,3.93750000e-03
-4.82221250e-07,-1.61875000e-03,4.61718750e-03,3.94687500e-03
-4.82181250e-07,-1.57500000e-03,4.63125000e-03,3.96562500e-03
-4.82141250e-07,-1.53437500e-03,4.60468750e-03,3.98437500e-03
-4.82101250e-07,-1.50000000e-03,4.53593750e-03,4.00937500e-03
-4.82061250e-07,-1.47500000e-03,4.42968750e-03,4.03750000e-03
-4.82021250e-07,-1.45625000e-03,4.28593750e-03,4.06562500e-03
-4.81981250e-07,-1.45000000e-03,4.10937500e-03,4.09375000e-03
-4.81941250e-07,-1.45312500e-03,3.90468750e-03,4.12187500e-03
-4.81901250e-07,-1.46562500e-03,3.67812500e-03,4.15000000e-03
-4.81861250e-07,-1.48437500e-03,3.43750000e-03,4.17500000e-03
-4.81821250e-07,-1.51250000e-03,3.18593750e-03,4.19375000e-03
-4.81781250e-07,-1.54375000e-03,2.93437500e-03,4.21250000e-03
-4.81741250e-07,-1.57812500e-03,2.68750000e-03,4.22500000e-03
-4.81701250e-07,-1.61250000e-03,2.45000000e-03,4.23125000e-03
-4.81661250e-07,-1.64687500e-03,2.23125000e-03,4.23437500e-03
-4.81621250e-07,-1.67812500e-03,2.03281250e-03,4.23125000e-03
-4.81581250e-07,-1.70000000e-03,1.85781250e-03,4.22187500e-03
-4.81541250e-07,-1.71562500e-03,1.70937500e-03,4.20937500e-03
-4.81501250e-07,-1.72187500e-03,1.58750000e-03,4.19062500e-03
-4.81461250e-07,-1.71875000e-03,1.49375000e-03,4.16875000e-03
-4.81421250e-07,-1.70312500e-03,1.42343750e-03,4.14375000e-03
-4.81381250e-07,-1.67500000e-03,1.37812500e-03,4.11875000e-03
-4.81341250e-07,-1.64062500e-03,1.35468750e-03,4.09062500e-03
-4.81301250e-07,-1.59375000e-03,1.34687500e-03,4.05937500e-03
-4.81261250e-07,-1.54062500e-03,1.35312500e-03,4.02812500e-03
-4.81221250e-07,-1.48437500e-03,1.37031250e-03,4.00000000e-03
-4.81181250e-07,-1.42187500e-03,1.39531250e-03,3.97187500e-03
-4.81141250e-07,-1.36250000e-03,1.42656250e-03,3.94375000e-03
-4.81101250e-07,-1.30312500e-03,1.45781250e-03,3.91875000e-03
-4.81061250e-07,-1.24687500e-03,1.49218750e-03,3.89375000e-03
-4.81021250e-07,-1.20000000e-03,1.52656250e-03,3.87500000e-03
-4.80981250e-07,-1.16250000e-03,1.56250000e-03,3.85625000e-03
-4.80941250e-07,-1.13437500e-03,1.59843750e-03,3.84062500e-03
-4.80901250e-07,-1.11875000e-03,1.63906250e-03,3.83125000e-03
-4.80861250e-07,-1.11562500e-03,1.68125000e-03,3.82187500e-03
-4.80821250e-07,-1.12500000e-03,1.73125000e-03,3.81875000e-03
-4.80781250e-07,-1.14687500e-03,1.78750000e-03,3.81875000e-03
-4.80741250e-07,-1.17812500e-03,1.85468750e-03,3.82187500e-03
-4.80701250e-07,-1.22187500e-03,1.93281250e-03,3.83125000e-03
-4.80661250e-07,-1.27187500e-03,2.02187500e-03,3.84375000e-03
-4.80621250e-07,-1.32812500e-03,2.12187500e-03,3.85937500e-03
-4.80581250e-07,-1.38750000e-03,2.23437500e-03,3.87812500e-03
-4.80541250e-07,-1.44375000e-03,2.35625000e-03,3.89687500e-03
-4.80501250e-07,-1.50000000e-03,2.48593750e-03,3.92187500e-03
-4.80461250e-07,-1.55000000e-03,2.62343750e-03,3.94687500e-03
-4.80421250e-07,-1.59062500e-03,2.76093750e-03,3.97500000e-03
-4.80381250e-07,-1.62500000e-03,2.90000000e-03,4.00312500e-03
-4.80341250e-07,-1.64375000e-03,3.03281250e-03,4.02812500e-03
-4.80301250e-07,-1.65000000e-03,3.15781250e-03,4.05625000e-03
-4.80261250e-07,-1.64062500e-03,3.27187500e-03,4.07812500e-03
-4.80221250e-07,-1.61875000e-03,3.37031250e-03,4.09687500e-03
-4.80181250e-07,-1.58125000e-03,3.45156250e-03,4.10937500e-03
-4.80141250e-07,-1.53125000e-03,3.51250000e-03,4.11875000e-03
-4.80101250e-07,-1.46875000e-03,3.55312500e-03,4.11875000e-03
-4.80061250e-07,-1.39375000e-03,3.57187500e-03,4.11250000e-03
-4.80021250e-07,-1.30937500e-03,3.57031250e-03,4.10000000e-03
-4.79981250e-07,-1.21562500e-03,3.54843750e-03,4.08125000e-03
-4.79941250e-07,-1.11875000e-03,3.50937500e-03,4.05312500e-03
-4.79901250e-07,-1.01562500e-03,3.45625000e-03,4.01875000e-03
-4.79861250e-07,-9.12500000e-04,3.38906250e-03,3.98125000e-03
-4.79821250e-07,-8.12500000e-04,3.31406250e-03,3.93437500e-03
-4.79781250e-07,-7.12500000e-04,3.23125000e-03,3.88750000e-03
-4.79741250e-07,-6.15625000e-04,3.14687500e-03,3.83750000e-03
-4.79701250e-07,-5.21875000e-04,3.06250000e-03,3.78750000e-03
-4.79661250e-07,-4.37500000e-04,2.98125000e-03,3.73750000e-03
-4.79621250e-07,-3.59375000e-04,2.90468750e-03,3.69062500e-03
-4.79581250e-07,-2.84375000e-04,2.83437500e-03,3.65000000e-03
-4.79541250e-07,-2.18750000e-04,2.77187500e-03,3.61562500e-03
-4.79501250e-07,-1.59375000e-04,2.71562500e-03,3.59062500e-03
-4.79461250e-07,-1.06250000e-04,2.66718750e-03,3.57187500e-03
-4.79421250e-07,-5.93750000e-05,2.62500000e-03,3.56562500e-03
-4.79381250e-07,-1.87500000e-05,2.58906250e-03,3.56562500e-03
-4.79341250e-07,2.18750000e-05,2.55625000e-03,3.57812500e-03
-4.79301250e-07,5.62500000e-05,2.52500000e-03,3.60000000e-03
-4.79261250e-07,8.75000000e-05,2.49687500e-03,3.63125000e-03
-4.79221250e-07,1.18750000e-04,2.46718750e-03,3.66875000e-03
-4.79181250e-07,1.46875000e-04,2.43593750e-03,3.71250000e-03
-4.79141250e-07,1.75000000e-04,2.40468750e-03,3.75937500e-03
-4.79101250e-07,2.00000000e-04,2.37187500e-03,3.81250000e-03
-4.79061250e-07,2.28125000e-04,2.33750000e-03,3.86250000e-03
-4.79021250e-07,2.53125000e-04,2.30312500e-03,3.91250000e-03
-4.78981250e-07,2.81250000e-04,2.26875000e-03,3.96250000e-03
-4.78941250e-07,3.06250000e-04,2.23750000e-03,4.00312500e-03
-4.78901250e-07,3.31250000e-04,2.21093750e-03,4.04062500e-03
-4.78861250e-07,3.56250000e-04,2.19062500e-03,4.07187500e-03
-4.78821250e-07,3.81250000e-04,2.17812500e-03,4.09375000e-03
-4.78781250e-07,4.06250000e-04,2.17656250e-03,4.10937500e-03
-4.78741250e-07,4.31250000e-04,2.18437500e-03,4.11562500e-03
-4.78701250e-07,4.56250000e-04,2.20468750e-03,4.11562500e-03
-4.78661250e-07,4.81250000e-04,2.23750000e-03,4.10625000e-03
-4.78621250e-07,5.06250000e-04,2.28281250e-03,4.09375000e-03
-4.78581250e-07,5.31250000e-04,2.33906250e-03,4.07500000e-03
-4.78541250e-07,5.56250000e-04,2.40468750e-03,4.05312500e-03
-4.78501250e-07,5.84375000e-04,2.47812500e-03,4.03125000e-03
-4.78461250e-07,6.12500000e-04,2.55937500e-03,4.00937500e-03
-4.78421250e-07,6.43750000e-04,2.64218750e-03,3.98750000e-03
-4.78381250e-07,6.78125000e-04,2.72500000e-03,3.96562500e-03
-4.78341250e-07,7.12500000e-04,2.80781250e-03,3.95000000e-03
-4.78301250e-07,7.50000000e-04,2.88437500e-03,3.93750000e-03
-4.78261250e-07,7.90625000e-04,2.95312500e-03,3.93125000e-03
-4.78221250e-07,8.31250000e-04,3.01250000e-03,3.92812500e-03
-4.78181250e-07,8.75000000e-04,3.06250000e-03,3.93125000e-03
-4.78141250e-07,9.21875000e-04,3.10156250e-03,3.94062500e-03
-4.78101250e-07,9.65625000e-04,3.12656250e-03,3.95000000e-03
-4.78061250e-07,1.01562500e-03,3.14218750e-03,3.96562500e-03
-4.78021250e-07,1.06250000e-03,3.14531250e-03,3.98125000e-03
-4.77981250e-07,1.10937500e-03,3.14062500e-03,3.99687500e-03
-4.77941250e-07,1.15625000e-03,3.12812500e-03,4.01250000e-03
-4.77901250e-07,1.20000000e-03,3.11093750e-03,4.02812500e-03
-4.77861250e-07,1.24375000e-03,3.08906250e-03,4.04062500e-03
-4.77821250e-07,1.28750000e-03,3.06718750e-03,4.05312500e-03
-4.77781250e-07,1.32812500e-03,3.04687500e-03,4.05625000e-03
-4.77741250e-07,1.36562500e-03,3.02812500e-03,4.05937500e-03
-4.77701250e-07,1.40312500e-03,3.01406250e-03,4.05625000e-03
-4.77661250e-07,1.44062500e-03,3.00468750e-03,4.05312500e-03
-4.77621250e-07,1.47812500e-03,3.00000000e-03,4.04062500e-03
-4.77581250e-07,1.51250000e-03,3.00156250e-03,4.02812500e-03
