transmissionlines/BB5data/amplicsv/ampli_ALL_20250709080339365.csv

Model,MSO64
Channel,CH1,,Channel,CH2,,Channel,CH3
Label,,,Label,,,Label,
Waveform Type,ANALOG,,Waveform Type,ANALOG,,Waveform Type,ANALOG
Digital Type,None,,Digital Type,None,,Digital Type,None
Horizontal Units,s,,Horizontal Units,s,,Horizontal Units,s
Sample Interval,4.00000000e-11,,Sample Interval,4.00000000e-11,,Sample Interval,4.00000000e-11
Record Length,25000,,Record Length,25000,,Record Length,25000
Zero Index,12249.53125000,,Zero Index,12249.53125000,,Zero Index,12249.53125000
Vertical Units,V,,Vertical Units,V,,Vertical Units,V
,,,,,,,
ANALOG_Thumbnail,,,ANALOG_Thumbnail,,,ANALOG_Thumbnail,
yOffset,0.000000,,yOffset,0.000000,,yOffset,0.000000
yPosition,-0.680000,,yPosition,-2.140000,,yPosition,0.000000

Labels,,,
TIME,CH1,CH2,CH3
-4.89981250e-07,1.02875000e-02,3.27343750e-03,1.39687500e-03
-4.89941250e-07,1.02781250e-02,3.23906250e-03,1.22812500e-03
-4.89901250e-07,1.02687500e-02,3.20625000e-03,1.08750000e-03
-4.89861250e-07,1.02593750e-02,3.17968750e-03,9.71875000e-04
-4.89821250e-07,1.02500000e-02,3.15937500e-03,8.84375000e-04
-4.89781250e-07,1.02406250e-02,3.14531250e-03,8.21875000e-04
-4.89741250e-07,1.02281250e-02,3.13906250e-03,7.90625000e-04
-4.89701250e-07,1.02156250e-02,3.14062500e-03,7.81250000e-04
-4.89661250e-07,1.02000000e-02,3.14843750e-03,8.03125000e-04
-4.89621250e-07,1.01781250e-02,3.16250000e-03,8.53125000e-04
-4.89581250e-07,1.01562500e-02,3.18125000e-03,9.31250000e-04
-4.89541250e-07,1.01312500e-02,3.20312500e-03,1.03750000e-03
-4.89501250e-07,1.01062500e-02,3.22812500e-03,1.17187500e-03
-4.89461250e-07,1.00781250e-02,3.25312500e-03,1.33437500e-03
-4.89421250e-07,1.00500000e-02,3.27656250e-03,1.52187500e-03
-4.89381250e-07,1.00187500e-02,3.29843750e-03,1.73437500e-03
-4.89341250e-07,9.99062500e-03,3.31562500e-03,1.96875000e-03
-4.89301250e-07,9.96562500e-03,3.32812500e-03,2.22500000e-03
-4.89261250e-07,9.94062500e-03,3.33437500e-03,2.49687500e-03
-4.89221250e-07,9.91875000e-03,3.33281250e-03,2.78437500e-03
-4.89181250e-07,9.90000000e-03,3.32656250e-03,3.08125000e-03
-4.89141250e-07,9.88437500e-03,3.31406250e-03,3.38125000e-03
-4.89101250e-07,9.87187500e-03,3.29687500e-03,3.68750000e-03
-4.89061250e-07,9.86250000e-03,3.27500000e-03,3.98750000e-03
-4.89021250e-07,9.85625000e-03,3.25000000e-03,4.28125000e-03
-4.88981250e-07,9.85000000e-03,3.22500000e-03,4.55937500e-03
-4.88941250e-07,9.84375000e-03,3.19843750e-03,4.82187500e-03
-4.88901250e-07,9.84062500e-03,3.17500000e-03,5.06562500e-03
-4.88861250e-07,9.83437500e-03,3.15625000e-03,5.28125000e-03
-4.88821250e-07,9.82812500e-03,3.14062500e-03,5.46875000e-03
-4.88781250e-07,9.81875000e-03,3.13281250e-03,5.62812500e-03
-4.88741250e-07,9.80625000e-03,3.13125000e-03,5.75000000e-03
-4.88701250e-07,9.79062500e-03,3.13906250e-03,5.84062500e-03
-4.88661250e-07,9.77187500e-03,3.15312500e-03,5.89062500e-03
-4.88621250e-07,9.74687500e-03,3.17500000e-03,5.90937500e-03
-4.88581250e-07,9.72187500e-03,3.20312500e-03,5.88750000e-03
-4.88541250e-07,9.69062500e-03,3.23750000e-03,5.83437500e-03
-4.88501250e-07,9.65937500e-03,3.27656250e-03,5.74375000e-03
-4.88461250e-07,9.62500000e-03,3.31718750e-03,5.62500000e-03
-4.88421250e-07,9.59375000e-03,3.35937500e-03,5.47500000e-03
-4.88381250e-07,9.55937500e-03,3.40000000e-03,5.30000000e-03
-4.88341250e-07,9.52812500e-03,3.43750000e-03,5.10000000e-03
-4.88301250e-07,9.50312500e-03,3.47031250e-03,4.88125000e-03
-4.88261250e-07,9.47812500e-03,3.49843750e-03,4.64687500e-03
-4.88221250e-07,9.45937500e-03,3.51718750e-03,4.40000000e-03
-4.88181250e-07,9.44687500e-03,3.52968750e-03,4.14687500e-03
-4.88141250e-07,9.44062500e-03,3.53437500e-03,3.88437500e-03
-4.88101250e-07,9.44375000e-03,3.52968750e-03,3.62500000e-03
-4.88061250e-07,9.45000000e-03,3.51875000e-03,3.36562500e-03
-4.88021250e-07,9.46562500e-03,3.50000000e-03,3.11562500e-03
-4.87981250e-07,9.48437500e-03,3.47656250e-03,2.87187500e-03
-4.87941250e-07,9.50937500e-03,3.44843750e-03,2.64375000e-03
-4.87901250e-07,9.54062500e-03,3.41875000e-03,2.43125000e-03
-4.87861250e-07,9.57500000e-03,3.38750000e-03,2.23750000e-03
-4.87821250e-07,9.61250000e-03,3.35625000e-03,2.06562500e-03
-4.87781250e-07,9.65312500e-03,3.32968750e-03,1.91875000e-03
-4.87741250e-07,9.69375000e-03,3.30625000e-03,1.79687500e-03
-4.87701250e-07,9.73437500e-03,3.28750000e-03,1.70312500e-03
-4.87661250e-07,9.77500000e-03,3.27500000e-03,1.63750000e-03
-4.87621250e-07,9.81562500e-03,3.26875000e-03,1.60000000e-03
-4.87581250e-07,9.85312500e-03,3.26718750e-03,1.59375000e-03
-4.87541250e-07,9.88750000e-03,3.27343750e-03,1.61250000e-03
-4.87501250e-07,9.91875000e-03,3.28437500e-03,1.66250000e-03
-4.87461250e-07,9.95000000e-03,3.30000000e-03,1.73750000e-03
-4.87421250e-07,9.97500000e-03,3.31875000e-03,1.83437500e-03
-4.87381250e-07,1.00000000e-02,3.33906250e-03,1.95625000e-03
-4.87341250e-07,1.00187500e-02,3.35937500e-03,2.09375000e-03
-4.87301250e-07,1.00343750e-02,3.37656250e-03,2.25000000e-03
-4.87261250e-07,1.00468750e-02,3.39218750e-03,2.42187500e-03
-4.87221250e-07,1.00562500e-02,3.40156250e-03,2.60000000e-03
-4.87181250e-07,1.00625000e-02,3.40781250e-03,2.78750000e-03
-4.87141250e-07,1.00625000e-02,3.40625000e-03,2.97812500e-03
-4.87101250e-07,1.00593750e-02,3.39687500e-03,3.16875000e-03
-4.87061250e-07,1.00500000e-02,3.38281250e-03,3.35937500e-03
-4.87021250e-07,1.00343750e-02,3.36093750e-03,3.54375000e-03
-4.86981250e-07,1.00156250e-02,3.33281250e-03,3.72187500e-03
-4.86941250e-07,9.99062500e-03,3.30000000e-03,3.89062500e-03
-4.86901250e-07,9.95937500e-03,3.26406250e-03,4.05000000e-03
-4.86861250e-07,9.91875000e-03,3.22500000e-03,4.20000000e-03
-4.86821250e-07,9.87500000e-03,3.18437500e-03,4.33437500e-03
-4.86781250e-07,9.82500000e-03,3.14531250e-03,4.46250000e-03
-4.86741250e-07,9.77187500e-03,3.10781250e-03,4.57500000e-03
-4.86701250e-07,9.71250000e-03,3.07500000e-03,4.67812500e-03
-4.86661250e-07,9.65000000e-03,3.04531250e-03,4.76875000e-03
-4.86621250e-07,9.58437500e-03,3.02343750e-03,4.85000000e-03
-4.86581250e-07,9.51875000e-03,3.00625000e-03,4.92187500e-03
-4.86541250e-07,9.45312500e-03,2.99843750e-03,4.98125000e-03
-4.86501250e-07,9.39062500e-03,2.99687500e-03,5.03125000e-03
-4.86461250e-07,9.33125000e-03,3.00312500e-03,5.07500000e-03
-4.86421250e-07,9.27500000e-03,3.01562500e-03,5.10625000e-03
-4.86381250e-07,9.22187500e-03,3.03437500e-03,5.12500000e-03
-4.86341250e-07,9.17812500e-03,3.05781250e-03,5.13750000e-03
-4.86301250e-07,9.14062500e-03,3.08593750e-03,5.13437500e-03
-4.86261250e-07,9.11250000e-03,3.11562500e-03,5.12187500e-03
-4.86221250e-07,9.09062500e-03,3.14843750e-03,5.09375000e-03
-4.86181250e-07,9.07500000e-03,3.18125000e-03,5.05000000e-03
-4.86141250e-07,9.06562500e-03,3.21250000e-03,4.99062500e-03
-4.86101250e-07,9.06250000e-03,3.24218750e-03,4.91875000e-03
-4.86061250e-07,9.06562500e-03,3.26875000e-03,4.82500000e-03
-4.86021250e-07,9.07187500e-03,3.29218750e-03,4.71875000e-03
-4.85981250e-07,9.07812500e-03,3.31093750e-03,4.59375000e-03
-4.85941250e-07,9.08750000e-03,3.32656250e-03,4.45312500e-03
-4.85901250e-07,9.09375000e-03,3.33593750e-03,4.29687500e-03
-4.85861250e-07,9.09687500e-03,3.34062500e-03,4.12812500e-03
-4.85821250e-07,9.09687500e-03,3.34218750e-03,3.95000000e-03
-4.85781250e-07,9.09062500e-03,3.33906250e-03,3.75937500e-03
-4.85741250e-07,9.08125000e-03,3.33281250e-03,3.56875000e-03
-4.85701250e-07,9.06250000e-03,3.32343750e-03,3.37187500e-03
-4.85661250e-07,9.03750000e-03,3.31250000e-03,3.17812500e-03
-4.85621250e-07,9.00937500e-03,3.29843750e-03,2.98750000e-03
-4.85581250e-07,8.97500000e-03,3.28593750e-03,2.80937500e-03
-4.85541250e-07,8.93437500e-03,3.27187500e-03,2.64062500e-03
-4.85501250e-07,8.89062500e-03,3.25781250e-03,2.48750000e-03
-4.85461250e-07,8.84687500e-03,3.24687500e-03,2.35312500e-03
-4.85421250e-07,8.80312500e-03,3.23593750e-03,2.24062500e-03
-4.85381250e-07,8.75937500e-03,3.22656250e-03,2.15000000e-03
-4.85341250e-07,8.72187500e-03,3.22031250e-03,2.08437500e-03
-4.85301250e-07,8.68750000e-03,3.21718750e-03,2.04375000e-03
-4.85261250e-07,8.65625000e-03,3.21562500e-03,2.02812500e-03
-4.85221250e-07,8.63750000e-03,3.21718750e-03,2.03750000e-03
-4.85181250e-07,8.62187500e-03,3.22031250e-03,2.07500000e-03
-4.85141250e-07,8.61562500e-03,3.22656250e-03,2.13125000e-03
-4.85101250e-07,8.61875000e-03,3.23437500e-03,2.21250000e-03
-4.85061250e-07,8.62500000e-03,3.24531250e-03,2.31250000e-03
-4.85021250e-07,8.64062500e-03,3.25625000e-03,2.42812500e-03
-4.84981250e-07,8.66250000e-03,3.26875000e-03,2.55937500e-03
-4.84941250e-07,8.68750000e-03,3.28125000e-03,2.70312500e-03
-4.84901250e-07,8.71250000e-03,3.29375000e-03,2.85625000e-03
-4.84861250e-07,8.74062500e-03,3.30781250e-03,3.01562500e-03
-4.84821250e-07,8.76562500e-03,3.32031250e-03,3.17812500e-03
-4.84781250e-07,8.78750000e-03,3.33125000e-03,3.34375000e-03
-4.84741250e-07,8.80312500e-03,3.34218750e-03,3.50625000e-03
-4.84701250e-07,8.81562500e-03,3.35156250e-03,3.66875000e-03
-4.84661250e-07,8.81562500e-03,3.36093750e-03,3.82187500e-03
-4.84621250e-07,8.80937500e-03,3.36718750e-03,3.97187500e-03
-4.84581250e-07,8.79687500e-03,3.37343750e-03,4.11562500e-03
-4.84541250e-07,8.77187500e-03,3.37656250e-03,4.24687500e-03
-4.84501250e-07,8.74062500e-03,3.38125000e-03,4.36875000e-03
-4.84461250e-07,8.70000000e-03,3.38281250e-03,4.48125000e-03
-4.84421250e-07,8.65312500e-03,3.38593750e-03,4.57812500e-03
-4.84381250e-07,8.60312500e-03,3.38750000e-03,4.66562500e-03
-4.84341250e-07,8.55000000e-03,3.38906250e-03,4.73750000e-03
-4.84301250e-07,8.49375000e-03,3.39218750e-03,4.79687500e-03
-4.84261250e-07,8.43750000e-03,3.39531250e-03,4.84062500e-03
-4.84221250e-07,8.38750000e-03,3.40000000e-03,4.86875000e-03
-4.84181250e-07,8.33750000e-03,3.40625000e-03,4.88437500e-03
-4.84141250e-07,8.29375000e-03,3.41406250e-03,4.88125000e-03
-4.84101250e-07,8.25312500e-03,3.42187500e-03,4.86250000e-03
-4.84061250e-07,8.22187500e-03,3.43125000e-03,4.82812500e-03
-4.84021250e-07,8.19687500e-03,3.44218750e-03,4.78125000e-03
-4.83981250e-07,8.17500000e-03,3.45312500e-03,4.71562500e-03
-4.83941250e-07,8.16250000e-03,3.46406250e-03,4.63750000e-03
-4.83901250e-07,8.15312500e-03,3.47500000e-03,4.54687500e-03
-4.83861250e-07,8.14375000e-03,3.48437500e-03,4.44375000e-03
-4.83821250e-07,8.14062500e-03,3.49062500e-03,4.33125000e-03
-4.83781250e-07,8.13125000e-03,3.49687500e-03,4.20937500e-03
-4.83741250e-07,8.12187500e-03,3.49843750e-03,4.07812500e-03
-4.83701250e-07,8.10937500e-03,3.49843750e-03,3.94375000e-03
-4.83661250e-07,8.09062500e-03,3.49375000e-03,3.80625000e-03
-4.83621250e-07,8.06250000e-03,3.48593750e-03,3.66875000e-03
-4.83581250e-07,8.02812500e-03,3.47500000e-03,3.53125000e-03
-4.83541250e-07,7.98437500e-03,3.45937500e-03,3.40000000e-03
-4.83501250e-07,7.93125000e-03,3.44062500e-03,3.27187500e-03
-4.83461250e-07,7.86875000e-03,3.42031250e-03,3.15000000e-03
-4.83421250e-07,7.80000000e-03,3.39843750e-03,3.03750000e-03
-4.83381250e-07,7.72500000e-03,3.37656250e-03,2.93750000e-03
-4.83341250e-07,7.64687500e-03,3.35468750e-03,2.84687500e-03
-4.83301250e-07,7.56875000e-03,3.33281250e-03,2.76875000e-03
-4.83261250e-07,7.49062500e-03,3.31406250e-03,2.70312500e-03
-4.83221250e-07,7.41875000e-03,3.30000000e-03,2.65312500e-03
-4.83181250e-07,7.35312500e-03,3.28906250e-03,2.61562500e-03
-4.83141250e-07,7.30000000e-03,3.28125000e-03,2.59062500e-03
-4.83101250e-07,7.25625000e-03,3.28125000e-03,2.58125000e-03
-4.83061250e-07,7.23125000e-03,3.28437500e-03,2.58125000e-03
-4.83021250e-07,7.21875000e-03,3.29375000e-03,2.59687500e-03
-4.82981250e-07,7.22500000e-03,3.30781250e-03,2.62187500e-03
-4.82941250e-07,7.25000000e-03,3.32656250e-03,2.65937500e-03
-4.82901250e-07,7.29375000e-03,3.34843750e-03,2.70312500e-03
-4.82861250e-07,7.35312500e-03,3.37187500e-03,2.75937500e-03
-4.82821250e-07,7.42500000e-03,3.39531250e-03,2.82187500e-03
-4.82781250e-07,7.50937500e-03,3.42031250e-03,2.89375000e-03
-4.82741250e-07,7.60000000e-03,3.44218750e-03,2.97187500e-03
-4.82701250e-07,7.69687500e-03,3.46093750e-03,3.05312500e-03
-4.82661250e-07,7.79375000e-03,3.47656250e-03,3.14062500e-03
-4.82621250e-07,7.88750000e-03,3.48593750e-03,3.23125000e-03
-4.82581250e-07,7.97500000e-03,3.48906250e-03,3.32500000e-03
-4.82541250e-07,8.05000000e-03,3.48593750e-03,3.42187500e-03
-4.82501250e-07,8.10937500e-03,3.47500000e-03,3.51562500e-03
-4.82461250e-07,8.15312500e-03,3.45937500e-03,3.60937500e-03
-4.82421250e-07,8.17500000e-03,3.43750000e-03,3.70312500e-03
-4.82381250e-07,8.17812500e-03,3.40937500e-03,3.79375000e-03
-4.82341250e-07,8.15937500e-03,3.37812500e-03,3.87812500e-03
-4.82301250e-07,8.11875000e-03,3.34531250e-03,3.95312500e-03
-4.82261250e-07,8.05937500e-03,3.31093750e-03,4.02500000e-03
-4.82221250e-07,7.98125000e-03,3.27656250e-03,4.08437500e-03
-4.82181250e-07,7.89062500e-03,3.24531250e-03,4.13437500e-03
-4.82141250e-07,7.78437500e-03,3.21875000e-03,4.17187500e-03
-4.82101250e-07,7.67187500e-03,3.19531250e-03,4.19687500e-03
-4.82061250e-07,7.55625000e-03,3.17968750e-03,4.20625000e-03
-4.82021250e-07,7.44062500e-03,3.17031250e-03,4.20000000e-03
-4.81981250e-07,7.33125000e-03,3.16875000e-03,4.18125000e-03
-4.81941250e-07,7.23125000e-03,3.17500000e-03,4.15000000e-03
-4.81901250e-07,7.14062500e-03,3.18750000e-03,4.10000000e-03
-4.81861250e-07,7.06562500e-03,3.20781250e-03,4.03750000e-03
-4.81821250e-07,7.00937500e-03,3.23281250e-03,3.96562500e-03
-4.81781250e-07,6.96875000e-03,3.26250000e-03,3.88125000e-03
-4.81741250e-07,6.94687500e-03,3.29687500e-03,3.78750000e-03
-4.81701250e-07,6.94375000e-03,3.33125000e-03,3.68750000e-03
-4.81661250e-07,6.95937500e-03,3.36562500e-03,3.58437500e-03
-4.81621250e-07,6.98750000e-03,3.39843750e-03,3.48125000e-03
-4.81581250e-07,7.02500000e-03,3.42812500e-03,3.37812500e-03
-4.81541250e-07,7.07500000e-03,3.45312500e-03,3.27812500e-03
-4.81501250e-07,7.12812500e-03,3.47343750e-03,3.18125000e-03
-4.81461250e-07,7.18125000e-03,3.48906250e-03,3.09687500e-03
-4.81421250e-07,7.23125000e-03,3.49843750e-03,3.02187500e-03
-4.81381250e-07,7.27812500e-03,3.50156250e-03,2.95937500e-03
-4.81341250e-07,7.31250000e-03,3.50000000e-03,2.90937500e-03
-4.81301250e-07,7.33437500e-03,3.49375000e-03,2.87187500e-03
-4.81261250e-07,7.34375000e-03,3.48593750e-03,2.85000000e-03
-4.81221250e-07,7.34062500e-03,3.47343750e-03,2.84062500e-03
-4.81181250e-07,7.31875000e-03,3.46250000e-03,2.84375000e-03
-4.81141250e-07,7.28125000e-03,3.45156250e-03,2.86250000e-03
-4.81101250e-07,7.23125000e-03,3.44218750e-03,2.88750000e-03
-4.81061250e-07,7.16562500e-03,3.43593750e-03,2.92500000e-03
-4.81021250e-07,7.09375000e-03,3.43281250e-03,2.96875000e-03
-4.80981250e-07,7.01250000e-03,3.43593750e-03,3.01562500e-03
-4.80941250e-07,6.92812500e-03,3.44375000e-03,3.06562500e-03
-4.80901250e-07,6.84375000e-03,3.45625000e-03,3.11875000e-03
-4.80861250e-07,6.76250000e-03,3.47343750e-03,3.16875000e-03
-4.80821250e-07,6.68750000e-03,3.49375000e-03,3.21562500e-03
-4.80781250e-07,6.62187500e-03,3.51718750e-03,3.26250000e-03
-4.80741250e-07,6.56875000e-03,3.54062500e-03,3.30312500e-03
-4.80701250e-07,6.52500000e-03,3.56562500e-03,3.33750000e-03
-4.80661250e-07,6.50000000e-03,3.58750000e-03,3.36875000e-03
-4.80621250e-07,6.48750000e-03,3.60625000e-03,3.39375000e-03
-4.80581250e-07,6.49375000e-03,3.62031250e-03,3.41562500e-03
-4.80541250e-07,6.50937500e-03,3.62812500e-03,3.43750000e-03
-4.80501250e-07,6.54062500e-03,3.62968750e-03,3.45625000e-03
-4.80461250e-07,6.58125000e-03,3.62187500e-03,3.47500000e-03
-4.80421250e-07,6.63125000e-03,3.60625000e-03,3.49375000e-03
-4.80381250e-07,6.68437500e-03,3.58281250e-03,3.51875000e-03
-4.80341250e-07,6.74062500e-03,3.55000000e-03,3.54687500e-03
-4.80301250e-07,6.79687500e-03,3.51250000e-03,3.58125000e-03
-4.80261250e-07,6.85000000e-03,3.46875000e-03,3.62187500e-03
-4.80221250e-07,6.90000000e-03,3.42187500e-03,3.67187500e-03
-4.80181250e-07,6.93750000e-03,3.37187500e-03,3.72812500e-03
-4.80141250e-07,6.96875000e-03,3.32187500e-03,3.78750000e-03
-4.80101250e-07,6.98750000e-03,3.27500000e-03,3.85625000e-03
-4.80061250e-07,6.99687500e-03,3.23125000e-03,3.92812500e-03
-4.80021250e-07,6.99375000e-03,3.19375000e-03,4.00625000e-03
-4.79981250e-07,6.98125000e-03,3.16250000e-03,4.08125000e-03
-4.79941250e-07,6.95937500e-03,3.14062500e-03,4.15625000e-03
-4.79901250e-07,6.92812500e-03,3.12812500e-03,4.22812500e-03
-4.79861250e-07,6.88750000e-03,3.12500000e-03,4.29375000e-03
-4.79821250e-07,6.84687500e-03,3.13125000e-03,4.35000000e-03
-4.79781250e-07,6.80000000e-03,3.14687500e-03,4.39687500e-03
-4.79741250e-07,6.75312500e-03,3.17031250e-03,4.43125000e-03
-4.79701250e-07,6.70625000e-03,3.20000000e-03,4.45312500e-03
-4.79661250e-07,6.66250000e-03,3.23593750e-03,4.45937500e-03
-4.79621250e-07,6.62187500e-03,3.27500000e-03,4.45000000e-03
-4.79581250e-07,6.58750000e-03,3.31406250e-03,4.42812500e-03
-4.79541250e-07,6.55625000e-03,3.35312500e-03,4.38750000e-03
-4.79501250e-07,6.53125000e-03,3.38906250e-03,4.33437500e-03
-4.79461250e-07,6.50937500e-03,3.42187500e-03,4.26875000e-03
-4.79421250e-07,6.49062500e-03,3.44687500e-03,4.19062500e-03
-4.79381250e-07,6.47812500e-03,3.46562500e-03,4.10312500e-03
-4.79341250e-07,6.46250000e-03,3.47500000e-03,4.01250000e-03
-4.79301250e-07,6.45000000e-03,3.47656250e-03,3.91562500e-03
-4.79261250e-07,6.43437500e-03,3.46875000e-03,3.81562500e-03
-4.79221250e-07,6.41875000e-03,3.45312500e-03,3.71875000e-03
-4.79181250e-07,6.39375000e-03,3.42968750e-03,3.62187500e-03
-4.79141250e-07,6.36875000e-03,3.40156250e-03,3.53125000e-03
-4.79101250e-07,6.33437500e-03,3.36718750e-03,3.44687500e-03
-4.79061250e-07,6.29062500e-03,3.32968750e-03,3.37187500e-03
-4.79021250e-07,6.24375000e-03,3.29218750e-03,3.30312500e-03
-4.78981250e-07,6.18750000e-03,3.25468750e-03,3.24687500e-03
-4.78941250e-07,6.12500000e-03,3.22031250e-03,3.19687500e-03
-4.78901250e-07,6.05625000e-03,3.18906250e-03,3.15937500e-03
-4.78861250e-07,5.98437500e-03,3.16406250e-03,3.12812500e-03
-4.78821250e-07,5.90937500e-03,3.14531250e-03,3.10625000e-03
-4.78781250e-07,5.83437500e-03,3.13281250e-03,3.09375000e-03
-4.78741250e-07,5.75937500e-03,3.12656250e-03,3.08437500e-03
-4.78701250e-07,5.68437500e-03,3.12968750e-03,3.08437500e-03
-4.78661250e-07,5.61875000e-03,3.13906250e-03,3.08750000e-03
-4.78621250e-07,5.55625000e-03,3.15468750e-03,3.09687500e-03
-4.78581250e-07,5.50000000e-03,3.17500000e-03,3.10937500e-03
-4.78541250e-07,5.45312500e-03,3.19843750e-03,3.12500000e-03
-4.78501250e-07,5.41562500e-03,3.22656250e-03,3.14375000e-03
-4.78461250e-07,5.39062500e-03,3.25468750e-03,3.16562500e-03
-4.78421250e-07,5.37187500e-03,3.28281250e-03,3.19062500e-03
-4.78381250e-07,5.36250000e-03,3.30781250e-03,3.21875000e-03
-4.78341250e-07,5.36250000e-03,3.33125000e-03,3.25000000e-03
-4.78301250e-07,5.37187500e-03,3.35000000e-03,3.28750000e-03
-4.78261250e-07,5.38437500e-03,3.36562500e-03,3.32812500e-03
-4.78221250e-07,5.40312500e-03,3.37500000e-03,3.37187500e-03
-4.78181250e-07,5.42500000e-03,3.37812500e-03,3.42187500e-03
-4.78141250e-07,5.44375000e-03,3.37812500e-03,3.47500000e-03
-4.78101250e-07,5.46562500e-03,3.37187500e-03,3.53437500e-03
-4.78061250e-07,5.48437500e-03,3.36093750e-03,3.59687500e-03
-4.78021250e-07,5.49687500e-03,3.34687500e-03,3.66250000e-03
-4.77981250e-07,5.50312500e-03,3.33125000e-03,3.73125000e-03
-4.77941250e-07,5.50312500e-03,3.31406250e-03,3.80000000e-03
-4.77901250e-07,5.49375000e-03,3.29531250e-03,3.86562500e-03
-4.77861250e-07,5.47812500e-03,3.27812500e-03,3.93125000e-03
-4.77821250e-07,5.45312500e-03,3.26250000e-03,3.99375000e-03
-4.77781250e-07,5.42187500e-03,3.25000000e-03,4.05000000e-03
-4.77741250e-07,5.38125000e-03,3.24062500e-03,4.10000000e-03
-4.77701250e-07,5.33437500e-03,3.23437500e-03,4.14062500e-03
-4.77661250e-07,5.28437500e-03,3.23125000e-03,4.17500000e-03
-4.77621250e-07,5.22812500e-03,3.23125000e-03,4.19687500e-03
-4.77581250e-07,5.16875000e-03,3.23593750e-03,4.20625000e-03
-4.77541250e-07,5.10937500e-03,3.24218750e-03,4.20625000e-03
-4.77501250e-07,5.05000000e-03,3.25156250e-03,4.19687500e-03
-4.77461250e-07,4.99062500e-03,3.26093750e-03,4.17500000e-03
-4.77421250e-07,4.93750000e-03,3.27187500e-03,4.14375000e-03
