transmissionlines/BB5data/amplicsv/ampli_ALL_20250709080607365.csv

Model,MSO64
Channel,CH1,,Channel,CH2,,Channel,CH3
Label,,,Label,,,Label,
Waveform Type,ANALOG,,Waveform Type,ANALOG,,Waveform Type,ANALOG
Digital Type,None,,Digital Type,None,,Digital Type,None
Horizontal Units,s,,Horizontal Units,s,,Horizontal Units,s
Sample Interval,4.00000000e-11,,Sample Interval,4.00000000e-11,,Sample Interval,4.00000000e-11
Record Length,5000,,Record Length,5000,,Record Length,5000
Zero Index,2449.53125000,,Zero Index,2449.53125000,,Zero Index,2449.53125000
Vertical Units,V,,Vertical Units,V,,Vertical Units,V
,,,,,,,
ANALOG_Thumbnail,,,ANALOG_Thumbnail,,,ANALOG_Thumbnail,
yOffset,0.000000,,yOffset,0.000000,,yOffset,0.000000
yPosition,-0.680000,,yPosition,-2.140000,,yPosition,0.000000

Labels,,,
TIME,CH1,CH2,CH3
-9.79812500e-08,-4.04375000e-03,1.28593750e-03,2.33125000e-03
-9.79412500e-08,-4.23437500e-03,8.93750000e-04,1.96562500e-03
-9.79012500e-08,-4.47812500e-03,5.79687500e-04,1.64375000e-03
-9.78612500e-08,-4.75937500e-03,3.54687500e-04,1.37500000e-03
-9.78212500e-08,-5.07187500e-03,2.28125000e-04,1.17187500e-03
-9.77812500e-08,-5.40625000e-03,2.01562500e-04,1.03437500e-03
-9.77412500e-08,-5.75312500e-03,2.76562500e-04,9.71875000e-04
-9.77012500e-08,-6.09687500e-03,4.50000000e-04,9.84375000e-04
-9.76612500e-08,-6.42500000e-03,7.17187500e-04,1.06875000e-03
-9.76212500e-08,-6.73125000e-03,1.06875000e-03,1.22187500e-03
-9.75812500e-08,-7.00312500e-03,1.49218750e-03,1.44375000e-03
-9.75412500e-08,-7.22812500e-03,1.97187500e-03,1.71875000e-03
-9.75012500e-08,-7.40312500e-03,2.49531250e-03,2.04375000e-03
-9.74612500e-08,-7.52187500e-03,3.04062500e-03,2.40625000e-03
-9.74212500e-08,-7.57500000e-03,3.59218750e-03,2.79375000e-03
-9.73812500e-08,-7.56562500e-03,4.12968750e-03,3.19375000e-03
-9.73412500e-08,-7.49062500e-03,4.63593750e-03,3.59375000e-03
-9.73012500e-08,-7.35312500e-03,5.09218750e-03,3.97812500e-03
-9.72612500e-08,-7.15937500e-03,5.48281250e-03,4.33750000e-03
-9.72212500e-08,-6.91562500e-03,5.79531250e-03,4.65937500e-03
-9.71812500e-08,-6.62500000e-03,6.01718750e-03,4.93125000e-03
-9.71412500e-08,-6.30312500e-03,6.14218750e-03,5.14687500e-03
-9.71012500e-08,-5.95625000e-03,6.16406250e-03,5.29687500e-03
-9.70612500e-08,-5.60000000e-03,6.08125000e-03,5.37812500e-03
-9.70212500e-08,-5.24375000e-03,5.89843750e-03,5.39062500e-03
-9.69812500e-08,-4.90000000e-03,5.61875000e-03,5.32812500e-03
-9.69412500e-08,-4.57812500e-03,5.25156250e-03,5.19375000e-03
-9.69012500e-08,-4.29375000e-03,4.80937500e-03,4.99687500e-03
-9.68612500e-08,-4.05312500e-03,4.30625000e-03,4.74062500e-03
-9.68212500e-08,-3.86250000e-03,3.75937500e-03,4.43437500e-03
-9.67812500e-08,-3.73437500e-03,3.18750000e-03,4.08437500e-03
-9.67412500e-08,-3.66562500e-03,2.60781250e-03,3.70937500e-03
-9.67012500e-08,-3.66562500e-03,2.04218750e-03,3.31562500e-03
-9.66612500e-08,-3.72812500e-03,1.50937500e-03,2.91875000e-03
-9.66212500e-08,-3.85312500e-03,1.02812500e-03,2.53125000e-03
-9.65812500e-08,-4.03750000e-03,6.12500000e-04,2.17187500e-03
-9.65412500e-08,-4.27187500e-03,2.79687500e-04,1.84375000e-03
-9.65012500e-08,-4.55000000e-03,4.06250000e-05,1.56562500e-03
-9.64612500e-08,-4.86250000e-03,-9.53125000e-05,1.34375000e-03
-9.64212500e-08,-5.20000000e-03,-1.25000000e-04,1.19062500e-03
-9.63812500e-08,-5.54687500e-03,-4.37500000e-05,1.10625000e-03
-9.63412500e-08,-5.89687500e-03,1.43750000e-04,1.10000000e-03
-9.63012500e-08,-6.23125000e-03,4.34375000e-04,1.16875000e-03
-9.62612500e-08,-6.54375000e-03,8.15625000e-04,1.31250000e-03
-9.62212500e-08,-6.82187500e-03,1.27968750e-03,1.53125000e-03
-9.61812500e-08,-7.05625000e-03,1.80781250e-03,1.81250000e-03
-9.61412500e-08,-7.24062500e-03,2.38437500e-03,2.15000000e-03
-9.61012500e-08,-7.36875000e-03,2.99062500e-03,2.53750000e-03
-9.60612500e-08,-7.43125000e-03,3.60625000e-03,2.95625000e-03
-9.60212500e-08,-7.43125000e-03,4.21093750e-03,3.39687500e-03
-9.59812500e-08,-7.36875000e-03,4.78437500e-03,3.84375000e-03
-9.59412500e-08,-7.24375000e-03,5.30625000e-03,4.27812500e-03
-9.59012500e-08,-7.05937500e-03,5.76250000e-03,4.69375000e-03
-9.58612500e-08,-6.82500000e-03,6.13437500e-03,5.06875000e-03
-9.58212500e-08,-6.54687500e-03,6.41093750e-03,5.39687500e-03
-9.57812500e-08,-6.23437500e-03,6.58437500e-03,5.65937500e-03
-9.57412500e-08,-5.89687500e-03,6.64687500e-03,5.85000000e-03
-9.57012500e-08,-5.55000000e-03,6.59687500e-03,5.96250000e-03
-9.56612500e-08,-5.19687500e-03,6.43593750e-03,5.99375000e-03
-9.56212500e-08,-4.85625000e-03,6.17031250e-03,5.93750000e-03
-9.55812500e-08,-4.53750000e-03,5.80781250e-03,5.79687500e-03
-9.55412500e-08,-4.25000000e-03,5.36250000e-03,5.57812500e-03
-9.55012500e-08,-4.00000000e-03,4.84687500e-03,5.28437500e-03
-9.54612500e-08,-3.80000000e-03,4.27968750e-03,4.92812500e-03
-9.54212500e-08,-3.65000000e-03,3.68125000e-03,4.51562500e-03
-9.53812500e-08,-3.55937500e-03,3.06875000e-03,4.06875000e-03
-9.53412500e-08,-3.52812500e-03,2.46562500e-03,3.59375000e-03
-9.53012500e-08,-3.55625000e-03,1.88906250e-03,3.11562500e-03
-9.52612500e-08,-3.64062500e-03,1.36093750e-03,2.64062500e-03
-9.52212500e-08,-3.77812500e-03,8.96875000e-04,2.19375000e-03
-9.51812500e-08,-3.96250000e-03,5.12500000e-04,1.78750000e-03
-9.51412500e-08,-4.18750000e-03,2.21875000e-04,1.43437500e-03
-9.51012500e-08,-4.44375000e-03,3.43750000e-05,1.15000000e-03
-9.50612500e-08,-4.72187500e-03,-4.53125000e-05,9.43750000e-04
-9.50212500e-08,-5.00937500e-03,-1.56250000e-05,8.21875000e-04
-9.49812500e-08,-5.30000000e-03,1.25000000e-04,7.87500000e-04
-9.49412500e-08,-5.58125000e-03,3.70312500e-04,8.46875000e-04
-9.49012500e-08,-5.84062500e-03,7.10937500e-04,9.96875000e-04
-9.48612500e-08,-6.07187500e-03,1.13437500e-03,1.23125000e-03
-9.48212500e-08,-6.26875000e-03,1.62812500e-03,1.54375000e-03
-9.47812500e-08,-6.42187500e-03,2.17500000e-03,1.92187500e-03
-9.47412500e-08,-6.52500000e-03,2.75625000e-03,2.35625000e-03
-9.47012500e-08,-6.57812500e-03,3.35000000e-03,2.82812500e-03
-9.46612500e-08,-6.57812500e-03,3.93906250e-03,3.32187500e-03
-9.46212500e-08,-6.52500000e-03,4.50312500e-03,3.82187500e-03
-9.45812500e-08,-6.42187500e-03,5.02187500e-03,4.30937500e-03
-9.45412500e-08,-6.27187500e-03,5.47656250e-03,4.76875000e-03
-9.45012500e-08,-6.08125000e-03,5.85468750e-03,5.18125000e-03
-9.44612500e-08,-5.85625000e-03,6.14375000e-03,5.53125000e-03
-9.44212500e-08,-5.60937500e-03,6.33125000e-03,5.80625000e-03
-9.43812500e-08,-5.34375000e-03,6.41250000e-03,6.00000000e-03
-9.43412500e-08,-5.07187500e-03,6.38437500e-03,6.10000000e-03
-9.43012500e-08,-4.80312500e-03,6.24843750e-03,6.10625000e-03
-9.42612500e-08,-4.54375000e-03,6.00937500e-03,6.01562500e-03
-9.42212500e-08,-4.30937500e-03,5.67500000e-03,5.83125000e-03
-9.41812500e-08,-4.10312500e-03,5.25781250e-03,5.55937500e-03
-9.41412500e-08,-3.93437500e-03,4.76875000e-03,5.20625000e-03
-9.41012500e-08,-3.80937500e-03,4.22812500e-03,4.78750000e-03
-9.40612500e-08,-3.73125000e-03,3.65156250e-03,4.31562500e-03
-9.40212500e-08,-3.70625000e-03,3.05937500e-03,3.80937500e-03
-9.39812500e-08,-3.73125000e-03,2.47343750e-03,3.28125000e-03
-9.39412500e-08,-3.80625000e-03,1.90937500e-03,2.75000000e-03
-9.39012500e-08,-3.92812500e-03,1.39062500e-03,2.23750000e-03
-9.38612500e-08,-4.09687500e-03,9.32812500e-04,1.75625000e-03
-9.38212500e-08,-4.30625000e-03,5.51562500e-04,1.32812500e-03
-9.37812500e-08,-4.54687500e-03,2.59375000e-04,9.65625000e-04
-9.37412500e-08,-4.81250000e-03,6.71875000e-05,6.78125000e-04
-9.37012500e-08,-5.09062500e-03,-1.87500000e-05,4.78125000e-04
-9.36612500e-08,-5.37812500e-03,4.68750000e-06,3.71875000e-04
-9.36212500e-08,-5.65937500e-03,1.37500000e-04,3.59375000e-04
-9.35812500e-08,-5.93125000e-03,3.73437500e-04,4.46875000e-04
-9.35412500e-08,-6.17812500e-03,7.04687500e-04,6.25000000e-04
-9.35012500e-08,-6.39375000e-03,1.12187500e-03,8.90625000e-04
-9.34612500e-08,-6.57187500e-03,1.61093750e-03,1.23125000e-03
-9.34212500e-08,-6.70625000e-03,2.15312500e-03,1.63750000e-03
-9.33812500e-08,-6.79062500e-03,2.73125000e-03,2.09375000e-03
-9.33412500e-08,-6.82187500e-03,3.32656250e-03,2.58437500e-03
-9.33012500e-08,-6.79687500e-03,3.91875000e-03,3.09062500e-03
-9.32612500e-08,-6.72187500e-03,4.48593750e-03,3.60000000e-03
-9.32212500e-08,-6.59062500e-03,5.00937500e-03,4.09062500e-03
-9.31812500e-08,-6.41562500e-03,5.47343750e-03,4.54687500e-03
-9.31412500e-08,-6.19375000e-03,5.85937500e-03,4.95937500e-03
-9.31012500e-08,-5.94062500e-03,6.15625000e-03,5.30625000e-03
-9.30612500e-08,-5.65625000e-03,6.35312500e-03,5.58437500e-03
-9.30212500e-08,-5.35625000e-03,6.44218750e-03,5.78125000e-03
-9.29812500e-08,-5.04687500e-03,6.42187500e-03,5.89375000e-03
-9.29412500e-08,-4.74062500e-03,6.29375000e-03,5.91875000e-03
-9.29012500e-08,-4.44687500e-03,6.05937500e-03,5.85625000e-03
-9.28612500e-08,-4.17500000e-03,5.72968750e-03,5.70937500e-03
-9.28212500e-08,-3.93750000e-03,5.31406250e-03,5.48750000e-03
-9.27812500e-08,-3.74062500e-03,4.82656250e-03,5.19687500e-03
-9.27412500e-08,-3.59062500e-03,4.28593750e-03,4.85000000e-03
-9.27012500e-08,-3.49375000e-03,3.70937500e-03,4.45625000e-03
-9.26612500e-08,-3.45937500e-03,3.11562500e-03,4.03125000e-03
-9.26212500e-08,-3.48125000e-03,2.52656250e-03,3.59375000e-03
-9.25812500e-08,-3.56562500e-03,1.96250000e-03,3.15312500e-03
-9.25412500e-08,-3.70625000e-03,1.44062500e-03,2.72812500e-03
-9.25012500e-08,-3.90312500e-03,9.81250000e-04,2.32812500e-03
-9.24612500e-08,-4.14687500e-03,5.98437500e-04,1.97187500e-03
-9.24212500e-08,-4.43437500e-03,3.04687500e-04,1.66562500e-03
-9.23812500e-08,-4.75000000e-03,1.12500000e-04,1.42187500e-03
-9.23412500e-08,-5.09062500e-03,2.50000000e-05,1.24375000e-03
-9.23012500e-08,-5.44375000e-03,4.53125000e-05,1.14375000e-03
-9.22612500e-08,-5.79375000e-03,1.73437500e-04,1.11875000e-03
-9.22212500e-08,-6.13125000e-03,4.06250000e-04,1.16875000e-03
-9.21812500e-08,-6.44687500e-03,7.31250000e-04,1.29375000e-03
-9.21412500e-08,-6.72812500e-03,1.14062500e-03,1.48437500e-03
-9.21012500e-08,-6.96562500e-03,1.61875000e-03,1.74062500e-03
-9.20612500e-08,-7.15000000e-03,2.15000000e-03,2.05000000e-03
-9.20212500e-08,-7.27812500e-03,2.71250000e-03,2.40312500e-03
-9.19812500e-08,-7.34062500e-03,3.29062500e-03,2.78750000e-03
-9.19412500e-08,-7.34062500e-03,3.86406250e-03,3.19062500e-03
-9.19012500e-08,-7.27812500e-03,4.41093750e-03,3.60000000e-03
-9.18612500e-08,-7.15000000e-03,4.91250000e-03,4.00000000e-03
-9.18212500e-08,-6.96250000e-03,5.35468750e-03,4.38437500e-03
-9.17812500e-08,-6.72500000e-03,5.71875000e-03,4.73437500e-03
-9.17412500e-08,-6.44375000e-03,5.99375000e-03,5.04062500e-03
-9.17012500e-08,-6.12812500e-03,6.17187500e-03,5.29375000e-03
-9.16612500e-08,-5.78750000e-03,6.24531250e-03,5.48750000e-03
-9.16212500e-08,-5.43750000e-03,6.21250000e-03,5.61250000e-03
-9.15812500e-08,-5.08750000e-03,6.07343750e-03,5.66250000e-03
-9.15412500e-08,-4.75000000e-03,5.83437500e-03,5.64375000e-03
-9.15012500e-08,-4.43750000e-03,5.50312500e-03,5.54687500e-03
-9.14612500e-08,-4.15937500e-03,5.09062500e-03,5.38437500e-03
-9.14212500e-08,-3.92500000e-03,4.61250000e-03,5.15312500e-03
-9.13812500e-08,-3.74375000e-03,4.08281250e-03,4.86250000e-03
-9.13412500e-08,-3.62187500e-03,3.52031250e-03,4.52187500e-03
-9.13012500e-08,-3.56250000e-03,2.94375000e-03,4.14375000e-03
-9.12612500e-08,-3.56875000e-03,2.37500000e-03,3.74062500e-03
-9.12212500e-08,-3.63750000e-03,1.82968750e-03,3.32187500e-03
-9.11812500e-08,-3.77187500e-03,1.32812500e-03,2.90312500e-03
-9.11412500e-08,-3.95937500e-03,8.87500000e-04,2.50000000e-03
-9.11012500e-08,-4.20000000e-03,5.20312500e-04,2.12812500e-03
-9.10612500e-08,-4.48125000e-03,2.42187500e-04,1.79375000e-03
-9.10212500e-08,-4.79375000e-03,5.93750000e-05,1.51562500e-03
-9.09812500e-08,-5.12812500e-03,-2.03125000e-05,1.30000000e-03
-9.09412500e-08,-5.47500000e-03,4.68750000e-06,1.15937500e-03
-9.09012500e-08,-5.81562500e-03,1.34375000e-04,1.09375000e-03
-9.08612500e-08,-6.14687500e-03,3.64062500e-04,1.10937500e-03
-9.08212500e-08,-6.45000000e-03,6.84375000e-04,1.20937500e-03
-9.07812500e-08,-6.72187500e-03,1.08750000e-03,1.39062500e-03
-9.07412500e-08,-6.94687500e-03,1.55937500e-03,1.64375000e-03
-9.07012500e-08,-7.12187500e-03,2.08281250e-03,1.96562500e-03
-9.06612500e-08,-7.24062500e-03,2.64062500e-03,2.34687500e-03
-9.06212500e-08,-7.30000000e-03,3.21562500e-03,2.76875000e-03
-9.05812500e-08,-7.29687500e-03,3.78593750e-03,3.22500000e-03
-9.05412500e-08,-7.23125000e-03,4.33593750e-03,3.69375000e-03
-9.05012500e-08,-7.10937500e-03,4.84531250e-03,4.16250000e-03
-9.04612500e-08,-6.93125000e-03,5.29843750e-03,4.61250000e-03
-9.04212500e-08,-6.70625000e-03,5.67812500e-03,5.02812500e-03
-9.03812500e-08,-6.44375000e-03,5.97343750e-03,5.39687500e-03
-9.03412500e-08,-6.14687500e-03,6.17343750e-03,5.70000000e-03
-9.03012500e-08,-5.82812500e-03,6.27343750e-03,5.93125000e-03
-9.02612500e-08,-5.50000000e-03,6.26875000e-03,6.07812500e-03
-9.02212500e-08,-5.17187500e-03,6.15937500e-03,6.13750000e-03
-9.01812500e-08,-4.85312500e-03,5.94843750e-03,6.10312500e-03
-9.01412500e-08,-4.55312500e-03,5.64531250e-03,5.97812500e-03
-9.01012500e-08,-4.28437500e-03,5.25937500e-03,5.76250000e-03
-9.00612500e-08,-4.05312500e-03,4.80156250e-03,5.46562500e-03
-9.00212500e-08,-3.86562500e-03,4.29062500e-03,5.10000000e-03
-8.99812500e-08,-3.72812500e-03,3.74062500e-03,4.67187500e-03
-8.99412500e-08,-3.64062500e-03,3.17031250e-03,4.20000000e-03
-8.99012500e-08,-3.61250000e-03,2.60156250e-03,3.70000000e-03
-8.98612500e-08,-3.63750000e-03,2.05000000e-03,3.18437500e-03
-8.98212500e-08,-3.71875000e-03,1.53593750e-03,2.67812500e-03
-8.97812500e-08,-3.85000000e-03,1.07812500e-03,2.19375000e-03
-8.97412500e-08,-4.02812500e-03,6.87500000e-04,1.75000000e-03
-8.97012500e-08,-4.24375000e-03,3.81250000e-04,1.35937500e-03
-8.96612500e-08,-4.49375000e-03,1.68750000e-04,1.03750000e-03
-8.96212500e-08,-4.76875000e-03,5.46875000e-05,7.93750000e-04
-8.95812500e-08,-5.05937500e-03,4.68750000e-05,6.34375000e-04
-8.95412500e-08,-5.35625000e-03,1.42187500e-04,5.65625000e-04
-8.95012500e-08,-5.65000000e-03,3.39062500e-04,5.90625000e-04
-8.94612500e-08,-5.93125000e-03,6.29687500e-04,7.06250000e-04
-8.94212500e-08,-6.19062500e-03,1.00468750e-03,9.09375000e-04
-8.93812500e-08,-6.42500000e-03,1.45156250e-03,1.18750000e-03
-8.93412500e-08,-6.61875000e-03,1.95468750e-03,1.53437500e-03
-8.93012500e-08,-6.77500000e-03,2.49687500e-03,1.93437500e-03
-8.92612500e-08,-6.88437500e-03,3.05937500e-03,2.37500000e-03
-8.92212500e-08,-6.94687500e-03,3.62500000e-03,2.84062500e-03
-8.91812500e-08,-6.95625000e-03,4.17187500e-03,3.31250000e-03
-8.91412500e-08,-6.91875000e-03,4.68281250e-03,3.78125000e-03
-8.91012500e-08,-6.83125000e-03,5.14062500e-03,4.22187500e-03
-8.90612500e-08,-6.70312500e-03,5.52812500e-03,4.62812500e-03
-8.90212500e-08,-6.53125000e-03,5.83437500e-03,4.98125000e-03
-8.89812500e-08,-6.33125000e-03,6.04687500e-03,5.27500000e-03
-8.89412500e-08,-6.10312500e-03,6.15937500e-03,5.49687500e-03
-8.89012500e-08,-5.85937500e-03,6.16875000e-03,5.64375000e-03
-8.88612500e-08,-5.60625000e-03,6.07343750e-03,5.70937500e-03
-8.88212500e-08,-5.35625000e-03,5.87812500e-03,5.69375000e-03
-8.87812500e-08,-5.11562500e-03,5.58750000e-03,5.60000000e-03
-8.87412500e-08,-4.89375000e-03,5.21406250e-03,5.43125000e-03
-8.87012500e-08,-4.70000000e-03,4.76875000e-03,5.20000000e-03
-8.86612500e-08,-4.54062500e-03,4.26875000e-03,4.90937500e-03
-8.86212500e-08,-4.42187500e-03,3.72812500e-03,4.57187500e-03
-8.85812500e-08,-4.35000000e-03,3.16875000e-03,4.20000000e-03
-8.85412500e-08,-4.32500000e-03,2.60781250e-03,3.81250000e-03
-8.85012500e-08,-4.35312500e-03,2.06406250e-03,3.41562500e-03
-8.84612500e-08,-4.43437500e-03,1.55937500e-03,3.02500000e-03
-8.84212500e-08,-4.56250000e-03,1.10781250e-03,2.65625000e-03
-8.83812500e-08,-4.73750000e-03,7.25000000e-04,2.32187500e-03
-8.83412500e-08,-4.95000000e-03,4.26562500e-04,2.03125000e-03
-8.83012500e-08,-5.19687500e-03,2.20312500e-04,1.79687500e-03
-8.82612500e-08,-5.46875000e-03,1.14062500e-04,1.62500000e-03
-8.82212500e-08,-5.75937500e-03,1.14062500e-04,1.52500000e-03
-8.81812500e-08,-6.05312500e-03,2.15625000e-04,1.49375000e-03
-8.81412500e-08,-6.34375000e-03,4.20312500e-04,1.53750000e-03
-8.81012500e-08,-6.62187500e-03,7.17187500e-04,1.65000000e-03
-8.80612500e-08,-6.87500000e-03,1.10000000e-03,1.83437500e-03
-8.80212500e-08,-7.09687500e-03,1.55312500e-03,2.08125000e-03
-8.79812500e-08,-7.27812500e-03,2.06250000e-03,2.38437500e-03
-8.79412500e-08,-7.41250000e-03,2.60937500e-03,2.73125000e-03
-8.79012500e-08,-7.49375000e-03,3.17812500e-03,3.11250000e-03
-8.78612500e-08,-7.51875000e-03,3.74843750e-03,3.51562500e-03
-8.78212500e-08,-7.48750000e-03,4.30000000e-03,3.92812500e-03
-8.77812500e-08,-7.40000000e-03,4.81406250e-03,4.33437500e-03
-8.77412500e-08,-7.25937500e-03,5.27500000e-03,4.72500000e-03
-8.77012500e-08,-7.06875000e-03,5.66562500e-03,5.08125000e-03
-8.76612500e-08,-6.83437500e-03,5.97343750e-03,5.39375000e-03
-8.76212500e-08,-6.56250000e-03,6.18750000e-03,5.65000000e-03
-8.75812500e-08,-6.26562500e-03,6.30000000e-03,5.84375000e-03
-8.75412500e-08,-5.95312500e-03,6.30781250e-03,5.96562500e-03
-8.75012500e-08,-5.63437500e-03,6.20937500e-03,6.01250000e-03
-8.74612500e-08,-5.31875000e-03,6.00937500e-03,5.97500000e-03
-8.74212500e-08,-5.02187500e-03,5.71250000e-03,5.86250000e-03
-8.73812500e-08,-4.74687500e-03,5.32812500e-03,5.66875000e-03
-8.73412500e-08,-4.50937500e-03,4.87031250e-03,5.40312500e-03
-8.73012500e-08,-4.31562500e-03,4.35312500e-03,5.07187500e-03
-8.72612500e-08,-4.16875000e-03,3.79375000e-03,4.68750000e-03
-8.72212500e-08,-4.07812500e-03,3.20937500e-03,4.25625000e-03
-8.71812500e-08,-4.05000000e-03,2.62187500e-03,3.79687500e-03
-8.71412500e-08,-4.07812500e-03,2.04843750e-03,3.31875000e-03
-8.71012500e-08,-4.16562500e-03,1.50937500e-03,2.84062500e-03
-8.70612500e-08,-4.30937500e-03,1.02187500e-03,2.37812500e-03
-8.70212500e-08,-4.50625000e-03,6.01562500e-04,1.94375000e-03
-8.69812500e-08,-4.74687500e-03,2.64062500e-04,1.55625000e-03
-8.69412500e-08,-5.02812500e-03,2.03125000e-05,1.22500000e-03
-8.69012500e-08,-5.33750000e-03,-1.21875000e-04,9.59375000e-04
-8.68612500e-08,-5.66562500e-03,-1.57812500e-04,7.75000000e-04
-8.68212500e-08,-6.00312500e-03,-8.59375000e-05,6.71875000e-04
-8.67812500e-08,-6.34062500e-03,9.21875000e-05,6.56250000e-04
-8.67412500e-08,-6.66562500e-03,3.70312500e-04,7.31250000e-04
-8.67012500e-08,-6.96562500e-03,7.40625000e-04,8.93750000e-04
-8.66612500e-08,-7.23750000e-03,1.19062500e-03,1.13750000e-03
-8.66212500e-08,-7.46562500e-03,1.70468750e-03,1.45312500e-03
-8.65812500e-08,-7.65000000e-03,2.26718750e-03,1.83437500e-03
-8.65412500e-08,-7.78125000e-03,2.85937500e-03,2.26250000e-03
-8.65012500e-08,-7.85625000e-03,3.46093750e-03,2.73125000e-03
-8.64612500e-08,-7.87500000e-03,4.05156250e-03,3.21562500e-03
-8.64212500e-08,-7.83437500e-03,4.61406250e-03,3.70625000e-03
-8.63812500e-08,-7.73750000e-03,5.12656250e-03,4.18437500e-03
-8.63412500e-08,-7.59062500e-03,5.57500000e-03,4.63437500e-03
-8.63012500e-08,-7.40000000e-03,5.94062500e-03,5.03750000e-03
-8.62612500e-08,-7.16562500e-03,6.21562500e-03,5.38437500e-03
-8.62212500e-08,-6.90312500e-03,6.38593750e-03,5.65937500e-03
-8.61812500e-08,-6.61875000e-03,6.44843750e-03,5.85625000e-03
-8.61412500e-08,-6.32187500e-03,6.40000000e-03,5.96875000e-03
-8.61012500e-08,-6.02500000e-03,6.24218750e-03,5.99062500e-03
-8.60612500e-08,-5.73750000e-03,5.97968750e-03,5.92500000e-03
-8.60212500e-08,-5.47187500e-03,5.62187500e-03,5.77187500e-03
-8.59812500e-08,-5.23125000e-03,5.17812500e-03,5.54062500e-03
-8.59412500e-08,-5.03125000e-03,4.66562500e-03,5.23437500e-03
-8.59012500e-08,-4.87812500e-03,4.10156250e-03,4.86562500e-03
-8.58612500e-08,-4.77187500e-03,3.50312500e-03,4.45000000e-03
-8.58212500e-08,-4.72500000e-03,2.89218750e-03,4.00312500e-03
-8.57812500e-08,-4.73437500e-03,2.28750000e-03,3.53437500e-03
-8.57412500e-08,-4.80000000e-03,1.71093750e-03,3.06562500e-03
-8.57012500e-08,-4.92187500e-03,1.18125000e-03,2.61250000e-03
-8.56612500e-08,-5.09687500e-03,7.15625000e-04,2.18750000e-03
-8.56212500e-08,-5.31875000e-03,3.32812500e-04,1.80625000e-03
