transmissionlines/BB5data/amplicsv/ampli_ALL_20250709080258034.csv

Model,MSO64
Channel,CH1,,Channel,CH2,,Channel,CH3
Label,,,Label,,,Label,
Waveform Type,ANALOG,,Waveform Type,ANALOG,,Waveform Type,ANALOG
Digital Type,None,,Digital Type,None,,Digital Type,None
Horizontal Units,s,,Horizontal Units,s,,Horizontal Units,s
Sample Interval,4.00000000e-11,,Sample Interval,4.00000000e-11,,Sample Interval,4.00000000e-11
Record Length,25000,,Record Length,25000,,Record Length,25000
Zero Index,12249.53125000,,Zero Index,12249.53125000,,Zero Index,12249.53125000
Vertical Units,V,,Vertical Units,V,,Vertical Units,V
,,,,,,,
ANALOG_Thumbnail,,,ANALOG_Thumbnail,,,ANALOG_Thumbnail,
yOffset,0.000000,,yOffset,0.000000,,yOffset,0.000000
yPosition,-0.680000,,yPosition,-2.140000,,yPosition,0.000000

Labels,,,
TIME,CH1,CH2,CH3
-4.89981250e-07,8.75000000e-04,3.21093750e-03,4.03125000e-03
-4.89941250e-07,9.53125000e-04,3.19531250e-03,4.00312500e-03
-4.89901250e-07,1.02500000e-03,3.17968750e-03,3.97812500e-03
-4.89861250e-07,1.08750000e-03,3.16562500e-03,3.95625000e-03
-4.89821250e-07,1.14375000e-03,3.15312500e-03,3.93750000e-03
-4.89781250e-07,1.19062500e-03,3.14375000e-03,3.92500000e-03
-4.89741250e-07,1.22812500e-03,3.13593750e-03,3.91875000e-03
-4.89701250e-07,1.25625000e-03,3.12968750e-03,3.91875000e-03
-4.89661250e-07,1.27187500e-03,3.12656250e-03,3.92187500e-03
-4.89621250e-07,1.28437500e-03,3.12500000e-03,3.93125000e-03
-4.89581250e-07,1.28437500e-03,3.12812500e-03,3.94375000e-03
-4.89541250e-07,1.28125000e-03,3.13125000e-03,3.95937500e-03
-4.89501250e-07,1.27187500e-03,3.13906250e-03,3.97812500e-03
-4.89461250e-07,1.25625000e-03,3.15000000e-03,3.99375000e-03
-4.89421250e-07,1.24062500e-03,3.16250000e-03,4.01250000e-03
-4.89381250e-07,1.22500000e-03,3.17812500e-03,4.02812500e-03
-4.89341250e-07,1.20937500e-03,3.19687500e-03,4.04062500e-03
-4.89301250e-07,1.19375000e-03,3.21718750e-03,4.05000000e-03
-4.89261250e-07,1.18125000e-03,3.24062500e-03,4.05625000e-03
-4.89221250e-07,1.17187500e-03,3.26562500e-03,4.05937500e-03
-4.89181250e-07,1.16562500e-03,3.29218750e-03,4.05937500e-03
-4.89141250e-07,1.16250000e-03,3.31875000e-03,4.05312500e-03
-4.89101250e-07,1.16562500e-03,3.34687500e-03,4.04375000e-03
-4.89061250e-07,1.17187500e-03,3.37500000e-03,4.03437500e-03
-4.89021250e-07,1.18125000e-03,3.40156250e-03,4.01875000e-03
-4.88981250e-07,1.19375000e-03,3.42656250e-03,4.00625000e-03
-4.88941250e-07,1.20937500e-03,3.45000000e-03,3.99062500e-03
-4.88901250e-07,1.22500000e-03,3.47031250e-03,3.97812500e-03
-4.88861250e-07,1.24375000e-03,3.48750000e-03,3.96562500e-03
-4.88821250e-07,1.26562500e-03,3.50000000e-03,3.95625000e-03
-4.88781250e-07,1.28437500e-03,3.50937500e-03,3.95000000e-03
-4.88741250e-07,1.30625000e-03,3.51406250e-03,3.94687500e-03
-4.88701250e-07,1.32812500e-03,3.51406250e-03,3.94687500e-03
-4.88661250e-07,1.35000000e-03,3.50937500e-03,3.95000000e-03
-4.88621250e-07,1.37187500e-03,3.50156250e-03,3.95937500e-03
-4.88581250e-07,1.39687500e-03,3.48906250e-03,3.97187500e-03
-4.88541250e-07,1.41875000e-03,3.47343750e-03,3.98437500e-03
-4.88501250e-07,1.44062500e-03,3.45468750e-03,4.00312500e-03
-4.88461250e-07,1.46562500e-03,3.43593750e-03,4.01875000e-03
-4.88421250e-07,1.49062500e-03,3.41406250e-03,4.03437500e-03
-4.88381250e-07,1.51562500e-03,3.39375000e-03,4.05000000e-03
-4.88341250e-07,1.54062500e-03,3.37343750e-03,4.06250000e-03
-4.88301250e-07,1.56875000e-03,3.35312500e-03,4.07187500e-03
-4.88261250e-07,1.60000000e-03,3.33593750e-03,4.07500000e-03
-4.88221250e-07,1.62812500e-03,3.32187500e-03,4.07500000e-03
-4.88181250e-07,1.66250000e-03,3.30937500e-03,4.07187500e-03
-4.88141250e-07,1.69375000e-03,3.30000000e-03,4.05937500e-03
-4.88101250e-07,1.72812500e-03,3.29375000e-03,4.04375000e-03
-4.88061250e-07,1.76562500e-03,3.29062500e-03,4.02187500e-03
-4.88021250e-07,1.80312500e-03,3.28906250e-03,3.99687500e-03
-4.87981250e-07,1.84062500e-03,3.29062500e-03,3.96562500e-03
-4.87941250e-07,1.87812500e-03,3.29375000e-03,3.93437500e-03
-4.87901250e-07,1.91875000e-03,3.29687500e-03,3.89687500e-03
-4.87861250e-07,1.96250000e-03,3.30000000e-03,3.86250000e-03
-4.87821250e-07,2.00625000e-03,3.30312500e-03,3.82500000e-03
-4.87781250e-07,2.05000000e-03,3.30625000e-03,3.79062500e-03
-4.87741250e-07,2.09687500e-03,3.30625000e-03,3.75937500e-03
-4.87701250e-07,2.14687500e-03,3.30625000e-03,3.73125000e-03
-4.87661250e-07,2.19687500e-03,3.30312500e-03,3.70937500e-03
-4.87621250e-07,2.25000000e-03,3.30000000e-03,3.69062500e-03
-4.87581250e-07,2.30625000e-03,3.29375000e-03,3.67812500e-03
-4.87541250e-07,2.35937500e-03,3.28437500e-03,3.67187500e-03
-4.87501250e-07,2.41562500e-03,3.27656250e-03,3.67187500e-03
-4.87461250e-07,2.47187500e-03,3.26562500e-03,3.67500000e-03
-4.87421250e-07,2.52500000e-03,3.25625000e-03,3.68437500e-03
-4.87381250e-07,2.57500000e-03,3.24687500e-03,3.70000000e-03
-4.87341250e-07,2.62187500e-03,3.23906250e-03,3.71875000e-03
-4.87301250e-07,2.66562500e-03,3.23281250e-03,3.73750000e-03
-4.87261250e-07,2.70000000e-03,3.22812500e-03,3.75937500e-03
-4.87221250e-07,2.72500000e-03,3.22656250e-03,3.78125000e-03
-4.87181250e-07,2.74062500e-03,3.22812500e-03,3.80312500e-03
-4.87141250e-07,2.74375000e-03,3.23125000e-03,3.82187500e-03
-4.87101250e-07,2.73750000e-03,3.23906250e-03,3.83750000e-03
-4.87061250e-07,2.71562500e-03,3.24843750e-03,3.85000000e-03
-4.87021250e-07,2.68125000e-03,3.25937500e-03,3.85937500e-03
-4.86981250e-07,2.63437500e-03,3.27343750e-03,3.86250000e-03
-4.86941250e-07,2.57500000e-03,3.28750000e-03,3.86250000e-03
-4.86901250e-07,2.50312500e-03,3.30156250e-03,3.85312500e-03
-4.86861250e-07,2.42187500e-03,3.31562500e-03,3.84375000e-03
-4.86821250e-07,2.33437500e-03,3.32812500e-03,3.82812500e-03
-4.86781250e-07,2.24062500e-03,3.33750000e-03,3.80625000e-03
-4.86741250e-07,2.14375000e-03,3.34531250e-03,3.78437500e-03
-4.86701250e-07,2.04687500e-03,3.35000000e-03,3.76250000e-03
-4.86661250e-07,1.95000000e-03,3.35156250e-03,3.73437500e-03
-4.86621250e-07,1.85937500e-03,3.35000000e-03,3.70937500e-03
-4.86581250e-07,1.77500000e-03,3.34531250e-03,3.68750000e-03
-4.86541250e-07,1.70312500e-03,3.33750000e-03,3.66250000e-03
-4.86501250e-07,1.64062500e-03,3.32812500e-03,3.64375000e-03
-4.86461250e-07,1.58750000e-03,3.31562500e-03,3.62812500e-03
-4.86421250e-07,1.55000000e-03,3.30312500e-03,3.61562500e-03
-4.86381250e-07,1.52812500e-03,3.28906250e-03,3.60937500e-03
-4.86341250e-07,1.51562500e-03,3.27656250e-03,3.60625000e-03
-4.86301250e-07,1.51562500e-03,3.26562500e-03,3.60937500e-03
-4.86261250e-07,1.52187500e-03,3.25625000e-03,3.61562500e-03
-4.86221250e-07,1.54062500e-03,3.25000000e-03,3.62500000e-03
-4.86181250e-07,1.56250000e-03,3.24687500e-03,3.63750000e-03
-4.86141250e-07,1.58750000e-03,3.24687500e-03,3.65312500e-03
-4.86101250e-07,1.61562500e-03,3.25000000e-03,3.66875000e-03
-4.86061250e-07,1.63750000e-03,3.25781250e-03,3.68750000e-03
-4.86021250e-07,1.65937500e-03,3.26718750e-03,3.70625000e-03
-4.85981250e-07,1.67500000e-03,3.27968750e-03,3.72187500e-03
-4.85941250e-07,1.68125000e-03,3.29375000e-03,3.74062500e-03
-4.85901250e-07,1.68125000e-03,3.30781250e-03,3.75312500e-03
-4.85861250e-07,1.67500000e-03,3.32187500e-03,3.76562500e-03
-4.85821250e-07,1.65937500e-03,3.33437500e-03,3.77500000e-03
-4.85781250e-07,1.63750000e-03,3.34375000e-03,3.78437500e-03
-4.85741250e-07,1.60937500e-03,3.35156250e-03,3.79062500e-03
-4.85701250e-07,1.58125000e-03,3.35468750e-03,3.79375000e-03
-4.85661250e-07,1.55312500e-03,3.35468750e-03,3.79687500e-03
-4.85621250e-07,1.52500000e-03,3.35000000e-03,3.80000000e-03
-4.85581250e-07,1.50312500e-03,3.34062500e-03,3.80312500e-03
-4.85541250e-07,1.49062500e-03,3.32656250e-03,3.80625000e-03
-4.85501250e-07,1.48750000e-03,3.30937500e-03,3.80937500e-03
-4.85461250e-07,1.49375000e-03,3.28750000e-03,3.81562500e-03
-4.85421250e-07,1.51562500e-03,3.26406250e-03,3.82500000e-03
-4.85381250e-07,1.55000000e-03,3.24062500e-03,3.83750000e-03
-4.85341250e-07,1.60000000e-03,3.21562500e-03,3.85312500e-03
-4.85301250e-07,1.65937500e-03,3.19375000e-03,3.87187500e-03
-4.85261250e-07,1.73437500e-03,3.17187500e-03,3.89375000e-03
-4.85221250e-07,1.81562500e-03,3.15468750e-03,3.91562500e-03
-4.85181250e-07,1.90312500e-03,3.14062500e-03,3.94062500e-03
-4.85141250e-07,1.99687500e-03,3.13281250e-03,3.96562500e-03
-4.85101250e-07,2.09062500e-03,3.12968750e-03,3.99062500e-03
-4.85061250e-07,2.17812500e-03,3.13125000e-03,4.01250000e-03
-4.85021250e-07,2.25937500e-03,3.13906250e-03,4.03437500e-03
-4.84981250e-07,2.33125000e-03,3.15156250e-03,4.05000000e-03
-4.84941250e-07,2.39062500e-03,3.16875000e-03,4.06250000e-03
-4.84901250e-07,2.43125000e-03,3.18906250e-03,4.06875000e-03
-4.84861250e-07,2.45625000e-03,3.21093750e-03,4.07187500e-03
-4.84821250e-07,2.46250000e-03,3.23437500e-03,4.06562500e-03
-4.84781250e-07,2.45000000e-03,3.25781250e-03,4.05625000e-03
-4.84741250e-07,2.41562500e-03,3.27812500e-03,4.03750000e-03
-4.84701250e-07,2.36875000e-03,3.29687500e-03,4.01562500e-03
-4.84661250e-07,2.30312500e-03,3.31250000e-03,3.98750000e-03
-4.84621250e-07,2.22500000e-03,3.32187500e-03,3.95625000e-03
-4.84581250e-07,2.13750000e-03,3.32656250e-03,3.91875000e-03
-4.84541250e-07,2.04687500e-03,3.32500000e-03,3.88437500e-03
-4.84501250e-07,1.95000000e-03,3.31875000e-03,3.84687500e-03
-4.84461250e-07,1.85625000e-03,3.30625000e-03,3.81250000e-03
-4.84421250e-07,1.76562500e-03,3.29062500e-03,3.78125000e-03
-4.84381250e-07,1.68437500e-03,3.26875000e-03,3.75312500e-03
-4.84341250e-07,1.60937500e-03,3.24531250e-03,3.73125000e-03
-4.84301250e-07,1.55000000e-03,3.22031250e-03,3.71562500e-03
-4.84261250e-07,1.50000000e-03,3.19531250e-03,3.70625000e-03
-4.84221250e-07,1.46562500e-03,3.17187500e-03,3.70312500e-03
-4.84181250e-07,1.44687500e-03,3.15000000e-03,3.70937500e-03
-4.84141250e-07,1.43750000e-03,3.13125000e-03,3.72187500e-03
-4.84101250e-07,1.44375000e-03,3.11718750e-03,3.74062500e-03
-4.84061250e-07,1.45625000e-03,3.10937500e-03,3.76562500e-03
-4.84021250e-07,1.47812500e-03,3.10625000e-03,3.79375000e-03
-4.83981250e-07,1.50312500e-03,3.11093750e-03,3.82812500e-03
-4.83941250e-07,1.53437500e-03,3.11875000e-03,3.86250000e-03
-4.83901250e-07,1.56562500e-03,3.13437500e-03,3.90000000e-03
-4.83861250e-07,1.59375000e-03,3.15312500e-03,3.93437500e-03
-4.83821250e-07,1.61875000e-03,3.17500000e-03,3.96875000e-03
-4.83781250e-07,1.64062500e-03,3.20000000e-03,4.00000000e-03
-4.83741250e-07,1.65937500e-03,3.22500000e-03,4.02812500e-03
-4.83701250e-07,1.66875000e-03,3.25156250e-03,4.05000000e-03
-4.83661250e-07,1.67500000e-03,3.27656250e-03,4.06875000e-03
-4.83621250e-07,1.67812500e-03,3.29687500e-03,4.08125000e-03
-4.83581250e-07,1.67812500e-03,3.31562500e-03,4.08750000e-03
-4.83541250e-07,1.67500000e-03,3.32968750e-03,4.08750000e-03
-4.83501250e-07,1.67500000e-03,3.33906250e-03,4.08437500e-03
-4.83461250e-07,1.67500000e-03,3.34375000e-03,4.07500000e-03
-4.83421250e-07,1.68125000e-03,3.34375000e-03,4.06250000e-03
-4.83381250e-07,1.69375000e-03,3.33750000e-03,4.05000000e-03
-4.83341250e-07,1.71562500e-03,3.32968750e-03,4.03437500e-03
-4.83301250e-07,1.74687500e-03,3.31718750e-03,4.01875000e-03
-4.83261250e-07,1.78750000e-03,3.30468750e-03,4.00312500e-03
-4.83221250e-07,1.84062500e-03,3.28906250e-03,3.98750000e-03
-4.83181250e-07,1.90312500e-03,3.27500000e-03,3.97500000e-03
-4.83141250e-07,1.97812500e-03,3.26250000e-03,3.96562500e-03
-4.83101250e-07,2.05937500e-03,3.25312500e-03,3.95625000e-03
-4.83061250e-07,2.15000000e-03,3.24687500e-03,3.95312500e-03
-4.83021250e-07,2.24687500e-03,3.24375000e-03,3.95312500e-03
-4.82981250e-07,2.34375000e-03,3.24531250e-03,3.95312500e-03
-4.82941250e-07,2.44375000e-03,3.25000000e-03,3.95937500e-03
-4.82901250e-07,2.54062500e-03,3.25937500e-03,3.96562500e-03
-4.82861250e-07,2.63437500e-03,3.27187500e-03,3.97187500e-03
-4.82821250e-07,2.72187500e-03,3.28593750e-03,3.98437500e-03
-4.82781250e-07,2.80000000e-03,3.30312500e-03,3.99375000e-03
-4.82741250e-07,2.86875000e-03,3.32031250e-03,4.00312500e-03
-4.82701250e-07,2.92500000e-03,3.33593750e-03,4.01250000e-03
-4.82661250e-07,2.96875000e-03,3.35000000e-03,4.02187500e-03
-4.82621250e-07,3.00000000e-03,3.36093750e-03,4.02812500e-03
-4.82581250e-07,3.01875000e-03,3.36718750e-03,4.03437500e-03
-4.82541250e-07,3.02500000e-03,3.36875000e-03,4.03750000e-03
-4.82501250e-07,3.02187500e-03,3.36406250e-03,4.03750000e-03
-4.82461250e-07,3.00625000e-03,3.35468750e-03,4.03750000e-03
-4.82421250e-07,2.98437500e-03,3.34062500e-03,4.03437500e-03
-4.82381250e-07,2.95312500e-03,3.32031250e-03,4.03125000e-03
-4.82341250e-07,2.91562500e-03,3.29687500e-03,4.02500000e-03
-4.82301250e-07,2.87812500e-03,3.26875000e-03,4.01875000e-03
-4.82261250e-07,2.83437500e-03,3.24062500e-03,4.00937500e-03
-4.82221250e-07,2.79375000e-03,3.21250000e-03,4.00312500e-03
-4.82181250e-07,2.75000000e-03,3.18437500e-03,3.99375000e-03
-4.82141250e-07,2.70625000e-03,3.16093750e-03,3.98750000e-03
-4.82101250e-07,2.66562500e-03,3.14062500e-03,3.98125000e-03
-4.82061250e-07,2.62500000e-03,3.12656250e-03,3.97812500e-03
-4.82021250e-07,2.58437500e-03,3.12031250e-03,3.97500000e-03
-4.81981250e-07,2.54687500e-03,3.12187500e-03,3.97187500e-03
-4.81941250e-07,2.50937500e-03,3.13125000e-03,3.97187500e-03
-4.81901250e-07,2.47187500e-03,3.14687500e-03,3.97500000e-03
-4.81861250e-07,2.43437500e-03,3.17187500e-03,3.97500000e-03
-4.81821250e-07,2.39375000e-03,3.20312500e-03,3.98125000e-03
-4.81781250e-07,2.35000000e-03,3.24062500e-03,3.98437500e-03
-4.81741250e-07,2.30625000e-03,3.28125000e-03,3.99062500e-03
-4.81701250e-07,2.25937500e-03,3.32500000e-03,3.99687500e-03
-4.81661250e-07,2.20937500e-03,3.36875000e-03,4.00625000e-03
-4.81621250e-07,2.15625000e-03,3.40937500e-03,4.01250000e-03
-4.81581250e-07,2.10312500e-03,3.44687500e-03,4.01875000e-03
-4.81541250e-07,2.04687500e-03,3.47812500e-03,4.02187500e-03
-4.81501250e-07,1.99062500e-03,3.50156250e-03,4.02812500e-03
-4.81461250e-07,1.93125000e-03,3.51562500e-03,4.03125000e-03
-4.81421250e-07,1.87812500e-03,3.52031250e-03,4.03437500e-03
-4.81381250e-07,1.82187500e-03,3.51250000e-03,4.03437500e-03
-4.81341250e-07,1.77187500e-03,3.49531250e-03,4.03437500e-03
-4.81301250e-07,1.72500000e-03,3.46562500e-03,4.03125000e-03
-4.81261250e-07,1.68125000e-03,3.42656250e-03,4.02812500e-03
-4.81221250e-07,1.64062500e-03,3.37812500e-03,4.02187500e-03
-4.81181250e-07,1.60937500e-03,3.32343750e-03,4.01562500e-03
-4.81141250e-07,1.58125000e-03,3.26250000e-03,4.00937500e-03
-4.81101250e-07,1.55625000e-03,3.19843750e-03,4.00312500e-03
-4.81061250e-07,1.54062500e-03,3.13437500e-03,3.99375000e-03
-4.81021250e-07,1.52812500e-03,3.07187500e-03,3.98437500e-03
-4.80981250e-07,1.51875000e-03,3.01406250e-03,3.97812500e-03
-4.80941250e-07,1.51562500e-03,2.96093750e-03,3.96875000e-03
-4.80901250e-07,1.51250000e-03,2.91718750e-03,3.96250000e-03
-4.80861250e-07,1.51562500e-03,2.88437500e-03,3.95625000e-03
-4.80821250e-07,1.51875000e-03,2.86250000e-03,3.95000000e-03
-4.80781250e-07,1.52500000e-03,2.85156250e-03,3.94375000e-03
-4.80741250e-07,1.53125000e-03,2.85312500e-03,3.94062500e-03
-4.80701250e-07,1.53750000e-03,2.86718750e-03,3.93437500e-03
-4.80661250e-07,1.54687500e-03,2.89062500e-03,3.93125000e-03
-4.80621250e-07,1.55937500e-03,2.92500000e-03,3.92812500e-03
-4.80581250e-07,1.56875000e-03,2.96875000e-03,3.92500000e-03
-4.80541250e-07,1.58125000e-03,3.01718750e-03,3.92187500e-03
-4.80501250e-07,1.59687500e-03,3.07187500e-03,3.92187500e-03
-4.80461250e-07,1.61562500e-03,3.12656250e-03,3.91562500e-03
-4.80421250e-07,1.63437500e-03,3.18125000e-03,3.91250000e-03
-4.80381250e-07,1.65937500e-03,3.23281250e-03,3.90937500e-03
-4.80341250e-07,1.68437500e-03,3.27968750e-03,3.90312500e-03
-4.80301250e-07,1.71250000e-03,3.31875000e-03,3.89687500e-03
-4.80261250e-07,1.74375000e-03,3.35156250e-03,3.89062500e-03
-4.80221250e-07,1.77812500e-03,3.37343750e-03,3.88125000e-03
-4.80181250e-07,1.81250000e-03,3.38437500e-03,3.87187500e-03
-4.80141250e-07,1.85000000e-03,3.38593750e-03,3.86250000e-03
-4.80101250e-07,1.88750000e-03,3.37656250e-03,3.85312500e-03
-4.80061250e-07,1.92187500e-03,3.35937500e-03,3.84375000e-03
-4.80021250e-07,1.95312500e-03,3.33281250e-03,3.83750000e-03
-4.79981250e-07,1.98125000e-03,3.30000000e-03,3.82812500e-03
-4.79941250e-07,2.00312500e-03,3.26250000e-03,3.82187500e-03
-4.79901250e-07,2.01875000e-03,3.22187500e-03,3.81875000e-03
-4.79861250e-07,2.02812500e-03,3.18125000e-03,3.81562500e-03
-4.79821250e-07,2.02500000e-03,3.14375000e-03,3.81562500e-03
-4.79781250e-07,2.01562500e-03,3.10781250e-03,3.81875000e-03
-4.79741250e-07,1.99687500e-03,3.07968750e-03,3.82187500e-03
-4.79701250e-07,1.96562500e-03,3.05781250e-03,3.83125000e-03
-4.79661250e-07,1.92812500e-03,3.04375000e-03,3.84062500e-03
-4.79621250e-07,1.87812500e-03,3.03906250e-03,3.85625000e-03
-4.79581250e-07,1.82187500e-03,3.04375000e-03,3.86875000e-03
-4.79541250e-07,1.75937500e-03,3.05937500e-03,3.88750000e-03
-4.79501250e-07,1.69062500e-03,3.08281250e-03,3.90312500e-03
-4.79461250e-07,1.61875000e-03,3.11406250e-03,3.92187500e-03
-4.79421250e-07,1.54375000e-03,3.15312500e-03,3.94375000e-03
-4.79381250e-07,1.46875000e-03,3.19531250e-03,3.95937500e-03
-4.79341250e-07,1.39687500e-03,3.24218750e-03,3.97812500e-03
-4.79301250e-07,1.32812500e-03,3.28906250e-03,3.99375000e-03
-4.79261250e-07,1.26562500e-03,3.33437500e-03,4.00937500e-03
-4.79221250e-07,1.20937500e-03,3.37656250e-03,4.01875000e-03
-4.79181250e-07,1.15937500e-03,3.41406250e-03,4.02812500e-03
-4.79141250e-07,1.11875000e-03,3.44531250e-03,4.03750000e-03
-4.79101250e-07,1.08437500e-03,3.46718750e-03,4.04062500e-03
-4.79061250e-07,1.06250000e-03,3.47968750e-03,4.04062500e-03
-4.79021250e-07,1.05000000e-03,3.48437500e-03,4.04062500e-03
-4.78981250e-07,1.04375000e-03,3.47812500e-03,4.03750000e-03
-4.78941250e-07,1.04687500e-03,3.46406250e-03,4.03437500e-03
-4.78901250e-07,1.05625000e-03,3.44062500e-03,4.02812500e-03
-4.78861250e-07,1.07187500e-03,3.41093750e-03,4.02187500e-03
-4.78821250e-07,1.09062500e-03,3.37500000e-03,4.01250000e-03
-4.78781250e-07,1.11562500e-03,3.33593750e-03,4.00625000e-03
-4.78741250e-07,1.13750000e-03,3.29531250e-03,4.00000000e-03
-4.78701250e-07,1.16250000e-03,3.25468750e-03,3.99375000e-03
-4.78661250e-07,1.18750000e-03,3.21562500e-03,3.98750000e-03
-4.78621250e-07,1.21250000e-03,3.18281250e-03,3.98437500e-03
-4.78581250e-07,1.23125000e-03,3.15468750e-03,3.98125000e-03
-4.78541250e-07,1.25000000e-03,3.13437500e-03,3.98125000e-03
-4.78501250e-07,1.26875000e-03,3.12343750e-03,3.98125000e-03
-4.78461250e-07,1.28125000e-03,3.12187500e-03,3.98437500e-03
-4.78421250e-07,1.29375000e-03,3.12812500e-03,3.98750000e-03
-4.78381250e-07,1.30312500e-03,3.14531250e-03,3.99062500e-03
-4.78341250e-07,1.30937500e-03,3.17031250e-03,3.99375000e-03
-4.78301250e-07,1.31875000e-03,3.20156250e-03,3.99687500e-03
-4.78261250e-07,1.32812500e-03,3.24062500e-03,4.00000000e-03
-4.78221250e-07,1.34062500e-03,3.28281250e-03,4.00625000e-03
-4.78181250e-07,1.35312500e-03,3.32656250e-03,4.00937500e-03
-4.78141250e-07,1.36875000e-03,3.37187500e-03,4.00937500e-03
-4.78101250e-07,1.39062500e-03,3.41406250e-03,4.01250000e-03
-4.78061250e-07,1.41250000e-03,3.45312500e-03,4.01250000e-03
-4.78021250e-07,1.44062500e-03,3.48593750e-03,4.01250000e-03
-4.77981250e-07,1.47187500e-03,3.51250000e-03,4.01250000e-03
-4.77941250e-07,1.50625000e-03,3.52968750e-03,4.00937500e-03
-4.77901250e-07,1.54375000e-03,3.53750000e-03,4.00937500e-03
-4.77861250e-07,1.58125000e-03,3.53437500e-03,4.00625000e-03
-4.77821250e-07,1.62187500e-03,3.52343750e-03,4.00312500e-03
-4.77781250e-07,1.65937500e-03,3.50156250e-03,4.00000000e-03
-4.77741250e-07,1.69375000e-03,3.47187500e-03,4.00000000e-03
-4.77701250e-07,1.72500000e-03,3.43437500e-03,3.99687500e-03
-4.77661250e-07,1.75000000e-03,3.39062500e-03,3.99687500e-03
-4.77621250e-07,1.76875000e-03,3.34218750e-03,3.99375000e-03
-4.77581250e-07,1.77812500e-03,3.29218750e-03,3.99375000e-03
-4.77541250e-07,1.78125000e-03,3.24062500e-03,3.99687500e-03
-4.77501250e-07,1.77187500e-03,3.19062500e-03,3.99687500e-03
-4.77461250e-07,1.75625000e-03,3.14218750e-03,3.99687500e-03
-4.77421250e-07,1.72812500e-03,3.10000000e-03,4.00000000e-03
