transmissionlines/BB5data/amplicsv/ampli_ALL_20250709080235425.csv

Model,MSO64
Channel,CH1,,Channel,CH2,,Channel,CH3
Label,,,Label,,,Label,
Waveform Type,ANALOG,,Waveform Type,ANALOG,,Waveform Type,ANALOG
Digital Type,None,,Digital Type,None,,Digital Type,None
Horizontal Units,s,,Horizontal Units,s,,Horizontal Units,s
Sample Interval,4.00000000e-11,,Sample Interval,4.00000000e-11,,Sample Interval,4.00000000e-11
Record Length,25000,,Record Length,25000,,Record Length,25000
Zero Index,12249.53125000,,Zero Index,12249.53125000,,Zero Index,12249.53125000
Vertical Units,V,,Vertical Units,V,,Vertical Units,V
,,,,,,,
ANALOG_Thumbnail,,,ANALOG_Thumbnail,,,ANALOG_Thumbnail,
yOffset,0.000000,,yOffset,0.000000,,yOffset,0.000000
yPosition,-0.680000,,yPosition,-2.140000,,yPosition,0.000000

Labels,,,
TIME,CH1,CH2,CH3
-4.89981250e-07,-2.30625000e-03,3.12968750e-03,4.03750000e-03
-4.89941250e-07,-2.23437500e-03,3.13593750e-03,4.02500000e-03
-4.89901250e-07,-2.16875000e-03,3.13281250e-03,4.01250000e-03
-4.89861250e-07,-2.10937500e-03,3.12031250e-03,4.00000000e-03
-4.89821250e-07,-2.06562500e-03,3.09843750e-03,3.99062500e-03
-4.89781250e-07,-2.03125000e-03,3.07031250e-03,3.98125000e-03
-4.89741250e-07,-2.01250000e-03,3.03593750e-03,3.97500000e-03
-4.89701250e-07,-2.01250000e-03,2.99687500e-03,3.96875000e-03
-4.89661250e-07,-2.02500000e-03,2.95468750e-03,3.96562500e-03
-4.89621250e-07,-2.05312500e-03,2.91093750e-03,3.96250000e-03
-4.89581250e-07,-2.09375000e-03,2.86718750e-03,3.96250000e-03
-4.89541250e-07,-2.14375000e-03,2.82656250e-03,3.96250000e-03
-4.89501250e-07,-2.20312500e-03,2.79062500e-03,3.96250000e-03
-4.89461250e-07,-2.26562500e-03,2.75937500e-03,3.96250000e-03
-4.89421250e-07,-2.32812500e-03,2.73437500e-03,3.96562500e-03
-4.89381250e-07,-2.38750000e-03,2.71875000e-03,3.96562500e-03
-4.89341250e-07,-2.44062500e-03,2.71093750e-03,3.96875000e-03
-4.89301250e-07,-2.48437500e-03,2.71250000e-03,3.97187500e-03
-4.89261250e-07,-2.51250000e-03,2.72187500e-03,3.97812500e-03
-4.89221250e-07,-2.52500000e-03,2.73906250e-03,3.98437500e-03
-4.89181250e-07,-2.52187500e-03,2.76562500e-03,3.99062500e-03
-4.89141250e-07,-2.50000000e-03,2.79687500e-03,4.00312500e-03
-4.89101250e-07,-2.45937500e-03,2.83437500e-03,4.01562500e-03
-4.89061250e-07,-2.40312500e-03,2.87500000e-03,4.03125000e-03
-4.89021250e-07,-2.33125000e-03,2.91875000e-03,4.05000000e-03
-4.88981250e-07,-2.24687500e-03,2.96250000e-03,4.06875000e-03
-4.88941250e-07,-2.15000000e-03,3.00468750e-03,4.09062500e-03
-4.88901250e-07,-2.05000000e-03,3.04531250e-03,4.11562500e-03
-4.88861250e-07,-1.95000000e-03,3.08125000e-03,4.14062500e-03
-4.88821250e-07,-1.85000000e-03,3.11093750e-03,4.16562500e-03
-4.88781250e-07,-1.75625000e-03,3.13593750e-03,4.19062500e-03
-4.88741250e-07,-1.67500000e-03,3.15312500e-03,4.21562500e-03
-4.88701250e-07,-1.60312500e-03,3.16406250e-03,4.23437500e-03
-4.88661250e-07,-1.55000000e-03,3.16562500e-03,4.25312500e-03
-4.88621250e-07,-1.51562500e-03,3.16250000e-03,4.26562500e-03
-4.88581250e-07,-1.50000000e-03,3.15000000e-03,4.27187500e-03
-4.88541250e-07,-1.50312500e-03,3.13281250e-03,4.27500000e-03
-4.88501250e-07,-1.52812500e-03,3.11093750e-03,4.26875000e-03
-4.88461250e-07,-1.56875000e-03,3.08437500e-03,4.25937500e-03
-4.88421250e-07,-1.62500000e-03,3.05468750e-03,4.24375000e-03
-4.88381250e-07,-1.69687500e-03,3.02343750e-03,4.22187500e-03
-4.88341250e-07,-1.77812500e-03,2.99218750e-03,4.19687500e-03
-4.88301250e-07,-1.86562500e-03,2.96406250e-03,4.16562500e-03
-4.88261250e-07,-1.95937500e-03,2.93593750e-03,4.13125000e-03
-4.88221250e-07,-2.05312500e-03,2.91250000e-03,4.09687500e-03
-4.88181250e-07,-2.14375000e-03,2.89531250e-03,4.05937500e-03
-4.88141250e-07,-2.22812500e-03,2.88125000e-03,4.02500000e-03
-4.88101250e-07,-2.30312500e-03,2.87343750e-03,3.99375000e-03
-4.88061250e-07,-2.36875000e-03,2.87187500e-03,3.96250000e-03
-4.88021250e-07,-2.42187500e-03,2.87500000e-03,3.93750000e-03
-4.87981250e-07,-2.46562500e-03,2.88281250e-03,3.91875000e-03
-4.87941250e-07,-2.49687500e-03,2.89687500e-03,3.90625000e-03
-4.87901250e-07,-2.51562500e-03,2.91406250e-03,3.89687500e-03
-4.87861250e-07,-2.52500000e-03,2.93437500e-03,3.89375000e-03
-4.87821250e-07,-2.52500000e-03,2.95625000e-03,3.90000000e-03
-4.87781250e-07,-2.51562500e-03,2.97812500e-03,3.90937500e-03
-4.87741250e-07,-2.50312500e-03,3.00000000e-03,3.92187500e-03
-4.87701250e-07,-2.48750000e-03,3.02031250e-03,3.94062500e-03
-4.87661250e-07,-2.46875000e-03,3.03750000e-03,3.95937500e-03
-4.87621250e-07,-2.45000000e-03,3.05000000e-03,3.98125000e-03
-4.87581250e-07,-2.43437500e-03,3.05937500e-03,4.00625000e-03
-4.87541250e-07,-2.41875000e-03,3.06406250e-03,4.02500000e-03
-4.87501250e-07,-2.40625000e-03,3.06250000e-03,4.04687500e-03
-4.87461250e-07,-2.40000000e-03,3.05781250e-03,4.06250000e-03
-4.87421250e-07,-2.39375000e-03,3.04687500e-03,4.07500000e-03
-4.87381250e-07,-2.39375000e-03,3.03437500e-03,4.08125000e-03
-4.87341250e-07,-2.39375000e-03,3.01718750e-03,4.08437500e-03
-4.87301250e-07,-2.39687500e-03,3.00000000e-03,4.08125000e-03
-4.87261250e-07,-2.39687500e-03,2.98125000e-03,4.07500000e-03
-4.87221250e-07,-2.40000000e-03,2.96406250e-03,4.06250000e-03
-4.87181250e-07,-2.40000000e-03,2.94843750e-03,4.04687500e-03
-4.87141250e-07,-2.40000000e-03,2.93593750e-03,4.02812500e-03
-4.87101250e-07,-2.39687500e-03,2.92812500e-03,4.00937500e-03
-4.87061250e-07,-2.39375000e-03,2.92656250e-03,3.98750000e-03
-4.87021250e-07,-2.38750000e-03,2.92968750e-03,3.96562500e-03
-4.86981250e-07,-2.37812500e-03,2.93906250e-03,3.94687500e-03
-4.86941250e-07,-2.36875000e-03,2.95468750e-03,3.92812500e-03
-4.86901250e-07,-2.36250000e-03,2.97812500e-03,3.91562500e-03
-4.86861250e-07,-2.35625000e-03,3.00468750e-03,3.90625000e-03
-4.86821250e-07,-2.35000000e-03,3.03750000e-03,3.90000000e-03
-4.86781250e-07,-2.35000000e-03,3.07343750e-03,3.90312500e-03
-4.86741250e-07,-2.35625000e-03,3.11093750e-03,3.90937500e-03
-4.86701250e-07,-2.36562500e-03,3.15000000e-03,3.92187500e-03
-4.86661250e-07,-2.38125000e-03,3.18750000e-03,3.94062500e-03
-4.86621250e-07,-2.40312500e-03,3.22187500e-03,3.96562500e-03
-4.86581250e-07,-2.43125000e-03,3.25312500e-03,3.99375000e-03
-4.86541250e-07,-2.46562500e-03,3.27968750e-03,4.02500000e-03
-4.86501250e-07,-2.50312500e-03,3.30000000e-03,4.05937500e-03
-4.86461250e-07,-2.54375000e-03,3.31093750e-03,4.09375000e-03
-4.86421250e-07,-2.58437500e-03,3.31562500e-03,4.12812500e-03
-4.86381250e-07,-2.62812500e-03,3.31250000e-03,4.16250000e-03
-4.86341250e-07,-2.66562500e-03,3.30156250e-03,4.19375000e-03
-4.86301250e-07,-2.70312500e-03,3.28281250e-03,4.22187500e-03
-4.86261250e-07,-2.73437500e-03,3.25781250e-03,4.24687500e-03
-4.86221250e-07,-2.75937500e-03,3.22656250e-03,4.26562500e-03
-4.86181250e-07,-2.77500000e-03,3.19062500e-03,4.27812500e-03
-4.86141250e-07,-2.78125000e-03,3.15312500e-03,4.28750000e-03
-4.86101250e-07,-2.78125000e-03,3.11406250e-03,4.28750000e-03
-4.86061250e-07,-2.77187500e-03,3.07500000e-03,4.28125000e-03
-4.86021250e-07,-2.75625000e-03,3.03750000e-03,4.26875000e-03
-4.85981250e-07,-2.73125000e-03,3.00312500e-03,4.25312500e-03
-4.85941250e-07,-2.70625000e-03,2.97343750e-03,4.23125000e-03
-4.85901250e-07,-2.67500000e-03,2.95000000e-03,4.20625000e-03
-4.85861250e-07,-2.64687500e-03,2.93125000e-03,4.17812500e-03
-4.85821250e-07,-2.61875000e-03,2.91875000e-03,4.14687500e-03
-4.85781250e-07,-2.59687500e-03,2.91250000e-03,4.11562500e-03
-4.85741250e-07,-2.58125000e-03,2.91250000e-03,4.08437500e-03
-4.85701250e-07,-2.57500000e-03,2.91718750e-03,4.05625000e-03
-4.85661250e-07,-2.57812500e-03,2.92812500e-03,4.02812500e-03
-4.85621250e-07,-2.59062500e-03,2.94062500e-03,4.00312500e-03
-4.85581250e-07,-2.61562500e-03,2.95781250e-03,3.98125000e-03
-4.85541250e-07,-2.65312500e-03,2.97500000e-03,3.96562500e-03
-4.85501250e-07,-2.70000000e-03,2.99375000e-03,3.95000000e-03
-4.85461250e-07,-2.75625000e-03,3.01093750e-03,3.94062500e-03
-4.85421250e-07,-2.82187500e-03,3.02656250e-03,3.93750000e-03
-4.85381250e-07,-2.89062500e-03,3.04062500e-03,3.93750000e-03
-4.85341250e-07,-2.96562500e-03,3.05000000e-03,3.94062500e-03
-4.85301250e-07,-3.04062500e-03,3.05781250e-03,3.94375000e-03
-4.85261250e-07,-3.11250000e-03,3.06250000e-03,3.95312500e-03
-4.85221250e-07,-3.18125000e-03,3.06406250e-03,3.96250000e-03
-4.85181250e-07,-3.24375000e-03,3.06250000e-03,3.97500000e-03
-4.85141250e-07,-3.30000000e-03,3.05781250e-03,3.98750000e-03
-4.85101250e-07,-3.34375000e-03,3.05312500e-03,3.99687500e-03
-4.85061250e-07,-3.37500000e-03,3.04531250e-03,4.00937500e-03
-4.85021250e-07,-3.39687500e-03,3.03906250e-03,4.01875000e-03
-4.84981250e-07,-3.40625000e-03,3.03281250e-03,4.02500000e-03
-4.84941250e-07,-3.40312500e-03,3.02656250e-03,4.03125000e-03
-4.84901250e-07,-3.39062500e-03,3.02187500e-03,4.03437500e-03
-4.84861250e-07,-3.37187500e-03,3.01875000e-03,4.03437500e-03
-4.84821250e-07,-3.34375000e-03,3.01875000e-03,4.03437500e-03
-4.84781250e-07,-3.31250000e-03,3.01875000e-03,4.03125000e-03
-4.84741250e-07,-3.27500000e-03,3.02031250e-03,4.02500000e-03
-4.84701250e-07,-3.24062500e-03,3.02187500e-03,4.01875000e-03
-4.84661250e-07,-3.20625000e-03,3.02500000e-03,4.01250000e-03
-4.84621250e-07,-3.17500000e-03,3.02812500e-03,4.00625000e-03
-4.84581250e-07,-3.15000000e-03,3.02968750e-03,3.99687500e-03
-4.84541250e-07,-3.13125000e-03,3.02968750e-03,3.99062500e-03
-4.84501250e-07,-3.11875000e-03,3.02812500e-03,3.98437500e-03
-4.84461250e-07,-3.11250000e-03,3.02500000e-03,3.97812500e-03
-4.84421250e-07,-3.11562500e-03,3.01875000e-03,3.97500000e-03
-4.84381250e-07,-3.12187500e-03,3.01093750e-03,3.97187500e-03
-4.84341250e-07,-3.13750000e-03,3.00000000e-03,3.97187500e-03
-4.84301250e-07,-3.15625000e-03,2.98906250e-03,3.97187500e-03
-4.84261250e-07,-3.17812500e-03,2.97656250e-03,3.97500000e-03
-4.84221250e-07,-3.20312500e-03,2.96406250e-03,3.97812500e-03
-4.84181250e-07,-3.22812500e-03,2.95156250e-03,3.98437500e-03
-4.84141250e-07,-3.25000000e-03,2.94218750e-03,3.99062500e-03
-4.84101250e-07,-3.27187500e-03,2.93437500e-03,3.99687500e-03
-4.84061250e-07,-3.28750000e-03,2.93125000e-03,4.00312500e-03
-4.84021250e-07,-3.30000000e-03,2.93281250e-03,4.00937500e-03
-4.83981250e-07,-3.30937500e-03,2.93906250e-03,4.01562500e-03
-4.83941250e-07,-3.30937500e-03,2.95156250e-03,4.01875000e-03
-4.83901250e-07,-3.30625000e-03,2.96875000e-03,4.02187500e-03
-4.83861250e-07,-3.29687500e-03,2.99218750e-03,4.02500000e-03
-4.83821250e-07,-3.28437500e-03,3.02187500e-03,4.02500000e-03
-4.83781250e-07,-3.26875000e-03,3.05312500e-03,4.02187500e-03
-4.83741250e-07,-3.25000000e-03,3.08906250e-03,4.01875000e-03
-4.83701250e-07,-3.22812500e-03,3.12656250e-03,4.01562500e-03
-4.83661250e-07,-3.20937500e-03,3.16406250e-03,4.01250000e-03
-4.83621250e-07,-3.19062500e-03,3.20000000e-03,4.00625000e-03
-4.83581250e-07,-3.17500000e-03,3.23437500e-03,4.00000000e-03
-4.83541250e-07,-3.15937500e-03,3.26250000e-03,3.99375000e-03
-4.83501250e-07,-3.15312500e-03,3.28437500e-03,3.98750000e-03
-4.83461250e-07,-3.14687500e-03,3.30000000e-03,3.98125000e-03
-4.83421250e-07,-3.14687500e-03,3.30781250e-03,3.97812500e-03
-4.83381250e-07,-3.15312500e-03,3.30625000e-03,3.97500000e-03
-4.83341250e-07,-3.15937500e-03,3.29687500e-03,3.97187500e-03
-4.83301250e-07,-3.17187500e-03,3.27812500e-03,3.97187500e-03
-4.83261250e-07,-3.18750000e-03,3.25156250e-03,3.97500000e-03
-4.83221250e-07,-3.20625000e-03,3.21875000e-03,3.97812500e-03
-4.83181250e-07,-3.22500000e-03,3.17968750e-03,3.98125000e-03
-4.83141250e-07,-3.24062500e-03,3.13593750e-03,3.98750000e-03
-4.83101250e-07,-3.25937500e-03,3.09062500e-03,3.99375000e-03
-4.83061250e-07,-3.27187500e-03,3.04375000e-03,4.00312500e-03
-4.83021250e-07,-3.28437500e-03,2.99843750e-03,4.00937500e-03
-4.82981250e-07,-3.29062500e-03,2.95468750e-03,4.01562500e-03
-4.82941250e-07,-3.29375000e-03,2.91718750e-03,4.02187500e-03
-4.82901250e-07,-3.29062500e-03,2.88437500e-03,4.02500000e-03
-4.82861250e-07,-3.28437500e-03,2.85781250e-03,4.02812500e-03
-4.82821250e-07,-3.27500000e-03,2.83906250e-03,4.03125000e-03
-4.82781250e-07,-3.25937500e-03,2.82812500e-03,4.03125000e-03
-4.82741250e-07,-3.24375000e-03,2.82343750e-03,4.02812500e-03
-4.82701250e-07,-3.22500000e-03,2.82656250e-03,4.02500000e-03
-4.82661250e-07,-3.20312500e-03,2.83437500e-03,4.01875000e-03
-4.82621250e-07,-3.18437500e-03,2.84687500e-03,4.01250000e-03
-4.82581250e-07,-3.16562500e-03,2.86250000e-03,4.00312500e-03
-4.82541250e-07,-3.14687500e-03,2.88125000e-03,3.99375000e-03
-4.82501250e-07,-3.13437500e-03,2.89843750e-03,3.98437500e-03
-4.82461250e-07,-3.12500000e-03,2.91562500e-03,3.97500000e-03
-4.82421250e-07,-3.12187500e-03,2.92968750e-03,3.96875000e-03
-4.82381250e-07,-3.12187500e-03,2.94062500e-03,3.96250000e-03
-4.82341250e-07,-3.12812500e-03,2.94687500e-03,3.95625000e-03
-4.82301250e-07,-3.14062500e-03,2.94843750e-03,3.95625000e-03
-4.82261250e-07,-3.15937500e-03,2.94375000e-03,3.95625000e-03
-4.82221250e-07,-3.18437500e-03,2.93593750e-03,3.95625000e-03
-4.82181250e-07,-3.20937500e-03,2.92187500e-03,3.96250000e-03
-4.82141250e-07,-3.24375000e-03,2.90625000e-03,3.97187500e-03
-4.82101250e-07,-3.27500000e-03,2.88593750e-03,3.98125000e-03
-4.82061250e-07,-3.31250000e-03,2.86718750e-03,3.99375000e-03
-4.82021250e-07,-3.34687500e-03,2.84687500e-03,4.00937500e-03
-4.81981250e-07,-3.38437500e-03,2.82968750e-03,4.02187500e-03
-4.81941250e-07,-3.41562500e-03,2.81562500e-03,4.04062500e-03
-4.81901250e-07,-3.44375000e-03,2.80468750e-03,4.05625000e-03
-4.81861250e-07,-3.46875000e-03,2.80156250e-03,4.07187500e-03
-4.81821250e-07,-3.49062500e-03,2.80312500e-03,4.08437500e-03
-4.81781250e-07,-3.50312500e-03,2.81250000e-03,4.10000000e-03
-4.81741250e-07,-3.51250000e-03,2.82968750e-03,4.10937500e-03
-4.81701250e-07,-3.51250000e-03,2.85156250e-03,4.11875000e-03
-4.81661250e-07,-3.50625000e-03,2.88125000e-03,4.12500000e-03
-4.81621250e-07,-3.49375000e-03,2.91562500e-03,4.12812500e-03
-4.81581250e-07,-3.47500000e-03,2.95468750e-03,4.13125000e-03
-4.81541250e-07,-3.45312500e-03,2.99531250e-03,4.12812500e-03
-4.81501250e-07,-3.42500000e-03,3.03750000e-03,4.12500000e-03
-4.81461250e-07,-3.39375000e-03,3.07968750e-03,4.11875000e-03
-4.81421250e-07,-3.35937500e-03,3.12031250e-03,4.11250000e-03
-4.81381250e-07,-3.32500000e-03,3.15625000e-03,4.10312500e-03
-4.81341250e-07,-3.29062500e-03,3.18906250e-03,4.09375000e-03
-4.81301250e-07,-3.25625000e-03,3.21562500e-03,4.08125000e-03
-4.81261250e-07,-3.22500000e-03,3.23437500e-03,4.07187500e-03
-4.81221250e-07,-3.19687500e-03,3.24687500e-03,4.05937500e-03
-4.81181250e-07,-3.17187500e-03,3.25156250e-03,4.05000000e-03
-4.81141250e-07,-3.15312500e-03,3.25000000e-03,4.04062500e-03
-4.81101250e-07,-3.14062500e-03,3.24218750e-03,4.03125000e-03
-4.81061250e-07,-3.13125000e-03,3.22812500e-03,4.02187500e-03
-4.81021250e-07,-3.12812500e-03,3.20781250e-03,4.01562500e-03
-4.80981250e-07,-3.13125000e-03,3.18437500e-03,4.00625000e-03
-4.80941250e-07,-3.13750000e-03,3.15781250e-03,4.00000000e-03
-4.80901250e-07,-3.15000000e-03,3.12968750e-03,3.99375000e-03
-4.80861250e-07,-3.16562500e-03,3.10156250e-03,3.98750000e-03
-4.80821250e-07,-3.18437500e-03,3.07187500e-03,3.98125000e-03
-4.80781250e-07,-3.20625000e-03,3.04375000e-03,3.97812500e-03
-4.80741250e-07,-3.22812500e-03,3.01875000e-03,3.97187500e-03
-4.80701250e-07,-3.25000000e-03,2.99375000e-03,3.96875000e-03
-4.80661250e-07,-3.26875000e-03,2.97187500e-03,3.96562500e-03
-4.80621250e-07,-3.28750000e-03,2.95312500e-03,3.96250000e-03
-4.80581250e-07,-3.30312500e-03,2.93437500e-03,3.96250000e-03
-4.80541250e-07,-3.31562500e-03,2.91875000e-03,3.96250000e-03
-4.80501250e-07,-3.32500000e-03,2.90468750e-03,3.96250000e-03
-4.80461250e-07,-3.32812500e-03,2.89218750e-03,3.96562500e-03
-4.80421250e-07,-3.32500000e-03,2.87968750e-03,3.97187500e-03
-4.80381250e-07,-3.32187500e-03,2.86562500e-03,3.97812500e-03
-4.80341250e-07,-3.31250000e-03,2.85312500e-03,3.98750000e-03
-4.80301250e-07,-3.30000000e-03,2.83906250e-03,4.00000000e-03
-4.80261250e-07,-3.28437500e-03,2.82500000e-03,4.00937500e-03
-4.80221250e-07,-3.26562500e-03,2.80937500e-03,4.02187500e-03
-4.80181250e-07,-3.25000000e-03,2.79531250e-03,4.03437500e-03
-4.80141250e-07,-3.23125000e-03,2.77968750e-03,4.04687500e-03
-4.80101250e-07,-3.21250000e-03,2.76406250e-03,4.05937500e-03
-4.80061250e-07,-3.19687500e-03,2.75000000e-03,4.06562500e-03
-4.80021250e-07,-3.18437500e-03,2.73906250e-03,4.07187500e-03
-4.79981250e-07,-3.17500000e-03,2.72968750e-03,4.07500000e-03
-4.79941250e-07,-3.16875000e-03,2.72187500e-03,4.07500000e-03
-4.79901250e-07,-3.16875000e-03,2.71875000e-03,4.06562500e-03
-4.79861250e-07,-3.17187500e-03,2.72031250e-03,4.05625000e-03
-4.79821250e-07,-3.17812500e-03,2.72500000e-03,4.03750000e-03
-4.79781250e-07,-3.18750000e-03,2.73437500e-03,4.01562500e-03
-4.79741250e-07,-3.20312500e-03,2.74687500e-03,3.99062500e-03
-4.79701250e-07,-3.21875000e-03,2.76406250e-03,3.95937500e-03
-4.79661250e-07,-3.23437500e-03,2.78437500e-03,3.92500000e-03
-4.79621250e-07,-3.25000000e-03,2.80625000e-03,3.88750000e-03
-4.79581250e-07,-3.26562500e-03,2.82968750e-03,3.84687500e-03
-4.79541250e-07,-3.27500000e-03,2.85312500e-03,3.80937500e-03
-4.79501250e-07,-3.28437500e-03,2.87656250e-03,3.77187500e-03
-4.79461250e-07,-3.28437500e-03,2.89843750e-03,3.73750000e-03
-4.79421250e-07,-3.27812500e-03,2.91718750e-03,3.70625000e-03
-4.79381250e-07,-3.26562500e-03,2.93281250e-03,3.68125000e-03
-4.79341250e-07,-3.24375000e-03,2.94531250e-03,3.66250000e-03
-4.79301250e-07,-3.21562500e-03,2.95156250e-03,3.65000000e-03
-4.79261250e-07,-3.17500000e-03,2.95468750e-03,3.64375000e-03
-4.79221250e-07,-3.13125000e-03,2.95312500e-03,3.64687500e-03
-4.79181250e-07,-3.07812500e-03,2.94687500e-03,3.65937500e-03
-4.79141250e-07,-3.01875000e-03,2.93750000e-03,3.67812500e-03
-4.79101250e-07,-2.95625000e-03,2.92500000e-03,3.70312500e-03
-4.79061250e-07,-2.89062500e-03,2.90937500e-03,3.73437500e-03
-4.79021250e-07,-2.82500000e-03,2.89218750e-03,3.77187500e-03
-4.78981250e-07,-2.76250000e-03,2.87500000e-03,3.80937500e-03
-4.78941250e-07,-2.70312500e-03,2.85937500e-03,3.85312500e-03
-4.78901250e-07,-2.65000000e-03,2.84375000e-03,3.89375000e-03
-4.78861250e-07,-2.60312500e-03,2.83281250e-03,3.93437500e-03
-4.78821250e-07,-2.56875000e-03,2.82343750e-03,3.97187500e-03
-4.78781250e-07,-2.54687500e-03,2.81875000e-03,4.00937500e-03
-4.78741250e-07,-2.53437500e-03,2.81718750e-03,4.03750000e-03
-4.78701250e-07,-2.53750000e-03,2.82031250e-03,4.06250000e-03
-4.78661250e-07,-2.55312500e-03,2.82656250e-03,4.08125000e-03
-4.78621250e-07,-2.58125000e-03,2.83750000e-03,4.09375000e-03
-4.78581250e-07,-2.62187500e-03,2.85156250e-03,4.10000000e-03
-4.78541250e-07,-2.67187500e-03,2.86875000e-03,4.09687500e-03
-4.78501250e-07,-2.73125000e-03,2.88750000e-03,4.09062500e-03
-4.78461250e-07,-2.79687500e-03,2.90625000e-03,4.08125000e-03
-4.78421250e-07,-2.86562500e-03,2.92656250e-03,4.06562500e-03
-4.78381250e-07,-2.93750000e-03,2.94531250e-03,4.05000000e-03
-4.78341250e-07,-3.00625000e-03,2.96250000e-03,4.03125000e-03
-4.78301250e-07,-3.07187500e-03,2.97812500e-03,4.01250000e-03
-4.78261250e-07,-3.12812500e-03,2.99062500e-03,3.99375000e-03
-4.78221250e-07,-3.17812500e-03,3.00156250e-03,3.97500000e-03
-4.78181250e-07,-3.21562500e-03,3.00937500e-03,3.96250000e-03
-4.78141250e-07,-3.24062500e-03,3.01406250e-03,3.95000000e-03
-4.78101250e-07,-3.25312500e-03,3.01562500e-03,3.94375000e-03
-4.78061250e-07,-3.25312500e-03,3.01406250e-03,3.94062500e-03
-4.78021250e-07,-3.23750000e-03,3.01250000e-03,3.94062500e-03
-4.77981250e-07,-3.20937500e-03,3.00781250e-03,3.94375000e-03
-4.77941250e-07,-3.17187500e-03,3.00156250e-03,3.95312500e-03
-4.77901250e-07,-3.12812500e-03,2.99531250e-03,3.96250000e-03
-4.77861250e-07,-3.07500000e-03,2.98906250e-03,3.97500000e-03
-4.77821250e-07,-3.01875000e-03,2.98281250e-03,3.98750000e-03
-4.77781250e-07,-2.95937500e-03,2.97656250e-03,4.00000000e-03
-4.77741250e-07,-2.90312500e-03,2.97031250e-03,4.01250000e-03
-4.77701250e-07,-2.85312500e-03,2.96562500e-03,4.02500000e-03
-4.77661250e-07,-2.80937500e-03,2.96093750e-03,4.03437500e-03
-4.77621250e-07,-2.77500000e-03,2.95625000e-03,4.04062500e-03
